date;time;x_local;y_local;theta_local;x_global;y_global;theta_global;len_res;ang_res
31-5-2019;13:32:7;1128.3111719015894;2172.249438783338;0.14000271484586324;-1.0;-1.0;0.0;1.0;50
31-5-2019;13:38:12;855.2771993543677;930.9128994395553;0.14000271484586324;-2.0;4.0;0.0;1.0;50
31-5-2019;14:38:51;2148.843350577491;2905.4317034171504;-160.71999762668395;-22.35;25.5278;-160.003;1.0;50
31-5-2019;14:44:34;1374.0121737355714;1181.0488180450618;-159.91999840024758;-25.35;32.5278;-160.003;1.0;50
31-5-2019;13:29:37;2389.9312368069714;2895.8483651848633;-0.14000088724211707;4.0;-4.0;0.0;1.0;50
31-5-2019;14:28:31;1883.4868713156795;2170.981840020249;160.140000166047;-11.7276;35.4276;159.9985;1.0;50
31-5-2019;13:53:0;1843.7700143206866;1163.6192467414485;40.040001964805306;10.530999999999999;13.4667;39.999;1.0;50
31-5-2019;14:55:6;636.8512209027854;2205.094615574812;-120.53999690908934;-32.8188;15.7962;-120.0105;1.0;50
31-5-2019;14:53:6;1136.4538191668034;2683.283825753221;-119.93999776943636;-30.8188;13.7962;-120.0105;1.0;50
31-5-2019;14:41:20;1392.6421322104202;2177.439021523411;-159.83999522103952;-25.35;28.5278;-160.003;1.0;50
31-5-2019;14:25:8;1404.0456754231259;3177.1055233647025;160.16000580685562;-13.7276;31.4276;159.9985;1.0;50
31-5-2019;14:38:14;638.9608061578367;2949.340758995725;-160.13999856005518;-28.35;25.5278;-160.003;1.0;50
31-5-2019;13:38:43;1852.2351225408042;912.4767719115623;0.14000271484586324;2.0;4.0;0.0;1.0;50
31-5-2019;13:55:12;1582.6607825157255;673.4520557596918;40.28000150634004;9.531;15.4667;39.999;1.0;50
31-5-2019;14:20:52;1829.82260485269;910.4097661761692;119.78000138644585;1.5712;38.2151;119.999;1.0;50
31-5-2019;15:1:20;2368.0069610370033;901.9851488094242;-119.81999892641024;-25.8188;20.7962;-120.0105;1.0;50
31-5-2019;15:35:11;1841.6698318033407;418.6377366828916;-39.85999661089283;-11.3173;3.4857;-40.0025;1.0;50
31-5-2019;15:28:29;2129.8489199809615;2163.6157982421714;-40.13999277138474;-10.3173;-3.5142;-40.0025;1.0;50
31-5-2019;14:42:39;615.7411139302393;1702.0469528810129;-160.08000214663545;-28.35;30.5278;-160.003;1.0;50
31-5-2019;15:32:44;358.8707268522652;942.6880058362397;-39.89999394828831;-17.3173;1.4858;-40.0025;1.0;50
31-5-2019;13:44:59;1876.8854173246727;2908.86603217328;40.10000054753388;10.530999999999999;6.4667;39.999;1.0;50
31-5-2019;14:54:17;1131.606685992132;2431.698310320649;-119.81999892641024;-30.8188;14.7962;-120.0105;1.0;50
31-5-2019;15:19:1;1603.4373134866946;668.6625063436043;-79.8800006835249;-24.1001;9.1278;-80.00450000000002;1.0;50
31-5-2019;14:3:59;630.8322018042139;1939.6882788583364;80.32000070532351;5.4487;24.0018;79.999;1.0;50
31-5-2019;14:51:29;393.84688346340334;2951.350207200907;-120.41999827557643;-33.8188;12.7962;-120.0105;1.0;50
31-5-2019;14:54:35;1889.3626442531063;2424.5377115617866;-121.04000088237714;-27.8188;14.7962;-120.0105;1.0;50
31-5-2019;13:50:45;2102.5091600617498;1658.0674803533893;40.040001964805306;11.530999999999999;11.4667;39.999;1.0;50
31-5-2019;14:47:37;2356.6833920637964;415.10809587368135;-159.91999840024758;-21.35;35.5278;-160.003;1.0;50
31-5-2019;13:47:31;369.50074006184065;2187.427317812802;40.05999883758935;4.531000000000001;9.4667;39.999;1.0;50
31-5-2019;13:55:24;2083.550088661923;659.8750591346312;40.05999883758935;11.530999999999999;15.4667;39.999;1.0;50
31-5-2019;14:32:48;1611.754493756898;928.8767667476834;160.20000255317933;-12.7276;40.4276;159.9985;1.0;50
31-5-2019;15:6:36;1136.362498564309;3168.4547666515828;-79.7599942306575;-26.1001;-0.8721;-80.00450000000002;1.0;50
31-5-2019;13:48:27;2361.220757451796;2152.154026856074;40.08000010648507;12.530999999999999;9.4667;39.999;1.0;50
31-5-2019;13:43:36;636.810613975218;3179.6497652274047;40.040001964805306;5.531000000000001;5.4667;39.999;1.0;50
31-5-2019;14:29:48;361.1880185607527;1693.4190842687926;160.140000166047;-17.7276;37.4276;159.9985;1.0;50
31-5-2019;14:33:24;861.5188601709182;691.3266170704549;160.4400022055707;-15.7276;41.4276;159.9985;1.0;50
31-5-2019;14:15:39;2367.240217418392;2417.028468692523;120.07999654494459;3.5712;32.2151;119.999;1.0;50
31-5-2019;13:59:42;652.7402562299027;2913.007287989361;80.18000065721229;5.4487;20.0018;79.999;1.0;50
31-5-2019;15:29:27;1865.4552573957376;1913.5751596921882;-39.78000198902536;-11.3173;-2.5142;-40.0025;1.0;50
31-5-2019;15:25:7;1897.0867926166047;2910.7447956769047;-41.019994094353926;-11.3173;-6.5142;-40.0025;1.0;50
31-5-2019;14:28:1;368.8791814162935;2191.883434282054;159.92000000400012;-17.7276;35.4276;159.9985;1.0;50
31-5-2019;13:37:55;355.27568423897384;941.3975085809959;0.2600023190655764;-4.0;4.0;0.0;1.0;50
31-5-2019;13:37:4;1109.2880242919425;1175.9068140423014;0.16000150741182198;-1.0;3.0;0.0;1.0;50
31-5-2019;13:27:44;2149.6286092404243;3397.5015372462617;-0.04000009210778948;3.0;-6.0;0.0;1.0;50
31-5-2019;14:24:8;910.3522008762677;3434.5347261241673;160.140000166047;-15.7276;30.4276;159.9985;1.0;50
31-5-2019;14:46:30;1862.8279918394549;672.6099202626018;-159.77999922735853;-23.35;34.5278;-160.003;1.0;50
31-5-2019;15:12:12;2373.762399780498;2147.9066120747934;-79.77999332568413;-21.1001;3.1278;-80.00450000000002;1.0;50
31-5-2019;13:32:21;1626.532972006059;2162.5980577527803;0.12000392489226568;1.0;-1.0;0.0;1.0;50
31-5-2019;14:15:49;612.9149521057248;2183.6669653931162;120.26000038088637;-3.4288;33.2151;119.999;1.0;50
31-5-2019;15:35:27;2335.7160246218536;405.6838476375903;-39.76000355016855;-9.3173;3.4857;-40.0025;1.0;50
31-5-2019;15:27:23;2123.670398953747;2408.322533254776;-39.78000198902536;-10.3173;-4.5142;-40.0025;1.0;50
31-5-2019;14:15:23;1872.1210474065977;2425.1645340036293;120.2400018704144;1.5712;32.2151;119.999;1.0;50
31-5-2019;15:22:12;1142.831516141572;3430.1838379993187;-40.01999944539365;-14.3174;-8.5142;-40.0025;1.0;50
31-5-2019;15:30:43;2316.2451248674965;1631.7033610000612;-38.359992147433054;-9.3173;-1.5142;-40.0025;1.0;50
31-5-2019;14:1:9;1387.2361395419296;2665.3842880611005;79.99999971689444;8.4487;21.0018;79.999;1.0;50
31-5-2019;13:33:47;2119.3287522608034;1905.3038384959607;0.10000512860178913;3.0;0.0;0.0;1.0;50
31-5-2019;13:45:45;1125.2891482354287;2672.920771072033;40.05999883758935;7.531000000000001;7.4667;39.999;1.0;50
31-5-2019;13:41:58;2343.7117861867428;413.63632175748864;-0.04000009210778948;4.0;6.0;0.0;1.0;50
31-5-2019;14:51:39;651.6098921024691;2920.508392213545;-119.69999744729245;-32.8188;12.7962;-120.0105;1.0;50
31-5-2019;14:42:16;1885.6435930194125;1919.9141079160322;-159.89999963330618;-23.35;29.5278;-160.003;1.0;50
31-5-2019;14:41:57;871.4397628638791;1943.5323006613187;-159.76000118590898;-27.35;29.5278;-160.003;1.0;50
31-5-2019;15:14:1;1865.6941730784226;1659.2999338370985;-79.7599942306575;-23.1001;5.1278;-80.00450000000002;1.0;50
31-5-2019;13:57:43;1161.0488952163475;3401.657594959745;80.21999989570604;7.4487;18.0018;79.999;1.0;50
31-5-2019;14:34:52;1851.5852047151727;424.9851317310237;160.18000431049782;-11.7276;42.4276;159.9985;1.0;50
31-5-2019;14:28:21;1386.060680130502;2180.2690333419478;160.2599985786254;-13.7276;35.4276;159.9985;1.0;50
31-5-2019;15:26:59;1388.61531868621;2417.490110128131;-41.379997912321116;-13.3173;-4.5142;-40.0025;1.0;50
31-5-2019;14:41:0;375.96857625936434;2204.0527344511493;-160.03999679916427;-29.35;28.5278;-160.003;1.0;50
31-5-2019;15:20:13;1349.404682406092;423.4841692031217;-79.8800006835249;-25.1001;10.1278;-80.00450000000002;1.0;50
31-5-2019;14:48:36;402.1470829932811;3448.864189071392;-120.46000041400524;-33.8188;10.7962;-120.0105;1.0;50
31-5-2019;15:11:5;2137.6988682845363;2430.688652592497;-81.05999789630394;-22.1001;2.1278;-80.00450000000002;1.0;50
31-5-2019;14:51:3;1899.7920927083967;3180.1681167140705;-121.11999903232912;-27.8188;11.7962;-120.0105;1.0;50
31-5-2019;14:32:44;1362.9129341140406;933.1646702185916;160.2599985786254;-13.7276;40.4276;159.9985;1.0;50
31-5-2019;15:11:12;2379.293992034401;2397.8998044030936;-79.83998923098251;-21.1001;2.1278;-80.00450000000002;1.0;50
31-5-2019;14:30:22;2119.9080584578787;1674.625506573155;159.92000000400012;-10.7276;37.4276;159.9985;1.0;50
31-5-2019;14:39:35;1379.1885787937836;2672.034611673143;-159.93999685724586;-25.35;26.5278;-160.003;1.0;50
31-5-2019;14:21:19;584.0776261123921;686.2239746754699;120.2400018704144;-3.4288;39.2151;119.999;1.0;50
31-5-2019;15:11:30;629.3208946656141;2182.5433568731382;-80.91999244924575;-28.1001;3.1278;-80.00450000000002;1.0;50
31-5-2019;14:16:50;1105.8301045371898;1923.8619704562554;120.20000385443319;-1.4288;34.2151;119.999;1.0;50
31-5-2019;15:5:20;1389.8237955552554;3409.6513120490845;-79.64000119135336;-25.1001;-1.8721;-80.00450000000002;1.0;50
31-5-2019;15:29:50;373.00410398136034;1689.6794179902267;-39.89999394828831;-17.3173;-1.5142;-40.0025;1.0;50
31-5-2019;13:56:4;1079.640491696087;432.5463270578237;40.28000150634004;7.531000000000001;16.4667;39.999;1.0;50
31-5-2019;15:19:35;581.36265306087;441.7097081751956;-80.33999981480773;-28.1001;10.1278;-80.00450000000002;1.0;50
31-5-2019;14:41:15;1125.3193267941715;2187.672859672258;-159.7400007813956;-26.35;28.5278;-160.003;1.0;50
31-5-2019;13:46:50;1120.6771070580962;2423.647500174182;40.08000010648507;7.531000000000001;8.4667;39.999;1.0;50
31-5-2019;13:49:15;1359.4983163847485;1921.1427106574192;40.15999899312468;8.531;10.4667;39.999;1.0;50
31-5-2019;13:28:14;1147.6347227989156;3166.6033061656426;0.12000392489226568;-1.0;-5.0;0.0;1.0;50
31-5-2019;14:25:31;2400.202857314919;3158.584884896619;160.10000235255967;-9.7276;31.4276;159.9985;1.0;50
31-5-2019;13:27:29;1400.5010336679773;3412.6798833299968;0.2600023190655764;0.0;-6.0;0.0;1.0;50
31-5-2019;13:38:29;1354.2561594523902;921.6936139226127;0.14000271484586324;0.0;4.0;0.0;1.0;50
31-5-2019;14:16:24;2117.401053837306;2170.760603351845;120.26000038088637;2.5712;33.2151;119.999;1.0;50
31-5-2019;13:36:58;860.3001713715034;1180.602143150649;0.16000150741182198;-2.0;3.0;0.0;1.0;50
31-5-2019;14:21:57;2075.313494194314;654.1921028195145;119.72000595247336;2.5712;39.2151;119.999;1.0;50
31-5-2019;14:44:17;608.1234611931642;1199.6968936660526;-159.76000118590898;-28.35;32.5278;-160.003;1.0;50
31-5-2019;14:17:58;1600.5478113255047;1666.2912232012948;120.27999889151972;0.5712;35.2151;119.999;1.0;50
31-5-2019;13:43:48;1134.79716709814;3170.5628120826814;40.05999883758935;7.531000000000001;5.4667;39.999;1.0;50
31-5-2019;13:52:53;1592.5537467964982;1172.3469855982212;40.28000150634004;9.531;13.4667;39.999;1.0;50
31-5-2019;13:57:26;412.46441876988337;3414.0595319471004;80.14000070717438;4.4487;18.0018;79.999;1.0;50
31-5-2019;14:26:19;2395.8963888031085;2910.01261131277;160.140000166047;-9.7276;32.4276;159.9985;1.0;50
31-5-2019;13:34:21;870.1048701448683;1678.8788970506268;0.14000271484586324;-2.0;1.0;0.0;1.0;50
31-5-2019;15:29:3;1118.3996531983432;1928.2428785772815;-39.76000355016855;-14.3173;-2.5142;-40.0025;1.0;50
31-5-2019;15:14:25;465.8262104386882;1466.3406039788877;-83.99999836163934;-29.1001;6.1278;-80.00450000000002;1.0;50
31-5-2019;15:26:30;2377.420284449049;2652.119577035889;-39.78000198902536;-9.3173;-5.5142;-40.0025;1.0;50
31-5-2019;13:58:4;1900.045319435934;3383.4985742217664;79.87999924296682;10.4487;18.0018;79.999;1.0;50
31-5-2019;14:36:44;2158.7878540558945;3399.247826872155;-159.83999522103952;-22.35;23.5278;-160.003;1.0;50
31-5-2019;14:51:19;2399.152914051879;3164.545332318282;-120.00000044529206;-25.8188;11.7962;-120.0105;1.0;50
31-5-2019;15:2:6;1356.5825815321389;668.183739603759;-120.4999970085316;-29.8188;21.7962;-120.0105;1.0;50
31-5-2019;15:24:19;387.04312895631637;2947.331024116464;-40.00000131811318;-17.3173;-6.5142;-40.0025;1.0;50
31-5-2019;15:16:5;1869.6805243922272;1182.5851291673805;-80.08000206262092;-23.1001;7.1278;-80.00450000000002;1.0;50
31-5-2019;13:30:17;1635.5759748821506;2660.5802157622898;0.12000392489226568;1.0;-3.0;0.0;1.0;50
31-5-2019;14:30:13;1624.3958069272974;1678.0412366186367;160.0200008416426;-12.7276;37.4276;159.9985;1.0;50
31-5-2019;13:28:24;1644.7237754150324;3158.9905222487596;0.14000271484586324;1.0;-5.0;0.0;1.0;50
31-5-2019;13:49:6;1109.889626783767;1926.528964318786;40.18000219647615;7.531000000000001;10.4667;39.999;1.0;50
31-5-2019;14:15:44;362.9374392000949;2186.1510199210047;120.20000385443319;-4.4288;33.2151;119.999;1.0;50
31-5-2019;15:2:24;2106.4999653217824;655.8831099597633;-120.25999865993572;-26.8188;21.7962;-120.0105;1.0;50
31-5-2019;14:34:38;1354.1122850191507;433.3399609780841;160.359999821222;-13.7276;42.4276;159.9985;1.0;50
31-5-2019;15:7:11;2144.4756964960698;3150.294114262799;-79.91999773176103;-22.1001;-0.8721;-80.00450000000002;1.0;50
31-5-2019;14:25:38;384.6221252016526;2939.385178745194;160.06000443027315;-17.7276;32.4276;159.9985;1.0;50
31-5-2019;14:17:25;2361.834702701365;1917.0103290795053;120.26000038088637;3.5712;34.2151;119.999;1.0;50
31-5-2019;15:19:16;2350.9720277448723;673.0823186886054;-79.81999040332936;-21.1001;9.1278;-80.00450000000002;1.0;50
31-5-2019;13:59:38;404.1952126016217;2918.066343210327;80.21999989570604;4.4487;20.0018;79.999;1.0;50
31-5-2019;15:27:45;632.4045221209169;2188.787187545829;-41.0599923694911;-16.3173;-3.5142;-40.0025;1.0;50
31-5-2019;14:45:22;1120.1129897954402;936.0550696178343;-159.81999624205548;-26.35;33.5278;-160.003;1.0;50
31-5-2019;14:16:36;358.848152291938;1937.9910126587008;120.2400018704144;-4.4288;34.2151;119.999;1.0;50
31-5-2019;15:27:59;1122.1752263721119;2177.520941319974;-39.74000467080072;-14.3173;-3.5142;-40.0025;1.0;50
31-5-2019;14:19:19;345.2812724961392;1190.2894115146885;120.27999889151972;-4.4288;37.2151;119.999;1.0;50
31-5-2019;14:10:42;885.499922550625;3423.575627995218;120.22000261968927;-2.4288;28.2151;119.999;1.0;50
31-5-2019;13:30:23;1884.6381360925416;2655.7146346092723;0.10000512860178913;2.0;-3.0;0.0;1.0;50
31-5-2019;14:10:35;636.0536786926212;3428.1612015009064;120.2400018704144;-3.4288;28.2151;119.999;1.0;50
31-5-2019;14:14:55;616.9193152909141;2432.00239561885;120.22000261968927;-3.4288;32.2151;119.999;1.0;50
31-5-2019;14:50:6;646.393420338505;3192.1183933942957;-119.97999853039578;-32.8188;11.7962;-120.0105;1.0;50
31-5-2019;13:45:37;876.5290184651366;2676.970300322505;40.05999883758935;6.531000000000001;7.4667;39.999;1.0;50
31-5-2019;15:26:2;1640.6350629957406;2664.545413259782;-41.27999258187237;-12.3173;-5.5142;-40.0025;1.0;50
31-5-2019;15:32:28;2107.7736824623125;1164.2286231007042;-40.00000131811318;-10.3173;0.4858;-40.0025;1.0;50
31-5-2019;14:43:32;861.7541740505966;1446.9791786848941;-159.89999963330618;-27.35;31.5278;-160.003;1.0;50
31-5-2019;13:43:13;1886.7789531939482;3407.577904480607;40.240002946182365;10.530999999999999;4.4667;39.999;1.0;50
31-5-2019;14:57:54;1620.759010139039;1679.220656574314;-120.80000026857412;-28.8188;17.7962;-120.0105;1.0;50
31-5-2019;14:28:25;1635.4283901980357;2175.1954413108638;160.2599985786254;-12.7276;35.4276;159.9985;1.0;50
31-5-2019;14:6:56;2112.528900884196;1161.3368956895356;80.29999987366733;11.4487;27.0018;79.999;1.0;50
31-5-2019;14:32:14;341.4883534170532;944.9811425289772;159.54000191954526;-17.7276;40.4276;159.9985;1.0;50
31-5-2019;14:36:4;645.2952207639601;3434.200278077822;-159.91999840024758;-28.35;23.5278;-160.003;1.0;50
31-5-2019;13:28:35;2141.744045670974;3152.345977583397;0.3400042952809101;3.0;-5.0;0.0;1.0;50
31-5-2019;13:53:30;591.189930053554;939.4846451867256;40.26000152195857;5.531000000000001;14.4667;39.999;1.0;50
31-5-2019;13:49:49;358.59466615828467;1690.2055204138337;40.15999899312468;4.531000000000001;11.4667;39.999;1.0;50
31-5-2019;14:12:16;1627.854892253031;3161.212785961238;120.18000680688786;0.5712;29.2151;119.999;1.0;50
31-5-2019;15:20:35;2099.1602259991787;428.1214626943502;-79.86000174238825;-22.1001;10.1278;-80.00450000000002;1.0;50
31-5-2019;13:29:24;1889.0906499183664;2906.0497802484188;0.12000392489226568;2.0;-4.0;0.0;1.0;50
31-5-2019;13:53:48;1089.5334559768596;931.441256896353;40.28000150634004;7.531000000000001;14.4667;39.999;1.0;50
31-5-2019;13:48:57;861.1385300667274;1931.099500778772;40.18000219647615;6.531000000000001;10.4667;39.999;1.0;50
31-5-2019;14:46:9;865.8642559396785;690.0615180152166;-159.76000118590898;-27.35;34.5278;-160.003;1.0;50
31-5-2019;13:43:17;2135.4179572616117;3401.837645959381;40.05999883758935;11.530999999999999;4.4667;39.999;1.0;50
31-5-2019;14:42:45;866.4475625159203;1695.5027668845835;-159.89999963330618;-27.35;30.5278;-160.003;1.0;50
31-5-2019;14:26:36;901.9128920050639;2688.6202104512813;160.2599985786254;-15.7276;33.4276;159.9985;1.0;50
31-5-2019;14:57:0;2125.0813980613475;1919.867373756072;-120.85999906128357;-26.8188;16.7962;-120.0105;1.0;50
31-5-2019;14:2:59;634.9892675845554;2184.6567685046894;80.16000071602149;5.4487;23.0018;79.999;1.0;50
31-5-2019;15:20:20;1600.9367662413752;436.97397549704766;-79.86000174238825;-24.1001;10.1278;-80.00450000000002;1.0;50
31-5-2019;15:25:25;2378.7019122350616;2900.237904559536;-39.56000097452435;-9.3173;-6.5142;-40.0025;1.0;50
31-5-2019;15:6:27;887.817990592463;3174.053969952729;-79.83998923098251;-27.1001;-0.8721;-80.00450000000002;1.0;50
31-5-2019;15:19:7;1852.7548511892153;682.2826946978806;-79.81999040332936;-23.1001;9.1278;-80.00450000000002;1.0;50
31-5-2019;14:21:7;2328.177670262422;898.2122133814322;119.61999807970766;3.5712;38.2151;119.999;1.0;50
31-5-2019;14:17:16;2112.2520176189278;1921.7222685897063;120.2400018704144;2.5712;34.2151;119.999;1.0;50
31-5-2019;14:46:16;1115.2993114308217;685.0478743479091;-159.66000069919158;-26.35;34.5278;-160.003;1.0;50
31-5-2019;15:5:58;2395.768045398357;3390.4366320890795;-79.64000119135336;-21.1001;-1.8721;-80.00450000000002;1.0;50
31-5-2019;14:24:37;2156.211369905985;3411.286525326882;160.16000580685562;-10.7276;30.4276;159.9985;1.0;50
31-5-2019;14:8:36;2352.2661183615132;656.3482370714299;80.12000036953644;12.4487;29.0018;79.999;1.0;50
31-5-2019;14:24:19;1408.1672674820031;3425.0923862014824;160.140000166047;-13.7276;30.4276;159.9985;1.0;50
31-5-2019;13:34:46;1617.0733147774883;1665.0536340340511;0.14000271484586324;1.0;1.0;0.0;1.0;50
31-5-2019;13:51:36;1349.885985230121;1422.873117965301;40.15999899312468;8.531;12.4667;39.999;1.0;50
31-5-2019;13:52:29;846.4877230004275;1182.968525213431;40.15999899312468;6.531000000000001;13.4667;39.999;1.0;50
31-5-2019;13:56:20;1578.387758361126;423.20426735969596;40.26000152195857;9.531;16.4667;39.999;1.0;50
31-5-2019;14:37:25;1140.622792192872;3173.3678025682857;-159.71999641028572;-26.35;24.5278;-160.003;1.0;50
31-5-2019;13:59:55;1137.9664100015484;2894.837110720532;79.64000035149854;7.4487;20.0018;79.999;1.0;50
31-5-2019;15:5:31;1639.7335271605207;3407.7272342715387;-79.69999805293358;-24.1001;-1.8721;-80.00450000000002;1.0;50
31-5-2019;14:19:35;1091.9110893704533;1176.1323120476193;120.2400018704144;-1.4288;37.2151;119.999;1.0;50
31-5-2019;15:22:29;1641.674533018386;3420.535944631687;-40.099995735511676;-12.3174;-8.5142;-40.0025;1.0;50
31-5-2019;15:4:58;881.4702470710498;3409.648774250626;-78.50000255848019;-27.1001;-1.8721;-80.00450000000002;1.0;50
31-5-2019;14:28:11;887.9290152103548;2189.1989311531784;160.20000255317933;-15.7276;35.4276;159.9985;1.0;50
31-5-2019;14:44:48;2121.7182435418536;1166.688442111501;-159.81999624205548;-22.35;32.5278;-160.003;1.0;50
31-5-2019;14:31:16;2367.635518970229;1414.2313122126914;160.06000443027315;-9.7276;38.4276;159.9985;1.0;50
31-5-2019;14:59:29;381.68496204997496;1188.655813081812;-119.59999757387186;-33.8188;19.7962;-120.0105;1.0;50
31-5-2019;14:8:50;600.5715726460144;442.44636187121637;80.21999989570604;5.4487;30.0018;79.999;1.0;50
31-5-2019;15:28:14;1621.0183945761673;2168.0935715777555;-39.78000198902536;-12.3173;-3.5142;-40.0025;1.0;50
31-5-2019;13:43:42;885.9952139886859;3174.709781125687;40.020002060741376;6.531000000000001;5.4667;39.999;1.0;50
31-5-2019;14:19:0;1840.5402322141947;1409.3514302290564;119.82000040786447;1.5712;36.2151;119.999;1.0;50
31-5-2019;15:2:18;1831.1797040892639;643.0878838896897;-119.73999941817628;-27.8188;21.7962;-120.0105;1.0;50
31-5-2019;14:33:57;2354.9346127342474;665.6124467226322;160.140000166047;-9.7276;41.4276;159.9985;1.0;50
31-5-2019;14:41:29;1890.1355342699014;2168.429420694536;-159.83999522103952;-23.35;28.5278;-160.003;1.0;50
31-5-2019;13:48:48;612.3874333496879;1935.6700372387568;40.18000219647615;5.531000000000001;10.4667;39.999;1.0;50
31-5-2019;15:23:27;1138.598823928487;3181.117341371937;-40.00000131811318;-14.3173;-7.5142;-40.0025;1.0;50
31-5-2019;13:52:11;349.0953919018052;1192.069902084544;40.18000219647615;4.531000000000001;13.4667;39.999;1.0;50
31-5-2019;14:17:51;1351.0541127095048;1670.8242650998966;120.26000038088637;-0.4288;35.2151;119.999;1.0;50
31-5-2019;14:18:53;1590.6146259097031;1414.8961683163882;119.859997985524;0.5712;36.2151;119.999;1.0;50
31-5-2019;14:25:42;652.3676959188508;2941.572802517783;160.140000166047;-16.7276;32.4276;159.9985;1.0;50
31-5-2019;14:31:56;1864.3064328340063;1175.2589361836647;159.98000192162627;-11.7276;39.4276;159.9985;1.0;50
31-5-2019;14:59:58;1363.896979572574;1185.707264134265;-120.85999906128357;-29.8188;19.7962;-120.0105;1.0;50
31-5-2019;14:44:1;2378.181292413546;1410.1157035476276;-159.71999641028572;-21.35;31.5278;-160.003;1.0;50
31-5-2019;14:29:6;1131.742700192277;1935.5976923294586;160.140000166047;-14.7276;36.4276;159.9985;1.0;50
31-5-2019;14:27:48;2137.415975833346;2415.8083276337243;160.140000166047;-10.7276;34.4276;159.9985;1.0;50
31-5-2019;15:26:42;634.5372847362737;2440.5952930147137;-40.88000160966022;-16.3173;-4.5142;-40.0025;1.0;50
31-5-2019;13:40:57;845.2114281625453;432.64138138793516;0.16000150741182198;-2.0;6.0;0.0;1.0;50
31-5-2019;14:17:45;1101.5574458463893;1675.1833681733124;120.2400018704144;-1.4288;35.2151;119.999;1.0;50
31-5-2019;13:50:39;1853.7476487903286;1662.0301797955667;40.040001964805306;10.530999999999999;11.4667;39.999;1.0;50
31-5-2019;13:29:44;390.43632036919604;2684.786690235201;0.1800003022579721;-4.0;-3.0;0.0;1.0;50
31-5-2019;14:24:59;915.6094290869532;3188.598544896177;160.3200018636941;-15.7276;31.4276;159.9985;1.0;50
31-5-2019;14:37:55;2395.338027678781;3156.090379180054;-160.85999597975572;-21.35;24.5278;-160.003;1.0;50
31-5-2019;13:31:37;2382.654970726797;2397.3290027645885;-0.07999768114707262;4.0;-2.0;0.0;1.0;50
31-5-2019;13:33:40;1870.0100327592554;1910.134639880719;0.1800003022579721;2.0;0.0;0.0;1.0;50
31-5-2019;15:34:26;2107.0797185711635;669.6237323972384;-40.240000740062754;-10.3173;2.4857;-40.0025;1.0;50
31-5-2019;15:13:55;1619.8838339182134;1693.2563898429285;-80.81999863305606;-24.1001;5.1278;-80.00450000000002;1.0;50
31-5-2019;14:53:12;1385.5640798778486;2676.651170504417;-119.77999990439915;-29.8188;13.7962;-120.0105;1.0;50
31-5-2019;15:35:18;2096.0844713977367;416.41313813000056;-40.01999944539365;-10.3173;3.4857;-40.0025;1.0;50
31-5-2019;15:5:9;1137.151843090918;3411.513151330552;-79.2199992449752;-26.1001;-1.8721;-80.00450000000002;1.0;50
31-5-2019;14:38:56;2397.848085539519;2896.9594034549323;-159.8800012961473;-21.35;25.5278;-160.003;1.0;50
31-5-2019;15:16:10;2107.617395881377;1156.706659275658;-79.81999040332936;-22.1001;7.1278;-80.00450000000002;1.0;50
31-5-2019;15:13:20;387.2571494679576;1716.0829616988813;-81.2599993688877;-29.1001;5.1278;-80.00450000000002;1.0;50
31-5-2019;13:55:56;830.251232977639;436.78810252672884;40.28000150634004;6.531000000000001;16.4667;39.999;1.0;50
31-5-2019;14:26:40;1146.5793710854734;2682.5958295054706;160.24000084027932;-14.7276;33.4276;159.9985;1.0;50
31-5-2019;14:15:17;1614.6248967213003;2414.3055732202874;120.26000038088637;0.5712;32.2151;119.999;1.0;50
31-5-2019;15:6:44;1409.8596162634715;3192.315984654153;-81.09999513419915;-25.1001;-0.8721;-80.00450000000002;1.0;50
31-5-2019;13:30:42;386.25115969658486;2435.3296044196563;0.10000512860178913;-4.0;-2.0;0.0;1.0;50
31-5-2019;14:2:8;1138.5122183944036;2425.6452522788736;80.21999989570604;7.4487;22.0018;79.999;1.0;50
31-5-2019;14:54:56;388.72267206399687;2179.3643372955953;-119.81999892641024;-33.8188;15.7962;-120.0105;1.0;50
31-5-2019;13:35:1;2115.052277865902;1655.8367920230005;0.14000271484586324;3.0;1.0;0.0;1.0;50
31-5-2019;14:27:7;2387.524064746293;2666.8178462778383;159.92000000400012;-9.7276;33.4276;159.9985;1.0;50
31-5-2019;14:31:11;2118.715632433893;1419.0367646285074;160.12000139566325;-10.7276;38.4276;159.9985;1.0;50
31-5-2019;14:7:38;1857.6453222481464;915.6301355977347;80.14000070717438;10.4487;28.0018;79.999;1.0;50
31-5-2019;13:58:37;657.3328097530501;3162.6197243795286;80.21999989570604;5.4487;19.0018;79.999;1.0;50
31-5-2019;14:53:35;2141.6321873370666;2674.300530073062;-121.1399996393555;-26.8188;13.7962;-120.0105;1.0;50
31-5-2019;15:18:1;605.3406686548667;713.7363756894447;-80.83999760296393;-28.1001;9.1278;-80.00450000000002;1.0;50
31-5-2019;13:45:10;2375.682790708122;2899.316500808107;40.08000010648507;12.530999999999999;6.4667;39.999;1.0;50
31-5-2019;14:3:53;380.9251243405385;1939.1196440365488;80.12000036953644;4.4487;24.0018;79.999;1.0;50
31-5-2019;14:1:58;639.9715094201157;2434.453028397076;80.20000001668197;5.4487;22.0018;79.999;1.0;50
31-5-2019;14:26:8;1897.48051969046;2918.174702691556;160.140000166047;-11.7276;32.4276;159.9985;1.0;50
31-5-2019;14:15:4;1115.172917570415;2422.996722610982;120.20000385443319;-1.4288;32.2151;119.999;1.0;50
31-5-2019;13:41:45;2092.7159630773845;408.34796906912766;0.10000512860178913;3.0;6.0;0.0;1.0;50
31-5-2019;13:35:13;2360.941296590768;1652.1248719273115;0.24000351474027445;4.0;1.0;0.0;1.0;50
31-5-2019;14:33:2;2358.013590340393;915.7123148052306;160.00000094517648;-9.7276;40.4276;159.9985;1.0;50
31-5-2019;14:29:15;1626.2500288592566;1932.8322837089886;159.92000000400012;-12.7276;36.4276;159.9985;1.0;50
31-5-2019;14:16:10;1604.90481800712;2164.170538385106;120.05999767981592;0.5712;33.2151;119.999;1.0;50
31-5-2019;13:29:57;888.669298155072;2674.453045416969;0.10000512860178913;-2.0;-3.0;0.0;1.0;50
31-5-2019;13:44:29;632.2045944737637;2930.122637568021;40.040001964805306;5.531000000000001;6.4667;39.999;1.0;50
31-5-2019;13:54:40;586.7943068765537;690.2988257772847;40.240002946182365;5.531000000000001;15.4667;39.999;1.0;50
31-5-2019;14:25:25;2151.4096242081264;3163.0011903050313;160.140000166047;-10.7276;31.4276;159.9985;1.0;50
31-5-2019;15:34:40;350.1663613467573;443.1901435155147;-39.93999089985404;-17.3173;3.4857;-40.0025;1.0;50
31-5-2019;14:4:20;1626.5973115297954;1917.207909332008;80.10000054184209;9.4487;24.0018;79.999;1.0;50
31-5-2019;15:27:33;2367.341487874633;2400.554054613339;-39.56000097452435;-9.3173;-4.5142;-40.0025;1.0;50
31-5-2019;13:28:43;2394.6119494374216;3144.34640977868;-0.07999768114707262;4.0;-5.0;0.0;1.0;50
31-5-2019;14:53:28;1891.5005872856893;2672.4539417702067;-119.81999892641024;-27.8188;13.7962;-120.0105;1.0;50
31-5-2019;15:3:26;2108.0054332417667;406.98585685553365;-119.75999796606396;-26.8188;22.7962;-120.0105;1.0;50
31-5-2019;15:0:46;877.0253575971426;932.2751326606411;-121.17999915063822;-31.8188;20.7962;-120.0105;1.0;50
31-5-2019;15:9:58;2384.24344938655;2647.2498465375697;-79.8800006835249;-21.1001;1.1278;-80.00450000000002;1.0;50
31-5-2019;13:59:12;1890.8665907692186;3130.2249106947947;79.66000065970341;10.4487;19.0018;79.999;1.0;50
31-5-2019;15:12:53;1622.668640148849;1915.7732022168054;-80.91999244924575;-24.1001;4.1278;-80.00450000000002;1.0;50
31-5-2019;15:25:15;2131.7729395586616;2905.7821368947234;-39.69999245202021;-10.3173;-6.5142;-40.0025;1.0;50
31-5-2019;13:50:49;2352.0362667999034;1653.4614586465627;40.040001964805306;12.530999999999999;11.4667;39.999;1.0;50
31-5-2019;14:16:45;857.3486009697846;1929.916691120777;120.26000038088637;-2.4288;34.2151;119.999;1.0;50
31-5-2019;14:12:26;1883.4712904529815;3172.2675329461827;120.00000340285068;1.5712;29.2151;119.999;1.0;50
31-5-2019;14:4:25;1875.525909610043;1911.725130913931;79.99999971689444;10.4487;24.0018;79.999;1.0;50
31-5-2019;14:37:3;391.6461647778688;3189.136184742634;-159.93999685724586;-29.35;24.5278;-160.003;1.0;50
31-5-2019;14:25:47;902.317100813752;2936.6160016027698;160.220001245933;-15.7276;32.4276;159.9985;1.0;50
31-5-2019;15:11:22;394.33745714169663;2214.817194645292;-81.27999857736646;-29.1001;3.1278;-80.00450000000002;1.0;50
31-5-2019;14:22:46;1572.6427521419714;414.67643937856485;119.78000138644585;0.5712;40.2151;119.999;1.0;50
31-5-2019;15:34:55;1094.5616787368012;431.8840523460077;-39.85999661089283;-14.3173;3.4857;-40.0025;1.0;50
31-5-2019;14:11:47;631.3021620151453;3179.75140847284;120.2400018704144;-3.4288;29.2151;119.999;1.0;50
31-5-2019;14:44:29;1124.7509020574796;1184.3446982742605;-159.6999976803027;-26.35;32.5278;-160.003;1.0;50
31-5-2019;14:52:58;890.7234087845064;2695.006701737348;-120.85999906128357;-31.8188;13.7962;-120.0105;1.0;50
31-5-2019;15:9:12;878.7363395090558;2675.6766384890025;-79.81999040332936;-27.1001;1.1278;-80.00450000000002;1.0;50
31-5-2019;14:46:25;1613.6832448216262;678.6725193064037;-159.93999685724586;-24.35;34.5278;-160.003;1.0;50
31-5-2019;13:36:14;1861.9588116911295;1410.752290162471;0.10000512860178913;2.0;2.0;0.0;1.0;50
31-5-2019;15:35:6;1587.2481442750866;421.57882487289186;-39.679993979074005;-12.3173;3.4857;-40.0025;1.0;50
31-5-2019;14:21:13;332.24301713766187;687.9936441617133;119.9800031950651;-4.4288;39.2151;119.999;1.0;50
31-5-2019;15:2:40;357.64927930231687;436.7344616023603;-120.25999865993572;-33.8188;22.7962;-120.0105;1.0;50
31-5-2019;15:16:47;867.7613224222794;956.8151565923306;-80.81999863305606;-27.1001;8.1278;-80.00450000000002;1.0;50
31-5-2019;14:9:23;1847.975264326457;415.2054801186544;79.99999971689444;10.4487;30.0018;79.999;1.0;50
31-5-2019;14:26:45;1394.7744216141352;2679.179772074076;160.140000166047;-13.7276;33.4276;159.9985;1.0;50
31-5-2019;14:4:29;2126.1463616818037;1909.0581012565453;80.2400002967631;11.4487;24.0018;79.999;1.0;50
31-5-2019;15:9:5;627.1101729828523;2679.8675324656456;-79.62000278761349;-28.1001;1.1278;-80.00450000000002;1.0;50
31-5-2019;14:54:24;1387.2633509477819;2439.436676109094;-121.02000152050479;-29.8188;14.7962;-120.0105;1.0;50
31-5-2019;14:24:31;1906.9228596131447;3415.9897692972913;160.140000166047;-11.7276;30.4276;159.9985;1.0;50
31-5-2019;14:27:43;1888.0381797677749;2420.35963608582;160.140000166047;-11.7276;34.4276;159.9985;1.0;50
31-5-2019;14:55:43;1384.3086818391243;2187.4210811940698;-121.04000088237714;-29.8188;15.7962;-120.0105;1.0;50
31-5-2019;14:8:58;850.5303605534742;433.5990732632795;79.98000037509425;6.4487;30.0018;79.999;1.0;50
31-5-2019;15:26:48;883.1267970916174;2435.6690153904074;-40.91999961949131;-15.3173;-4.5142;-40.0025;1.0;50
31-5-2019;13:37:36;2105.238692569195;1156.859284507883;0.14000271484586324;3.0;3.0;0.0;1.0;50
31-5-2019;15:34:0;1099.1907537530194;680.6642115039532;-39.85999661089283;-14.3173;2.4857;-40.0025;1.0;50
31-5-2019;13:42:54;890.9747170977162;3422.393241240257;39.94000052155654;6.531000000000001;4.4667;39.999;1.0;50
31-5-2019;14:39:55;2388.131494477688;2657.879786315772;-160.89999957204932;-21.35;26.5278;-160.003;1.0;50
31-5-2019;14:2:47;2552.0492383262285;2433.2427677922515;90.39999818051143;12.4487;22.0018;79.999;1.0;50
31-5-2019;15:9:28;1395.3345530517824;2672.7586436670363;-81.27999857736646;-25.1001;1.1278;-80.00450000000002;1.0;50
31-5-2019;13:43:3;1388.37219703482;3414.6298231566493;40.05999883758935;8.531;4.4667;39.999;1.0;50
31-5-2019;13:31:52;632.47791522516;2180.4420737237974;-0.04000009210778948;-3.0;-1.0;0.0;1.0;50
31-5-2019;15:33:54;847.2701422514273;685.8996408679592;-39.78000198902536;-15.3173;2.4857;-40.0025;1.0;50
31-5-2019;14:2:53;386.5283101546424;2190.491688823813;80.21999989570604;4.4487;23.0018;79.999;1.0;50
31-5-2019;14:21:31;1078.8700739794433;673.7071336068361;119.82000040786447;-1.4288;39.2151;119.999;1.0;50
31-5-2019;15:15:23;374.33754661946176;1215.9141937691845;-80.83999760296393;-29.1001;7.1278;-80.00450000000002;1.0;50
31-5-2019;14:18:34;847.5300708649438;1430.8724539507432;120.26000038088637;-2.4288;36.2151;119.999;1.0;50
31-5-2019;15:31:23;1858.1169740275361;1416.1803118995315;-39.839995983295886;-11.3173;-0.5142;-40.0025;1.0;50
31-5-2019;13:49:28;1858.255552373249;1911.5520918161408;40.05999883758935;10.530999999999999;10.4667;39.999;1.0;50
31-5-2019;14:57:27;627.2134978705277;1703.1231091420902;-120.25999865993572;-32.8188;17.7962;-120.0105;1.0;50
31-5-2019;14:0:1;1401.0352668514747;2901.2324696815167;80.33999981480773;8.4487;20.0018;79.999;1.0;50
31-5-2019;14:0:25;2128.106986260443;2873.920625014665;79.34000046905051;11.4487;20.0018;79.999;1.0;50
31-5-2019;14:44:23;875.6008917482918;1188.1637517493232;-159.71999641028572;-27.35;32.5278;-160.003;1.0;50
31-5-2019;14:6:51;1862.2326191788468;1165.3948805126684;80.16000071602149;10.4487;27.0018;79.999;1.0;50
31-5-2019;14:7:34;1608.044606782575;920.9670304534767;80.14000070717438;9.4487;28.0018;79.999;1.0;50
31-5-2019;13:56:13;1328.9970328248705;427.3589988029956;40.26000152195857;8.531;16.4667;39.999;1.0;50
31-5-2019;14:52:7;1638.8175224018175;2920.6587461303307;-119.77999990439915;-28.8188;12.7962;-120.0105;1.0;50
31-5-2019;15:20:39;2346.027566046052;423.2432795826979;-79.7999920491333;-21.1001;10.1278;-80.00450000000002;1.0;50
31-5-2019;13:52:20;595.2499979065286;1192.1565510726955;40.339998688348324;5.531000000000001;13.4667;39.999;1.0;50
31-5-2019;14:32:58;2110.089613963905;919.7453449476607;160.16000580685562;-10.7276;40.4276;159.9985;1.0;50
31-5-2019;14:0:47;648.1587530031352;2663.184246234065;80.20000001668197;5.4487;21.0018;79.999;1.0;50
31-5-2019;14:31:52;1616.2321281043273;1178.841387618767;160.18000431049782;-12.7276;39.4276;159.9985;1.0;50
31-5-2019;15:1:15;2116.533975598635;905.6160958394963;-119.73999941817628;-26.8188;20.7962;-120.0105;1.0;50
31-5-2019;14:37:38;1636.7430764329406;3175.4158893044987;-160.919998262604;-24.35;24.5278;-160.003;1.0;50
31-5-2019;14:33:31;1086.066590685041;682.429029437564;159.78000082967384;-14.7276;41.4276;159.9985;1.0;50
31-5-2019;15:30:0;865.2563461530884;1683.2990591604714;-39.78000198902536;-15.3173;-1.5142;-40.0025;1.0;50
31-5-2019;14:3:15;1381.3741393014789;2168.822460819522;79.99999971689444;8.4487;23.0018;79.999;1.0;50
31-5-2019;14:12:53;626.5506453376693;2931.3416154447727;120.2400018704144;-3.4288;30.2151;119.999;1.0;50
31-5-2019;14:8:14;1354.1351560023945;674.8644105095395;80.10000054184209;8.4487;29.0018;79.999;1.0;50
31-5-2019;14:42:7;1387.9424696086146;1928.1164133707614;-159.77999922735853;-25.35;29.5278;-160.003;1.0;50
31-5-2019;14:12:59;875.6669987353322;2925.88866731403;120.22000261968927;-2.4288;30.2151;119.999;1.0;50
31-5-2019;14:40:27;1397.5947659871838;2426.143039041934;-159.7400007813956;-25.35;27.5278;-160.003;1.0;50
31-5-2019;15:8:5;1133.0886080273476;2921.355343737487;-79.83998923098251;-26.1001;0.1279;-80.00450000000002;1.0;50
31-5-2019;14:47:32;2107.449492101313;419.29182707588143;-159.89999963330618;-22.35;35.5278;-160.003;1.0;50
31-5-2019;15:25:56;1389.067418751142;2672.9039948182267;-41.03999356551051;-13.3173;-5.5142;-40.0025;1.0;50
31-5-2019;15:28:6;1382.4447389925074;2170.5954955042107;-41.25999381402154;-13.3173;-3.5142;-40.0025;1.0;50
31-5-2019;14:41:24;1641.0547254335183;2173.703957080897;-159.91999840024758;-24.35;28.5278;-160.003;1.0;50
31-5-2019;15:32:13;1602.2102420930685;1169.913818757332;-39.7199904787779;-12.3173;0.4858;-40.0025;1.0;50
31-5-2019;15:13:36;868.6731371291952;1681.6913026166462;-80.78000109061746;-27.1001;5.1278;-80.00450000000002;1.0;50
31-5-2019;15:3:21;1826.4518134970126;393.33260727423317;-119.73999941817628;-27.8188;22.7962;-120.0105;1.0;50
31-5-2019;14:5:50;1119.3728519303334;1429.9235646018253;80.21999989570604;7.4487;26.0018;79.999;1.0;50
31-5-2019;14:22:19;575.2416406699929;433.43493198942696;119.78000138644585;-3.4288;40.2151;119.999;1.0;50
31-5-2019;14:53:50;381.929396516032;2451.176954030586;-119.96000025618734;-33.8188;14.7962;-120.0105;1.0;50
31-5-2019;14:25:3;1154.838965471249;3181.5461471319068;160.140000166047;-14.7276;31.4276;159.9985;1.0;50
31-5-2019;14:7:29;1359.520751959238;926.7924529214916;80.32000070532351;8.4487;28.0018;79.999;1.0;50
31-5-2019;15:5:49;2148.5548589264627;3399.4891826644453;-79.95999564129099;-22.1001;-1.8721;-80.00450000000002;1.0;50
31-5-2019;13:51:57;2097.903140560295;1408.5403526940054;40.040001964805306;11.530999999999999;12.4667;39.999;1.0;50
31-5-2019;14:26:55;1892.5894882198706;2669.737432151391;160.140000166047;-11.7276;33.4276;159.9985;1.0;50
31-5-2019;14:18:29;598.1151991483247;1435.0523704832415;120.2400018704144;-3.4288;36.2151;119.999;1.0;50
31-5-2019;14:22:52;1821.6824147256489;409.8261753246698;119.76000410823565;1.5712;40.2151;119.999;1.0;50
31-5-2019;14:11:43;382.89238192128647;3184.5029179381545;120.2400018704144;-4.4288;29.2151;119.999;1.0;50
31-5-2019;15:10:45;1381.4531211496662;2416.8662090303364;-80.85999632900412;-25.1001;2.1278;-80.00450000000002;1.0;50
31-5-2019;14:4:50;625.1063527435965;1685.2525072627081;80.12000036953644;5.4487;25.0018;79.999;1.0;50
31-5-2019;15:33:43;356.6586205522213;690.5676084087111;-39.98000234859817;-17.3173;2.4858;-40.0025;1.0;50
31-5-2019;15:8:37;2141.7703245208268;2903.1220760225474;-80.13999902484909;-22.1001;0.1279;-80.00450000000002;1.0;50
31-5-2019;13:59:48;902.1666397537214;2908.481499719513;80.18000065721229;6.4487;20.0018;79.999;1.0;50
31-5-2019;15:15:39;831.687367530845;1186.6062085378587;-79.99999299047118;-27.1001;7.1278;-80.00450000000002;1.0;50
31-5-2019;13:40:39;349.92497162219377;441.2680685873778;0.12000392489226568;-4.0;6.0;0.0;1.0;50
31-5-2019;14:57:37;877.4194605849639;1697.3596619591103;-121.04000088237714;-31.8188;17.7962;-120.0105;1.0;50
31-5-2019;15:7:51;632.0106458869886;2929.1302353782817;-79.66000065970341;-28.1001;0.1279;-80.00450000000002;1.0;50
31-5-2019;15:17:41;2356.064362746843;922.1025333875842;-79.81999040332936;-21.1001;8.1278;-80.00450000000002;1.0;50
31-5-2019;13:34:55;1862.9749938662314;1661.2108523795264;0.24000351474027445;2.0;1.0;0.0;1.0;50
31-5-2019;14:13:6;1123.6127695974976;2920.8919682580768;120.16000728907756;-1.4288;30.2151;119.999;1.0;50
31-5-2019;13:27:57;400.6635796777111;3181.1678409962724;0.12000392489226568;-4.0;-5.0;0.0;1.0;50
31-5-2019;14:7:25;1109.928042432153;934.4976602371576;80.33999981480773;7.4487;28.0018;79.999;1.0;50
31-5-2019;13:43:54;1383.557296868432;3166.5132828322085;40.05999883758935;8.531;5.4667;39.999;1.0;50
31-5-2019;14:36:38;1915.7675169734248;3400.564615508749;-159.6999976803027;-23.35;23.5278;-160.003;1.0;50
31-5-2019;14:52:51;647.3255621771966;2706.131416312299;-121.29999781863633;-32.8188;13.7962;-120.0105;1.0;50
31-5-2019;14:45:46;2366.205209740203;913.4686859576773;-159.83999522103952;-21.35;33.5278;-160.003;1.0;50
31-5-2019;14:21:38;1329.513182251126;670.175747981866;120.05999767981592;-0.4288;39.2151;119.999;1.0;50
31-5-2019;13:46:57;1368.3464010611715;2420.057227644741;40.15999899312468;8.531;8.4667;39.999;1.0;50
31-5-2019;14:37:42;1885.8588075552448;3170.449948823005;-160.89999957204932;-23.35;24.5278;-160.003;1.0;50
31-5-2019;13:29:2;893.1693295251011;2924.208492336405;0.1800003022579721;-2.0;-4.0;0.0;1.0;50
31-5-2019;14:32:30;845.9899944124264;935.8984433969437;160.20000255317933;-15.7276;40.4276;159.9985;1.0;50
31-5-2019;14:29:21;1878.935562863584;1921.6040439546775;160.140000166047;-11.7276;36.4276;159.9985;1.0;50
31-5-2019;13:53:21;341.57952621879645;945.4566805497624;40.300001094150154;4.531000000000001;14.4667;39.999;1.0;50
31-5-2019;14:49:5;1150.3148048278888;3433.551374319637;-120.2399989200343;-30.8188;10.7962;-120.0105;1.0;50
31-5-2019;14:5:29;2370.309601277889;1654.243729438551;80.12000036953644;12.4487;25.0018;79.999;1.0;50
31-5-2019;15:32:59;1101.148693196472;931.1050331176313;-39.78000198902536;-14.3173;1.4858;-40.0025;1.0;50
31-5-2019;15:12:58;1872.5859423708805;1911.3951698887838;-80.95999029202623;-23.1001;4.1278;-80.00450000000002;1.0;50
31-5-2019;13:58:13;2137.022104608689;3372.460026654041;79.32000035884029;11.4487;18.0018;79.999;1.0;50
31-5-2019;15:24:10;2373.442124064715;3148.659903530828;-38.66000025942434;-9.3173;-7.5142;-40.0025;1.0;50
31-5-2019;14:45:32;1618.5461460501547;928.138658317244;-159.93999685724586;-24.35;33.5278;-160.003;1.0;50
31-5-2019;14:20:22;585.4668662714388;933.2896219185424;120.02000258902868;-3.4288;38.2151;119.999;1.0;50
31-5-2019;14:34:23;857.3152211181053;440.08701527735946;160.52000339933355;-15.7276;42.4276;159.9985;1.0;50
31-5-2019;14:32:53;1860.4077261296661;924.7422964891274;160.12000139566325;-11.7276;40.4276;159.9985;1.0;50
31-5-2019;14:50:14;897.5176567079242;3190.1101992053045;-120.2399989200343;-31.8188;11.7962;-120.0105;1.0;50
31-5-2019;13:35:48;1114.9863093322344;1424.667845413143;0.12000392489226568;-1.0;2.0;0.0;1.0;50
31-5-2019;13:32:0;881.4813438896263;2175.615910147398;-0.04000009210778948;-2.0;-1.0;0.0;1.0;50
31-5-2019;13:38:52;2100.905530938504;907.6017346977876;0.12000392489226568;3.0;4.0;0.0;1.0;50
31-5-2019;14:34:31;1105.136071127923;437.7422114893295;160.3200018636941;-14.7276;42.4276;159.9985;1.0;50
31-5-2019;14:29:1;883.9437389142225;1939.4904772579125;160.30000345593453;-15.7276;36.4276;159.9985;1.0;50
31-5-2019;14:8:9;1105.071379329552;679.8551996063238;80.16000071602149;7.4487;29.0018;79.999;1.0;50
31-5-2019;14:43:42;1378.4628078826306;1430.9945106586358;-159.93999685724586;-25.35;31.5278;-160.003;1.0;50
31-5-2019;15:3:16;1602.9550324102925;414.7189791900897;-120.57999892799197;-28.8188;22.7962;-120.0105;1.0;50
31-5-2019;15:7:19;2395.029283535109;3147.458069151597;-80.08000206262092;-21.1001;-0.8721;-80.00450000000002;1.0;50
31-5-2019;14:22:33;1074.525172422627;424.92065671527166;119.8800094978535;-1.4288;40.2151;119.999;1.0;50
31-5-2019;13:27:14;655.1782525326145;3426.6353110203013;0.12000392489226568;-3.0;-6.0;0.0;1.0;50
31-5-2019;14:7:15;610.6405821223465;939.9181385906312;80.18000065721229;5.4487;28.0018;79.999;1.0;50
31-5-2019;15:31:4;1109.8218744224005;1430.1889957434626;-39.78000198902536;-14.3173;-0.5142;-40.0025;1.0;50
31-5-2019;13:29:29;2138.0817290982104;2901.528267911104;0.12000392489226568;3.0;-4.0;0.0;1.0;50
31-5-2019;14:36:53;2408.1994312884954;3395.592195968736;-159.91999840024758;-21.35;23.5278;-160.003;1.0;50
31-5-2019;15:30:49;365.04553892929016;1444.3485126609037;-39.799999987534584;-17.3173;-0.5142;-40.0025;1.0;50
31-5-2019;14:3:20;1631.7157265184976;2166.730954690091;80.16000071602149;9.4487;23.0018;79.999;1.0;50
31-5-2019;14:14:13;1367.9203591843307;2666.67939956804;120.14000653470579;-0.4288;31.2151;119.999;1.0;50
31-5-2019;14:29:30;2377.7355790316515;1912.4942764612165;160.20000255317933;-9.7276;36.4276;159.9985;1.0;50
31-5-2019;15:0:20;2371.5832967364795;1150.8838538563746;-119.77999990439915;-25.8188;19.7962;-120.0105;1.0;50
31-5-2019;15:14:11;2367.870708517114;1650.6210332982942;-79.8800006835249;-21.1001;5.1278;-80.00450000000002;1.0;50
31-5-2019;14:26:26;380.6735009130349;2690.3294660241645;160.140000166047;-17.7276;33.4276;159.9985;1.0;50
31-5-2019;15:10:22;626.4846568340312;2432.9042588044385;-79.91999773176103;-28.1001;2.1278;-80.00450000000002;1.0;50
31-5-2019;14:11:53;880.8351214710118;3175.164197234322;120.22000261968927;-2.4288;29.2151;119.999;1.0;50
31-5-2019;14:14:22;1619.3975656978664;2662.7752150171427;120.2400018704144;0.5712;31.2151;119.999;1.0;50
31-5-2019;14:5:40;620.5265408420003;1439.3233823159671;80.21999989570604;5.4487;26.0018;79.999;1.0;50
31-5-2019;14:56:24;633.1053197537261;1957.132204573848;-120.75999961039837;-32.8188;16.7962;-120.0105;1.0;50
31-5-2019;14:14:0;870.4287948145994;2676.413763265476;120.20000385443319;-2.4288;31.2151;119.999;1.0;50
31-5-2019;14:7:20;860.3553215046786;939.0344382944389;80.32000070532351;6.4487;28.0018;79.999;1.0;50
31-5-2019;15:30:54;612.9148090071343;1439.3733499296163;-39.78000198902536;-16.3173;-0.5142;-40.0025;1.0;50
31-5-2019;13:54:21;2337.4753847246748;906.767020745172;40.28000150634004;12.530999999999999;14.4667;39.999;1.0;50
31-5-2019;15:23:59;2138.7529228259305;3155.8582769996465;-39.839995983295886;-10.3173;-7.5142;-40.0025;1.0;50
31-5-2019;14:34:45;1602.2106385869756;429.71055040051056;160.18000431049782;-12.7276;42.4276;159.9985;1.0;50
31-5-2019;14:59:5;1870.8465735096938;1406.477810497478;-120.53999690908934;-27.8188;18.7962;-120.0105;1.0;50
31-5-2019;14:42:1;1120.885454345649;1939.5217756525228;-159.83999522103952;-26.35;29.5278;-160.003;1.0;50
31-5-2019;14:12:43;2382.7733983693915;3162.8523590137984;120.05999767981592;3.5712;29.2151;119.999;1.0;50
31-5-2019;14:55:54;1894.5871722937395;2159.862023283381;-121.04000088237714;-27.8188;15.7962;-120.0105;1.0;50
31-5-2019;13:44:53;1627.9786865754725;2914.230918305719;40.26000152195857;9.531;6.4667;39.999;1.0;50
31-5-2019;13:28:55;644.1352540191483;2928.657341934989;0.12000392489226568;-3.0;-4.0;0.0;1.0;50
31-5-2019;13:53:39;840.1441972584115;935.683032365258;40.28000150634004;6.531000000000001;14.4667;39.999;1.0;50
31-5-2019;13:30:29;2132.414141657744;2652.055402706504;0.16000150741182198;3.0;-3.0;0.0;1.0;50
31-5-2019;15:34:34;2363.2556166375584;670.7368362115802;-40.47999862499679;-9.3173;2.4857;-40.0025;1.0;50
31-5-2019;14:41:46;369.52106662601034;1955.5504807560685;-159.99999934060688;-29.35;29.5278;-160.003;1.0;50
31-5-2019;13:30:57;883.779554922545;2426.5414029534777;0.16000150741182198;-2.0;-2.0;0.0;1.0;50
31-5-2019;13:50:8;856.3914153297135;1682.694759660743;40.19999977547531;6.531000000000001;11.4667;39.999;1.0;50
31-5-2019;14:20:33;1087.806908076511;926.963320446657;120.27999889151972;-1.4288;38.2151;119.999;1.0;50
31-5-2019;15:8:46;2388.2071987600257;2895.4879017096614;-79.83998923098251;-21.1001;0.1279;-80.00450000000002;1.0;50
31-5-2019;15:0:10;1872.95768904934;1160.500983414554;-119.77999990439915;-27.8188;19.7962;-120.0105;1.0;50
31-5-2019;14:15:10;1364.8687223321244;2418.7566312773065;120.2400018704144;-0.4288;32.2151;119.999;1.0;50
31-5-2019;15:19:26;347.62876934132555;443.32861603502516;-80.4199957942609;-29.1001;10.1278;-80.00450000000002;1.0;50
31-5-2019;13:59:21;2139.5915607385027;3126.742493032905;79.64000035149854;11.4487;19.0018;79.999;1.0;50
31-5-2019;15:3:30;2361.18600930219;404.260771716447;-119.85999946638512;-25.8188;22.7962;-120.0105;1.0;50
31-5-2019;15:33:48;605.8511140880496;685.904862693093;-40.00000131811318;-16.3173;2.4857;-40.0025;1.0;50
31-5-2019;14:12:34;2133.870528322585;3167.311984389792;120.02000258902868;2.5712;29.2151;119.999;1.0;50
31-5-2019;15:34:11;1592.6096327553091;671.0525895551807;-39.69999245202021;-12.3173;2.4857;-40.0025;1.0;50
31-5-2019;15:35:1;1342.35901418152;427.85319678462776;-39.81999929676395;-13.3173;3.4857;-40.0025;1.0;50
31-5-2019;13:33:10;874.3889185043851;1928.5656974627768;0.16000150741182198;-2.0;0.0;0.0;1.0;50
31-5-2019;15:26:20;2145.1987003434983;2661.640111351566;-40.700001732108774;-10.3173;-5.5142;-40.0025;1.0;50
31-5-2019;14:43:20;363.4242485392732;1455.7705350644064;-159.89999963330618;-29.35;31.5278;-160.003;1.0;50
31-5-2019;15:5:41;1895.3449415061639;3392.982147713053;-79.47999723468114;-23.1001;-1.8721;-80.00450000000002;1.0;50
31-5-2019;13:37:13;1358.2758772123814;1171.211484933954;0.16000150741182198;0.0;3.0;0.0;1.0;50
31-5-2019;14:43:8;2130.2182942408413;1666.4202487005066;-159.9800003172606;-22.35;30.5278;-160.003;1.0;50
31-5-2019;15:16:40;609.4563942268551;963.1048240921007;-80.81999863305606;-28.1001;8.1278;-80.00450000000002;1.0;50
31-5-2019;14:14:50;368.4945087678744;2437.0420687843944;120.2400018704144;-4.4288;32.2151;119.999;1.0;50
31-5-2019;13:44:47;1376.6814349345832;2914.5288348714894;40.040001964805306;8.531;6.4667;39.999;1.0;50
31-5-2019;14:16:55;1354.4376331535361;1919.2536440055253;120.18000680688786;-0.4288;34.2151;119.999;1.0;50
31-5-2019;15:1:44;606.7346208501018;677.5080362634527;-119.55999945892395;-32.8188;21.7962;-120.0105;1.0;50
31-5-2019;14:13:14;1381.6463868713943;2932.316811570957;120.05999767981592;-0.4288;30.2151;119.999;1.0;50
31-5-2019;14:28:50;365.1723920878505;1942.7040991164367;160.0200008416426;-17.7276;36.4276;159.9985;1.0;50
31-5-2019;15:12:1;1882.223316362531;2159.5130206032213;-81.15999192810973;-23.1001;3.1278;-80.00450000000002;1.0;50
31-5-2019;14:40:41;1894.6250140783904;2418.87992435114;-159.93999685724586;-23.35;27.5278;-160.003;1.0;50
31-5-2019;15:33:10;1598.6111964933948;921.0818994653737;-39.78000198902536;-12.3173;1.4858;-40.0025;1.0;50
31-5-2019;14:7:43;2107.036961714074;911.4961500301387;80.14000070717438;11.4487;28.0018;79.999;1.0;50
31-5-2019;14:4:56;874.5373288279696;1680.987932501805;80.12000036953644;6.4487;25.0018;79.999;1.0;50
31-5-2019;14:6:4;1865.8983264674755;1413.483903096551;79.99999971689444;10.4487;26.0018;79.999;1.0;50
31-5-2019;14:31:23;351.33882486127993;1194.6671166217798;160.12000139566325;-17.7276;39.4276;159.9985;1.0;50
31-5-2019;14:25:19;1902.0318281425555;3167.5524987571257;160.140000166047;-11.7276;31.4276;159.9985;1.0;50
31-5-2019;15:9:35;1648.0219824856708;2691.109846182518;-81.29999707724464;-24.1001;1.1278;-80.00450000000002;1.0;50
31-5-2019;15:23:51;1889.186400259712;3160.3878938478747;-39.78000198902536;-11.3173;-7.5142;-40.0025;1.0;50
31-5-2019;14:20:9;2332.570688575508;1147.2174764190747;119.56000094421614;3.5712;37.2151;119.999;1.0;50
31-5-2019;15:23:13;638.0235462497126;3190.9069263246674;-39.78000198902536;-16.3173;-7.5142;-40.0025;1.0;50
31-5-2019;14:20:46;1582.1467783863204;914.2950531905673;119.82000040786447;0.5712;38.2151;119.999;1.0;50
31-5-2019;13:43:8;1637.8976977210275;3409.936704460326;40.05999883758935;9.531;4.4667;39.999;1.0;50
31-5-2019;13:36:42;358.6575142233324;1191.015453782675;0.32000553079008426;-4.0;3.0;0.0;1.0;50
31-5-2019;13:57:50;1394.6338517245956;3384.5898740021526;79.52000004471648;8.4487;18.0018;79.999;1.0;50
31-5-2019;13:57:36;912.171883272726;3407.3773205762486;80.33999981480773;6.4487;18.0018;79.999;1.0;50
31-5-2019;15:26:11;1896.7131494955431;2666.41185453667;-40.81999500946249;-11.3173;-5.5142;-40.0025;1.0;50
31-5-2019;14:46:39;2361.7173359421117;664.5418181872762;-159.91999840024758;-21.35;34.5278;-160.003;1.0;50
31-5-2019;13:32:47;2375.5005196131883;2148.658928191064;-0.04000009210778948;4.0;-1.0;0.0;1.0;50
31-5-2019;14:19:7;2076.8882050800685;1409.9138836241284;119.56000094421614;2.5712;36.2151;119.999;1.0;50
31-5-2019;14:31:30;598.027422302751;1190.3562911198358;159.88000289949022;-16.7276;39.4276;159.9985;1.0;50
31-5-2019;15:29:20;1616.681803963203;1918.5515902648401;-39.78000198902536;-12.3173;-2.5142;-40.0025;1.0;50
31-5-2019;13:39:33;850.9067424477017;681.6264415838717;0.16000150741182198;-2.0;5.0;0.0;1.0;50
31-5-2019;14:52:23;2144.974074464018;2926.7776689173515;-121.6199998202963;-26.8188;12.7962;-120.0105;1.0;50
31-5-2019;13:47:40;616.9579698096733;2184.421133955797;40.18000219647615;5.531000000000001;9.4667;39.999;1.0;50
31-5-2019;14:6:23;366.23411260364463;1192.3260710579418;80.14000070717438;4.4487;27.0018;79.999;1.0;50
31-5-2019;14:19:55;1834.3471258925028;1156.5382465726145;119.92000631494012;1.5712;37.2151;119.999;1.0;50
31-5-2019;14:55:48;1631.8393505061315;2178.5512106879332;-120.89999721505528;-28.8188;15.7962;-120.0105;1.0;50
31-5-2019;14:38:21;885.2870389070218;2931.295273182729;-159.89999963330618;-27.35;25.5278;-160.003;1.0;50
31-5-2019;15:14:38;858.8717799012007;1431.989093244894;-80.6199969941202;-27.1001;6.1278;-80.00450000000002;1.0;50
31-5-2019;14:43:52;1876.4024258723791;1422.5790875383375;-159.9800003172606;-23.35;31.5278;-160.003;1.0;50
31-5-2019;13:35:40;865.4964600386112;1429.8894156815088;0.14000271484586324;-2.0;2.0;0.0;1.0;50
31-5-2019;15:18:55;1348.3900234394505;699.4387432212889;-80.65999391309144;-25.1001;9.1278;-80.00450000000002;1.0;50
31-5-2019;14:57:17;390.82146976110994;1687.0280089838575;-119.63999899367191;-33.8188;17.7962;-120.0105;1.0;50
31-5-2019;14:18:3;1833.1018558284438;1660.9473792059257;119.66000922179363;1.5712;35.2151;119.999;1.0;50
31-5-2019;15:22:39;1887.7644178244427;3416.8464377931405;-39.78000198902536;-11.3173;-8.5142;-40.0025;1.0;50
31-5-2019;14:19:24;593.2203593498645;1184.411107385615;120.2400018704144;-3.4288;37.2151;119.999;1.0;50
31-5-2019;14:20:39;1332.0627475948486;919.321615310668;119.8800094978535;-0.4288;38.2151;119.999;1.0;50
31-5-2019;13:33:26;1368.7468755177206;1920.3853726330026;0.32000553079008426;0.0;0.0;0.0;1.0;50
31-5-2019;15:32:53;858.4689976920897;932.5496849390207;-39.98000234859817;-15.3173;1.4858;-40.0025;1.0;50
31-5-2019;13:35:31;616.5069784944044;1434.497836687034;0.14000271484586324;-3.0;2.0;0.0;1.0;50
31-5-2019;15:30:26;1861.1186667827735;1664.033178379272;-39.78000198902536;-11.3173;-1.5142;-40.0025;1.0;50
31-5-2019;14:38:35;1383.4551501078754;2922.7830886836778;-159.93999685724586;-25.35;25.5278;-160.003;1.0;50
31-5-2019;14:15:53;862.5877556132274;2179.3915294532685;120.27999889151972;-2.4288;33.2151;119.999;1.0;50
31-5-2019;14:39:21;881.1859739475892;2681.525122178933;-159.8800012961473;-27.35;26.5278;-160.003;1.0;50
31-5-2019;13:51:50;1849.1416292888737;1412.5030521361828;40.040001964805306;10.530999999999999;12.4667;39.999;1.0;50
31-5-2019;15:10:14;374.51970314041176;2434.597103746905;-79.43999972542612;-29.1001;2.1278;-80.00450000000002;1.0;50
31-5-2019;15:14:32;618.1768591891996;1462.1047941440554;-80.81999863305606;-28.1001;6.1278;-80.00450000000002;1.0;50
31-5-2019;15:1:11;1866.4850968378366;911.9271958746288;-120.85999906128357;-27.8188;20.7962;-120.0105;1.0;50
31-5-2019;15:10:29;891.120726331221;2428.4349045449617;-81.2200020540496;-27.1001;2.1278;-80.00450000000002;1.0;50
31-5-2019;15:30:11;1362.7476655126693;1673.6391631151316;-39.76000355016855;-13.3173;-1.5142;-40.0025;1.0;50
31-5-2019;14:6:38;1114.0428353396724;1178.0787551461951;80.10000054184209;7.4487;27.0018;79.999;1.0;50
31-5-2019;14:18:25;358.95725153605497;1457.6939176385708;120.1200079712345;-4.4288;36.2151;119.999;1.0;50
31-5-2019;13:36:21;2110.457822532997;1406.318548687016;0.10000512860178913;3.0;2.0;0.0;1.0;50
31-5-2019;13:32:37;2124.2567578190187;2153.776613050976;0.06000070748202931;3.0;-1.0;0.0;1.0;50
31-5-2019;14:46:50;362.57223997559913;452.8921580712114;-160.17999672696868;-29.35;35.5278;-160.003;1.0;50
31-5-2019;15:27:7;1618.0403230531354;2424.652870404327;-39.7199904787779;-12.3173;-4.5142;-40.0025;1.0;50
31-5-2019;15:17:17;1332.1750091713698;947.6706499656004;-80.08000206262092;-25.1001;8.1278;-80.00450000000002;1.0;50
31-5-2019;13:50:17;1105.3190903237814;1677.7778676017465;40.18000219647615;7.531000000000001;11.4667;39.999;1.0;50
31-5-2019;14:13:55;622.1594287776733;2681.564275762695;120.2400018704144;-3.4288;31.2151;119.999;1.0;50
31-5-2019;15:12:36;882.5760492416388;1928.60272927504;-81.13999320611612;-27.1001;4.1278;-80.00450000000002;1.0;50
31-5-2019;13:36:6;1611.9590483419006;1415.5040085709568;0.16000150741182198;1.0;2.0;0.0;1.0;50
31-5-2019;15:9:20;1133.4568180587853;2678.009795024113;-80.35999919330399;-26.1001;1.1278;-80.00450000000002;1.0;50
31-5-2019;13:28:8;897.865509549785;3173.504961189529;0.16000150741182198;-2.0;-5.0;0.0;1.0;50
31-5-2019;14:41:33;2139.3665930875536;2163.0013757486304;-159.7400007813956;-22.35;28.5278;-160.003;1.0;50
31-5-2019;13:29:18;1640.1527286850312;2910.861708696846;0.1800003022579721;1.0;-4.0;0.0;1.0;50
31-5-2019;15:16:15;2362.7063244265755;1172.0833204655796;-79.8800006835249;-21.1001;7.1278;-80.00450000000002;1.0;50
31-5-2019;15:30:18;1612.3452133502387;1669.0096089519245;-39.78000198902536;-12.3173;-1.5142;-40.0025;1.0;50
31-5-2019;15:4:35;407.4911641409024;3457.8686511859364;-78.98000024020476;-29.1001;-1.8721;-80.00450000000002;1.0;50
31-5-2019;15:1:34;359.38688523623614;683.2766572237357;-119.73999941817628;-33.8188;21.7962;-120.0105;1.0;50
31-5-2019;13:34:14;616.0120370443823;1685.3741207293194;0.3400042952809101;-3.0;1.0;0.0;1.0;50
31-5-2019;14:42:26;2384.523074987746;1910.2228881946546;-159.83999522103952;-21.35;29.5278;-160.003;1.0;50
31-5-2019;14:3:4;884.3891539931667;2180.922005591778;80.21999989570604;6.4487;23.0018;79.999;1.0;50
31-5-2019;15:26:53;1132.735539341933;2431.2227804226104;-40.89999966954903;-14.3173;-4.5142;-40.0025;1.0;50
31-5-2019;15:14:44;1124.562657401034;1424.158389693928;-81.2200020540496;-26.1001;6.1278;-80.00450000000002;1.0;50
31-5-2019;14:31:47;1367.1606796462875;1183.4870519503095;160.220001245933;-13.7276;39.4276;159.9985;1.0;50
31-5-2019;14:57:6;2376.400471167038;1915.274769300323;-119.79999909205122;-25.8188;16.7962;-120.0105;1.0;50
31-5-2019;14:11:37;2373.3920203287907;3418.679627294527;119.78000138644585;3.5712;28.2151;119.999;1.0;50
31-5-2019;14:56:4;2381.122017898057;2164.5892490938154;-119.79999909205122;-25.8188;15.7962;-120.0105;1.0;50
31-5-2019;13:31:23;1880.2052892898648;2407.721987459767;0.10000512860178913;2.0;-2.0;0.0;1.0;50
31-5-2019;14:56:31;877.3199647392023;1945.1322890939584;-120.81999850984946;-31.8188;16.7962;-120.0105;1.0;50
31-5-2019;14:25:56;1399.4073143586152;2927.729337054159;160.16000580685562;-13.7276;32.4276;159.9985;1.0;50
31-5-2019;14:41:39;2388.9530572363533;2157.6823431319267;-159.67999818137972;-21.35;28.5278;-160.003;1.0;50
31-5-2019;14:5:59;1617.0852508856165;1419.1561851352544;80.10000054184209;9.4487;26.0018;79.999;1.0;50
31-5-2019;15:22:20;1392.26669559968;3425.483686542621;-40.01999944539365;-13.3174;-8.5142;-40.0025;1.0;50
31-5-2019;14:19:49;1586.9393767727042;1163.970905732233;119.82000040786447;0.5712;37.2151;119.999;1.0;50
31-5-2019;15:13:48;1367.3784626118993;1670.5682474227158;-80.83999760296393;-25.1001;5.1278;-80.00450000000002;1.0;50
31-5-2019;14:14:38;2120.945360486668;2671.229396582115;120.02000258902868;2.5712;31.2151;119.999;1.0;50
31-5-2019;14:30:3;1126.220356589546;1687.3807531222092;160.0200008416426;-14.7276;37.4276;159.9985;1.0;50
31-5-2019;14:45:27;1369.2331114745202;932.2277986016844;-159.89999963330618;-25.35;33.5278;-160.003;1.0;50
31-5-2019;15:15:59;1619.6371543176012;1193.4020446504774;-80.79999971373198;-24.1001;7.1278;-80.00450000000002;1.0;50
31-5-2019;14:50:56;1643.645207371462;3171.245194339589;-119.81999892641024;-28.8188;11.7962;-120.0105;1.0;50
31-5-2019;15:12:47;1380.355260396821;1920.7172277898867;-81.2200020540496;-25.1001;4.1278;-80.00450000000002;1.0;50
31-5-2019;14:47:12;1110.4999727944914;437.3821015881117;-159.8600010379332;-26.35;35.5278;-160.003;1.0;50
31-5-2019;14:43:3;1881.761000501389;1669.7643385024953;-159.83999522103952;-23.35;30.5278;-160.003;1.0;50
31-5-2019;14:29:59;878.1638231485329;1691.4175263074371;160.12000139566325;-15.7276;37.4276;159.9985;1.0;50
31-5-2019;14:31:42;1118.1638420242168;1188.014453436047;160.16000580685562;-14.7276;39.4276;159.9985;1.0;50
31-5-2019;14:17:9;1842.6874168662641;1911.8137583481102;119.82000040786447;1.5712;34.2151;119.999;1.0;50
31-5-2019;14:42:21;2134.708352245914;1916.024072009748;-159.93999685724586;-22.35;29.5278;-160.003;1.0;50
31-5-2019;14:11:17;1889.204771986096;3420.743108270193;120.0400022357851;1.5712;28.2151;119.999;1.0;50
31-5-2019;15:12:41;1134.6001703169436;1921.534408836401;-81.2200020540496;-26.1001;4.1278;-80.00450000000002;1.0;50
31-5-2019;13:47:16;2117.1414705777593;2404.69233251186;40.020002060741376;11.530999999999999;8.4667;39.999;1.0;50
31-5-2019;14:49:23;1655.7177472859923;3423.67192874039;-119.81999892641024;-28.8188;10.7962;-120.0105;1.0;50
31-5-2019;14:26:31;648.5208936775532;2692.3814513145608;160.18000431049782;-16.7276;33.4276;159.9985;1.0;50
31-5-2019;13:47:56;1115.105354295505;2176.044082287598;40.18000219647615;7.531000000000001;9.4667;39.999;1.0;50
31-5-2019;15:15:31;613.7462930664939;1212.4704077420015;-80.79999971373198;-28.1001;7.1278;-80.00450000000002;1.0;50
31-5-2019;13:46:9;2121.6603889315115;2654.2210471872377;40.020002060741376;11.530999999999999;7.4667;39.999;1.0;50
31-5-2019;13:58:49;1161.1236696190144;3154.5670901332946;80.33999981480773;7.4487;19.0018;79.999;1.0;50
31-5-2019;14:25:52;1150.2876570191534;2932.168351066336;160.140000166047;-14.7276;32.4276;159.9985;1.0;50
31-5-2019;14:16:30;2361.532594624418;2168.023491701504;120.0400022357851;3.5712;33.2151;119.999;1.0;50
31-5-2019;13:36:50;611.3123184510644;1185.2974722589963;0.16000150741182198;-3.0;3.0;0.0;1.0;50
31-5-2019;15:15:9;2362.7199484607363;1401.9311515423847;-79.86000174238825;-21.1001;6.1278;-80.00450000000002;1.0;50
31-5-2019;14:5:11;1621.8450878114606;1668.022622990887;80.12000036953644;9.4487;25.0018;79.999;1.0;50
31-5-2019;13:49:23;1609.4954226029568;1915.6016210666141;40.05999883758935;9.531;10.4667;39.999;1.0;50
31-5-2019;14:34:15;607.2816534772413;446.8576277945984;160.3800053486647;-16.7276;42.4276;159.9985;1.0;50
31-5-2019;14:27:37;1638.660383702204;2424.910944537916;160.140000166047;-12.7276;34.4276;159.9985;1.0;50
31-5-2019;14:18:40;1096.8402848063433;1425.5960374931585;120.26000038088637;-1.4288;36.2151;119.999;1.0;50
31-5-2019;14:24:4;662.0954277533921;3439.225263414672;160.18000431049782;-16.7276;30.4276;159.9985;1.0;50
31-5-2019;15:12:30;614.2672900937;1933.2314554108887;-79.67999912806901;-28.1001;4.1278;-80.00450000000002;1.0;50
31-5-2019;13:56:25;1828.5128179056;417.6322451782727;40.240002946182365;10.530999999999999;16.4667;39.999;1.0;50
31-5-2019;15:34:4;1358.8553845465494;676.2403847941848;-40.099995735511676;-13.3173;2.4857;-40.0025;1.0;50
31-5-2019;15:34:51;842.2937101886592;437.12616651419336;-39.78000198902536;-15.3173;3.4857;-40.0025;1.0;50
31-5-2019;14:36:31;1644.1519714960557;3413.7411537057765;-159.71999641028572;-24.35;23.5278;-160.003;1.0;50
31-5-2019;14:20:59;2079.2416972703304;903.1250552134744;119.72000595247336;2.5712;38.2151;119.999;1.0;50
31-5-2019;13:42:48;641.5389067383613;3427.767975095801;40.040001964805306;5.531000000000001;4.4667;39.999;1.0;50
31-5-2019;14:22:27;827.2021092661977;430.9080103334917;120.14000653470579;-2.4288;40.2151;119.999;1.0;50
31-5-2019;15:9:43;1885.1470560243533;2657.069359628396;-79.91999773176103;-23.1001;1.1278;-80.00450000000002;1.0;50
31-5-2019;14:46:3;617.5430114547181;696.9377467876621;-160.01999923686927;-28.35;34.5278;-160.003;1.0;50
31-5-2019;14:33:52;2105.4512528993937;670.369158637117;160.16000580685562;-10.7276;41.4276;159.9985;1.0;50
31-5-2019;14:4:45;376.0938780039981;1690.3710244889041;80.14000070717438;4.4487;25.0018;79.999;1.0;50
31-5-2019;14:13:51;373.82344199639306;2686.689109753279;120.26000038088637;-4.4288;31.2151;119.999;1.0;50
31-5-2019;14:58:59;1628.0792902683936;1413.5570943299813;-119.75999796606396;-28.8188;18.7962;-120.0105;1.0;50
31-5-2019;14:54:2;641.4321109927456;2421.9005104653547;-119.59999757387186;-32.8188;14.7962;-120.0105;1.0;50
31-5-2019;13:40:48;607.9110752391529;446.3903966960102;-0.6000004527896652;-3.0;6.0;0.0;1.0;50
31-5-2019;14:58:6;2123.2434051246178;1676.4388915261602;-121.0999990323108;-26.8188;17.7962;-120.0105;1.0;50
31-5-2019;15:11:50;1383.3919354986801;2166.632370175446;-81.15999192810973;-25.1001;3.1278;-80.00450000000002;1.0;50
31-5-2019;15:28:22;1871.6241163960956;2163.2837467345958;-39.839995983295886;-11.3173;-3.5142;-40.0025;1.0;50
31-5-2019;13:35:57;1362.4700228733568;1420.726702690238;0.1800003022579721;0.0;2.0;0.0;1.0;50
31-5-2019;13:55:38;331.61451240927505;445.0885452408605;40.19999977547531;4.531000000000001;16.4667;39.999;1.0;50
31-5-2019;14:42:59;1632.9869500027587;1673.3949113345614;-159.6999976803027;-24.35;30.5278;-160.003;1.0;50
31-5-2019;14:9:30;2097.414633219871;411.46332406321363;79.99999971689444;11.4487;30.0018;79.999;1.0;50
31-5-2019;14:42:12;1636.8526521615647;1924.3799114254812;-159.8800012961473;-24.35;29.5278;-160.003;1.0;50
31-5-2019;14:28:55;614.8973583297621;1938.4809811243103;160.08000375201894;-16.7276;36.4276;159.9985;1.0;50
31-5-2019;14:8:5;855.4607833045714;689.321351864275;80.33999981480773;6.4487;29.0018;79.999;1.0;50
31-5-2019;14:36:10;895.2753704015721;3429.3128445726124;-159.8800012961473;-27.35;23.5278;-160.003;1.0;50
31-5-2019;14:54:41;2137.040092432656;2422.809685856821;-121.07999963620277;-26.8188;14.7962;-120.0105;1.0;50
31-5-2019;13:44:4;1882.2716345274773;3157.140705696233;40.040001964805306;10.530999999999999;5.4667;39.999;1.0;50
31-5-2019;14:6:28;615.4204414372851;1187.2041377346702;80.12000036953644;5.4487;27.0018;79.999;1.0;50
31-5-2019;15:30:33;2109.872137484312;1659.040110635542;-39.78000198902536;-10.3173;-1.5142;-40.0025;1.0;50
31-5-2019;15:20:6;1079.1709738209272;432.24060025232325;-80.11999952842487;-26.1001;10.1278;-80.00450000000002;1.0;50
31-5-2019;14:57:43;1127.3061965010845;1689.9858155547422;-121.02000152050479;-30.8188;17.7962;-120.0105;1.0;50
31-5-2019;14:8:43;352.03897563491364;443.98936618280715;80.12000036953644;4.4487;30.0018;79.999;1.0;50
31-5-2019;14:4:5;879.5193796182023;1932.4843172974201;80.21999989570604;6.4487;24.0018;79.999;1.0;50
31-5-2019;13:27:51;2398.7217989825544;3390.828716614981;-0.3999988741856032;4.0;-6.0;0.0;1.0;50
31-5-2019;15:1:59;1100.4451101643226;690.9675276691884;-120.71999650445196;-30.8188;21.7962;-120.0105;1.0;50
31-5-2019;15:22:48;2147.320736882778;3404.5010986150633;-40.22000176311219;-10.3173;-8.5142;-40.0025;1.0;50
31-5-2019;15:3:10;1354.9762008510074;420.5139817336202;-120.65999777492318;-29.8188;22.7962;-120.0105;1.0;50
31-5-2019;14:5:20;2121.08803444137;1659.241127167929;80.18000065721229;11.4487;25.0018;79.999;1.0;50
31-5-2019;14:46:35;2111.935892594821;669.6745569940447;-160.01999923686927;-22.35;34.5278;-160.003;1.0;50
31-5-2019;15:32:49;610.6383377295525;935.3383925438956;-40.00000131811318;-16.3173;1.4858;-40.0025;1.0;50
31-5-2019;14:16:40;608.7522070187848;1935.046471476376;120.27999889151972;-3.4288;34.2151;119.999;1.0;50
31-5-2019;14:33:16;587.1742372357378;691.0838635542186;159.74000238329853;-16.7276;41.4276;159.9985;1.0;50
31-5-2019;13:34:5;371.3042747447991;1687.8418632594903;0.1800003022579721;-4.0;1.0;0.0;1.0;50
31-5-2019;14:53:40;2390.7528781817696;2669.483145687511;-121.0999990323108;-25.8188;13.7962;-120.0105;1.0;50
31-5-2019;13:44:42;1127.9199236631619;2918.4915343136663;40.040001964805306;7.531000000000001;6.4667;39.999;1.0;50
31-5-2019;13:53:11;2342.3636815854748;1156.919194481685;40.28000150634004;12.530999999999999;13.4667;39.999;1.0;50
31-5-2019;13:41:25;1595.584092330847;417.21568564294006;0.10000512860178913;1.0;6.0;0.0;1.0;50
31-5-2019;14:58:23;379.13649783638976;1436.4527743510293;-120.46000041400524;-33.8188;18.7962;-120.0105;1.0;50
31-5-2019;14:20:15;337.8621961963538;939.1375508007176;120.05999767981592;-4.4288;38.2151;119.999;1.0;50
31-5-2019;13:46:34;621.0227099919249;2435.104188246558;40.240002946182365;5.531000000000001;8.4667;39.999;1.0;50
31-5-2019;14:5:6;1372.8265455158908;1672.7931202818506;80.14000070717438;8.4487;25.0018;79.999;1.0;50
31-5-2019;13:51:10;602.3390998234843;1437.83883889238;40.19999977547531;5.531000000000001;12.4667;39.999;1.0;50
31-5-2019;14:49:33;1905.1892970069287;3421.310046433757;-120.03999756980764;-27.8188;10.7962;-120.0105;1.0;50
31-5-2019;13:39:50;1353.4688806427384;671.0552153412533;0.040001913046440976;0.0;5.0;0.0;1.0;50
31-5-2019;14:53:19;1637.1570788136044;2682.8317990136834;-120.83999850130388;-28.8188;13.7962;-120.0105;1.0;50
31-5-2019;13:31:11;1384.3136670691638;2415.967011418245;-0.04000009210778948;0.0;-2.0;0.0;1.0;50
31-5-2019;14:27:28;1140.8572198845745;2434.3476103632383;160.08000375201894;-14.7276;34.4276;159.9985;1.0;50
31-5-2019;14:39:13;635.5066614154558;2696.856023091657;-159.89999963330618;-28.35;26.5278;-160.003;1.0;50
31-5-2019;14:54:9;886.0150023461104;2444.4288389191674;-120.88000019288894;-31.8188;14.7962;-120.0105;1.0;50
31-5-2019;15:8:21;1653.0476610875248;2938.585124609437;-81.00000124226908;-24.1001;0.1279;-80.00450000000002;1.0;50
31-5-2019;13:48:17;1862.927491790948;2161.06449973467;40.10000054753388;10.530999999999999;9.4667;39.999;1.0;50
31-5-2019;14:56:0;2131.200115017989;2168.937831686953;-119.77999990439915;-26.8188;15.7962;-120.0105;1.0;50
31-5-2019;15:28:37;2381.3758838417234;2157.505312604673;-40.49999980680219;-9.3173;-3.5142;-40.0025;1.0;50
31-5-2019;13:49:35;2107.781053059457;1906.8589731198174;40.05999883758935;11.530999999999999;10.4667;39.999;1.0;50
31-5-2019;15:29:54;616.4325581253311;1688.8289486147642;-39.76000355016855;-16.3173;-1.5142;-40.0025;1.0;50
31-5-2019;13:54:56;1084.9326402058703;681.4001320962758;40.240002946182365;7.531000000000001;15.4667;39.999;1.0;50
31-5-2019;14:21:44;1590.5622305905472;685.0551804172752;120.07999654494459;0.5712;39.2151;119.999;1.0;50
31-5-2019;14:0:37;2374.695979620611;2867.769801187471;79.19999988853012;12.4487;20.0018;79.999;1.0;50
31-5-2019;14:1:16;1635.9203552307376;2661.228500647953;79.98000037509425;9.4487;21.0018;79.999;1.0;50
31-5-2019;14:9:37;2348.637396351266;409.2423286465752;80.38000079421083;12.4487;30.0018;79.999;1.0;50
31-5-2019;15:27:52;885.2857628436728;2180.090192303556;-40.959997804389296;-15.3173;-3.5142;-40.0025;1.0;50
31-5-2019;15:25:44;895.5036721369748;2677.063835081281;-41.27999258187237;-15.3173;-5.5142;-40.0025;1.0;50
31-5-2019;13:40:1;1597.8703012090189;667.5404542588293;0.16000150741182198;1.0;5.0;0.0;1.0;50
31-5-2019;14:45:36;1867.444024405254;922.9461338038167;-159.8800012961473;-23.35;33.5278;-160.003;1.0;50
31-5-2019;13:39:24;601.9188895272628;686.3217706922193;0.16000150741182198;-3.0;5.0;0.0;1.0;50
31-5-2019;15:13:4;2120.7143626723946;1904.1587688072345;-79.7999920491333;-22.1001;4.1278;-80.00450000000002;1.0;50
31-5-2019;15:0:59;1367.7680010917786;920.184057205308;-120.77999672481165;-29.8188;20.7962;-120.0105;1.0;50
31-5-2019;14:52:1;1389.8481250620691;2925.5813751258024;-119.79999909205122;-29.8188;12.7962;-120.0105;1.0;50
31-5-2019;13:54:10;1838.9676151393978;913.3250843744947;40.020002060741376;10.530999999999999;14.4667;39.999;1.0;50
31-5-2019;13:43:29;388.39499631720025;3184.120360195866;40.05999883758935;4.531000000000001;5.4667;39.999;1.0;50
31-5-2019;15:6:52;1635.4290899902142;3159.965459515236;-79.7999920491333;-24.1001;-0.8721;-80.00450000000002;1.0;50
31-5-2019;15:31:16;1608.2813104970812;1420.6688423865653;-39.799999987534584;-12.3173;-0.5142;-40.0025;1.0;50
31-5-2019;14:3:10;1133.812309537333;2176.222096734707;80.21999989570604;7.4487;23.0018;79.999;1.0;50
31-5-2019;13:39:42;1100.656761781743;676.6962085510587;0.12000392489226568;-1.0;5.0;0.0;1.0;50
31-5-2019;14:39:50;2146.5653007136266;2659.1887613904637;-160.85999597975572;-22.35;26.5278;-160.003;1.0;50
31-5-2019;14:8:0;605.8999491591783;692.9951163643451;80.29999987366733;5.4487;29.0018;79.999;1.0;50
31-5-2019;14:9:11;1348.8006064717802;426.2451385289762;80.10000054184209;8.4487;30.0018;79.999;1.0;50
31-5-2019;14:30:57;1372.2811551202446;1432.0244871320376;160.2800043534214;-13.7276;38.4276;159.9985;1.0;50
31-5-2019;14:4:39;2370.639064494755;1902.561418227249;79.99999971689444;12.4487;24.0018;79.999;1.0;50
31-5-2019;14:45:3;354.01791760645983;956.597268057697;-159.83999522103952;-29.35;33.5278;-160.003;1.0;50
31-5-2019;13:30:50;635.545595495756;2430.3357542085064;0.06000070748202931;-3.0;-2.0;0.0;1.0;50
31-5-2019;14:58:52;1378.4960912235385;1418.26710893061;-120.88000019288894;-29.8188;18.7962;-120.0105;1.0;50
31-5-2019;14:10:59;1390.9549279680114;3429.528390477981;120.05999767981592;-0.4288;28.2151;119.999;1.0;50
31-5-2019;14:45:17;870.836767488056;940.3091943803047;-159.81999624205548;-27.35;33.5278;-160.003;1.0;50
31-5-2019;13:45:29;627.7688886948449;2681.0198295729783;40.05999883758935;5.531000000000001;7.4667;39.999;1.0;50
31-5-2019;14:40:3;380.2148421265113;2453.768851560379;-160.13999856005518;-29.35;27.5278;-160.003;1.0;50
31-5-2019;14:21:25;828.6720682149937;678.7990226588153;119.90000768440252;-2.4288;39.2151;119.999;1.0;50
31-5-2019;13:45:58;1622.1303939763056;2666.0529930374964;40.240002946182365;9.531;7.4667;39.999;1.0;50
31-5-2019;13:27:39;1898.275830931903;3404.0316404705586;0.12000392489226568;2.0;-6.0;0.0;1.0;50
31-5-2019;14:8:23;1853.775510408597;666.9071381410006;80.2400002967631;10.4487;29.0018;79.999;1.0;50
31-5-2019;15:10:52;1637.0896417766266;2412.371695160027;-81.13999320611612;-24.1001;2.1278;-80.00450000000002;1.0;50
31-5-2019;13:31:18;1630.7431136838622;2412.4554156284353;0.16000150741182198;1.0;-2.0;0.0;1.0;50
31-5-2019;13:30:35;2386.385264604682;2646.168979892463;-0.09999647748646068;4.0;-3.0;0.0;1.0;50
31-5-2019;14:43:56;2125.820297166371;1417.2891700531345;-159.91999840024758;-22.35;31.5278;-160.003;1.0;50
31-5-2019;15:0:15;2119.81313049522;1156.6030178440144;-120.83999850130388;-26.8188;19.7962;-120.0105;1.0;50
31-5-2019;15:31:47;359.80476496163516;1194.8077991893526;-39.78000198902536;-17.3173;0.4858;-40.0025;1.0;50
31-5-2019;13:40:9;1847.6242689724265;662.4872935328352;0.14000271484586324;2.0;5.0;0.0;1.0;50
31-5-2019;15:33:18;1848.533894934456;927.1194933627949;-40.00000131811318;-11.3173;1.4858;-40.0025;1.0;50
31-5-2019;13:54:17;2088.2432073582468;909.4005598208388;40.05999883758935;11.530999999999999;14.4667;39.999;1.0;50
31-5-2019;14:47:16;1359.548714780964;431.93801569129715;-159.7400007813956;-25.35;35.5278;-160.003;1.0;50
31-5-2019;15:22:4;893.7426125973918;3435.149535668111;-39.98000234859817;-15.3174;-8.5142;-40.0025;1.0;50
31-5-2019;14:54:46;2387.675345364753;2417.0990184984757;-121.0999990323108;-25.8188;14.7962;-120.0105;1.0;50
31-5-2019;13:43:23;2384.724092890156;3396.353936922636;39.94000052155654;12.530999999999999;4.4667;39.999;1.0;50
31-5-2019;13:37:21;1609.6293115486126;1165.7536599224306;0.07999950208436422;1.0;3.0;0.0;1.0;50
31-5-2019;15:21:48;397.79587922324583;3444.323520810969;-40.20000458821008;-17.3174;-8.5142;-40.0025;1.0;50
31-5-2019;15:17:29;1855.7218862294155;931.5221745223347;-79.77999332568413;-23.1001;8.1278;-80.00450000000002;1.0;50
31-5-2019;15:13:29;614.454021600136;1710.2675454692649;-80.54000214564495;-28.1001;5.1278;-80.00450000000002;1.0;50
31-5-2019;15:29:43;2365.849513141537;1905.0042907820014;-39.85999661089283;-9.3173;-2.5142;-40.0025;1.0;50
31-5-2019;13:42:59;1139.7971900542325;3420.1659038477146;40.19999977547531;7.531000000000001;4.4667;39.999;1.0;50
31-5-2019;13:43:59;1633.0827975546392;3161.820164135885;40.05999883758935;9.531;5.4667;39.999;1.0;50
31-5-2019;14:39:40;1629.8870476586803;2674.929555320555;-160.89999957204932;-24.35;26.5278;-160.003;1.0;50
31-5-2019;14:30:34;356.6367101086571;1444.041288203222;160.140000166047;-17.7276;38.4276;159.9985;1.0;50
31-5-2019;15:13:43;1122.657433702624;1702.282474487135;-80.85999632900412;-26.1001;5.1278;-80.00450000000002;1.0;50
31-5-2019;14:3:35;2129.0547345817613;2155.4527289081816;79.99999971689444;11.4487;23.0018;79.999;1.0;50
31-5-2019;15:14:50;1372.381620494708;1420.2654261597622;-81.05999789630394;-25.1001;6.1278;-80.00450000000002;1.0;50
31-5-2019;15:31:40;2360.434641891225;1408.9403239422436;-39.98000234859817;-9.3173;-0.5142;-40.0025;1.0;50
31-5-2019;14:57:49;1369.9561463559112;1682.0907895989444;-120.71999650445196;-29.8188;17.7962;-120.0105;1.0;50
31-5-2019;13:42:43;393.2098964835879;3432.2369005203063;40.05999883758935;4.531000000000001;4.4667;39.999;1.0;50
31-5-2019;14:1:53;394.79539488748003;2419.220032121994;80.21999989570604;4.4487;22.0018;79.999;1.0;50
31-5-2019;14:28:42;2382.13237875089;2161.7578191239804;160.18000431049782;-9.7276;35.4276;159.9985;1.0;50
31-5-2019;14:27:14;374.51190859142304;2440.879549454188;160.0200008416426;-17.7276;34.4276;159.9985;1.0;50
31-5-2019;14:43:26;609.1250086108149;1453.3687836559238;-160.03999679916427;-28.35;31.5278;-160.003;1.0;50
31-5-2019;14:27:1;2141.9672842854416;2665.1861236992945;160.140000166047;-10.7276;33.4276;159.9985;1.0;50
31-5-2019;14:26:50;1644.6343425877717;2673.5931420634834;160.2599985786254;-12.7276;33.4276;159.9985;1.0;50
31-5-2019;15:28:57;868.8945125585016;1933.132140148194;-39.74000467080072;-15.3173;-2.5142;-40.0025;1.0;50
31-5-2019;13:31:4;1133.074409502744;2421.632159250851;0.12000392489226568;-1.0;-2.0;0.0;1.0;50
31-5-2019;14:41:6;625.9478783226411;2198.7446416672105;-159.91999840024758;-28.35;28.5278;-160.003;1.0;50
31-5-2019;14:58:0;1866.2649575194573;1674.630000312881;-120.61999667225498;-27.8188;17.7962;-120.0105;1.0;50
31-5-2019;13:46:15;2371.1890942489604;2649.702117270184;40.020002060741376;12.530999999999999;7.4667;39.999;1.0;50
31-5-2019;14:9:17;1598.3802720004605;421.5097378804555;80.12000036953644;9.4487;30.0018;79.999;1.0;50
31-5-2019;15:25:31;388.1738637880406;2692.1501665689707;-40.91999961949131;-17.3173;-5.5142;-40.0025;1.0;50
31-5-2019;13:55:18;1834.024587975716;664.5681778309549;40.05999883758935;10.530999999999999;15.4667;39.999;1.0;50
31-5-2019;15:8:56;380.85993531665565;2685.865979510296;-79.8800006835249;-29.1001;1.1279;-80.00450000000002;1.0;50
31-5-2019;14:48:46;651.8571766869546;3441.8399771920776;-120.12000034954477;-32.8188;10.7962;-120.0105;1.0;50
31-5-2019;13:27:34;1649.4759010230716;3406.5758195056596;-0.01999446870578376;1.0;-6.0;0.0;1.0;50
31-5-2019;14:37:48;2155.785982145237;3158.413343849935;-160.83999703134262;-22.35;24.5278;-160.003;1.0;50
31-5-2019;14:5:54;1367.9779481020912;1423.8413902366901;80.12000036953644;8.4487;26.0018;79.999;1.0;50
31-5-2019;14:55:13;881.8717736363037;2195.1427012613394;-120.81999850984946;-31.8188;15.7962;-120.0105;1.0;50
31-5-2019;14:56:55;1874.0966279347167;1927.067475454202;-120.83999850130388;-27.8188;16.7962;-120.0105;1.0;50
31-5-2019;14:6:8;2116.420998656332;1410.6308247640393;80.18000065721229;11.4487;26.0018;79.999;1.0;50
31-5-2019;15:17:53;335.9596330503804;695.3352516119172;-80.30000239837028;-29.1001;9.1278;-80.00450000000002;1.0;50
31-5-2019;15:15:53;1367.4814070295372;1170.3255564849333;-81.05999789630394;-25.1001;7.1278;-80.00450000000002;1.0;50
31-5-2019;14:14:45;2370.3025437508013;2666.6045677045004;120.0400022357851;3.5712;31.2151;119.999;1.0;50
31-5-2019;14:44:52;2370.868123127074;1163.359076599985;-159.93999685724586;-21.35;32.5278;-160.003;1.0;50
31-5-2019;13:46:25;371.807466701063;2440.2048492809945;40.28000150634004;4.531000000000001;8.4667;39.999;1.0;50
31-5-2019;15:22:58;2404.549594658457;3400.601886713402;-40.89999966954903;-9.3173;-8.5142;-40.0025;1.0;50
31-5-2019;14:19:42;1341.6884160587194;1171.7411027593896;120.2400018704144;-0.4288;37.2151;119.999;1.0;50
31-5-2019;14:24:13;1159.7299969418386;3429.983417672072;160.140000166047;-14.7276;30.4276;159.9985;1.0;50
31-5-2019;14:12:49;377.476701973753;2934.8574660419067;120.22000261968927;-4.4288;30.2151;119.999;1.0;50
31-5-2019;13:41:6;1105.9379658853559;435.99267198491;-0.6199992469749301;-1.0;6.0;0.0;1.0;50
31-5-2019;14:1:25;1891.339218545369;2661.919545767991;80.32000070532351;10.4487;21.0018;79.999;1.0;50
31-5-2019;13:29:51;639.6137525811024;2679.666262930234;0.12000392489226568;-3.0;-3.0;0.0;1.0;50
31-5-2019;15:24:58;1644.5469424131934;2916.1349202694287;-41.179999752552675;-12.3173;-6.5142;-40.0025;1.0;50
31-5-2019;13:51:19;851.3522660950043;1432.8332860929206;40.18000219647615;6.531000000000001;12.4667;39.999;1.0;50
31-5-2019;14:38:5;388.75702152199824;2938.985489489811;-159.76000118590898;-29.35;25.5278;-160.003;1.0;50
31-5-2019;13:48:4;1363.8564510125445;2171.4735458276127;40.18000219647615;8.531;9.4667;39.999;1.0;50
31-5-2019;14:33:48;1857.4165570750579;674.2812319500275;160.2800043534214;-11.7276;41.4276;159.9985;1.0;50
31-5-2019;14:19:14;2351.1049914112496;1419.1958129150707;120.05999767981592;3.5712;36.2151;119.999;1.0;50
31-5-2019;14:14:6;1120.346535559798;2672.421557009151;120.2400018704144;-1.4288;31.2151;119.999;1.0;50
31-5-2019;15:24:51;1386.9139927893414;2920.443544004116;-39.76000355016855;-13.3173;-6.5142;-40.0025;1.0;50
31-5-2019;14:51:11;2148.6655243541345;3177.4190712438667;-121.23999834118379;-26.8188;11.7962;-120.0105;1.0;50
31-5-2019;14:15:30;2121.8417884043365;2420.0635989770153;120.29999666931492;2.5712;32.2151;119.999;1.0;50
31-5-2019;13:52:46;1343.8694824395939;1176.2341782609744;40.240002946182365;8.531;13.4667;39.999;1.0;50
31-5-2019;14:5:35;371.62809062299453;1446.2923403841046;80.29999987366733;4.4487;26.0018;79.999;1.0;50
31-5-2019;15:20:28;1850.7939875153927;432.5255152726329;-79.8800006835249;-23.1001;10.1278;-80.00450000000002;1.0;50
31-5-2019;14:7:56;356.7272416929228;697.9188048736156;80.32000070532351;4.4487;29.0018;79.999;1.0;50
31-5-2019;15:1:6;1601.432534303728;908.4183269146806;-120.27999594234095;-28.8188;20.7962;-120.0105;1.0;50
31-5-2019;14:43:47;1627.8873750785876;1426.0530920893812;-159.8800012961473;-24.35;31.5278;-160.003;1.0;50
31-5-2019;13:33:33;1621.3524772657022;1914.4797101377344;0.16000150741182198;1.0;0.0;0.0;1.0;50
31-5-2019;14:21:51;1826.125409220384;659.4173971455265;119.72000595247336;1.5712;39.2151;119.999;1.0;50
31-5-2019;14:34:57;2100.3049716288133;420.7647120355048;160.08000375201894;-10.7276;42.4276;159.9985;1.0;50
31-5-2019;14:40:21;1129.4755520772608;2438.1077165491674;-159.83999522103952;-26.35;27.5278;-160.003;1.0;50
31-5-2019;14:35:3;2350.528480784559;415.41394636338265;160.16000580685562;-9.7276;42.4276;159.9985;1.0;50
31-5-2019;14:5:16;1871.2760638958334;1663.758048229984;80.12000036953644;10.4487;25.0018;79.999;1.0;50
31-5-2019;14:51:54;1140.5336618386675;2930.3029231085193;-119.79999909205122;-30.8188;12.7962;-120.0105;1.0;50
31-5-2019;14:56:38;1124.0275263357603;1941.0224541288405;-120.77999672481165;-30.8188;16.7962;-120.0105;1.0;50
31-5-2019;15:27:15;1874.3308710675797;2412.77357357034;-39.76000355016855;-11.3173;-4.5142;-40.0025;1.0;50
31-5-2019;13:31:44;381.1085308725868;2186.944208424822;0.16000150741182198;-4.0;-1.0;0.0;1.0;50
31-5-2019;13:44:10;2130.939171243544;3153.620569861681;40.08000010648507;11.530999999999999;5.4667;39.999;1.0;50
31-5-2019;13:58:31;408.8951214586925;3167.4894987544926;80.21999989570604;4.4487;19.0018;79.999;1.0;50
31-5-2019;13:28:50;396.14207823966535;2932.1767619915167;0.12000392489226568;-4.0;-4.0;0.0;1.0;50
31-5-2019;13:30:10;1386.6545898108825;2665.583839264776;0.10000512860178913;0.0;-3.0;0.0;1.0;50
31-5-2019;15:31:53;610.8885436271032;1187.4826828325133;-39.85999661089283;-16.3173;0.4858;-40.0025;1.0;50
31-5-2019;14:2:35;2136.123199458295;2408.5959305648603;80.33999981480773;11.4487;22.0018;79.999;1.0;50
31-5-2019;15:28:45;364.6443587428386;1957.5041327530175;-40.33999387464059;-17.3173;-2.5142;-40.0025;1.0;50
31-5-2019;14:15:0;866.6816155499993;2427.8993500308497;120.2400018704144;-2.4288;32.2151;119.999;1.0;50
31-5-2019;15:30:58;860.1409972644502;1434.993963397876;-39.76000355016855;-15.3173;-0.5142;-40.0025;1.0;50
31-5-2019;15:2:28;2363.103007995418;652.7118004166664;-119.79999909205122;-25.8188;21.7962;-120.0105;1.0;50
31-5-2019;15:23:5;390.7146713736085;3195.926591751429;-39.879994185110114;-17.3173;-7.5142;-40.0025;1.0;50
31-5-2019;15:32:19;1853.1978617121472;1175.1441911215502;-40.00000131811318;-11.3173;0.4858;-40.0025;1.0;50
31-5-2019;13:27:25;1152.5458842497385;3416.7946962010415;0.16000150741182198;-1.0;-6.0;0.0;1.0;50
31-5-2019;14:36:17;1145.1589199886375;3422.2220216548353;-159.71999641028572;-26.35;23.5278;-160.003;1.0;50
31-5-2019;14:44:39;1623.2665016580886;1175.8094449000625;-159.79999811262502;-24.35;32.5278;-160.003;1.0;50
31-5-2019;14:5:45;869.9496963861667;1434.6234734588966;80.21999989570604;6.4487;26.0018;79.999;1.0;50
31-5-2019;13:33:18;1121.3950832918206;1923.7082882234101;0.2200047265794744;-1.0;0.0;0.0;1.0;50
31-5-2019;13:49:39;2356.5411828297483;1902.8094438693447;40.05999883758935;12.530999999999999;10.4667;39.999;1.0;50
31-5-2019;14:30:47;874.8927736863326;1440.7940668602132;160.3200018636941;-15.7276;38.4276;159.9985;1.0;50
31-5-2019;14:58:12;2382.076956092445;1652.490320673479;-121.02000152050479;-25.8188;17.7962;-120.0105;1.0;50
31-5-2019;13:56:31;2079.0450603286263;410.9902767780059;40.120003188306775;11.530999999999999;16.4667;39.999;1.0;50
31-5-2019;15:27:39;384.060853370364;2187.024722572916;-41.019994094353926;-17.3173;-3.5142;-40.0025;1.0;50
31-5-2019;14:7:11;361.6729027078027;945.3548809988116;80.21999989570604;4.4487;28.0018;79.999;1.0;50
31-5-2019;14:22:5;2323.5252923001763;648.0202784295386;119.54000312893871;3.5712;39.2151;119.999;1.0;50
31-5-2019;14:49:14;1403.0325358898012;3393.1473538636064;-116.57999863485573;-29.8188;10.7962;-120.0105;1.0;50
31-5-2019;14:42:33;364.6374520729863;1706.624858340789;-160.13999856005518;-29.35;30.5278;-160.003;1.0;50
31-5-2019;13:49:59;605.5361996815359;1688.9719114092056;40.28000150634004;5.531000000000001;11.4667;39.999;1.0;50
31-5-2019;15:23:20;887.2693892500481;3186.3895202720287;-39.76000355016855;-15.3173;-7.5142;-40.0025;1.0;50
31-5-2019;14:33:43;1606.5946597626905;679.8382480861791;160.12000139566325;-12.7276;41.4276;159.9985;1.0;50
31-5-2019;14:38:45;1902.522357168536;2913.8724674063683;-160.89999957204932;-23.35;25.5278;-160.003;1.0;50
31-5-2019;14:30:53;1124.1441660162322;1435.8292624495261;160.3800053486647;-14.7276;38.4276;159.9985;1.0;50
31-5-2019;13:50:25;1354.0701870408216;1673.2073311417612;40.18000219647615;8.531;11.4667;39.999;1.0;50
31-5-2019;14:32:38;1115.1947008189295;936.4490684011664;160.47999955350656;-14.7276;40.4276;159.9985;1.0;50
31-5-2019;15:30:6;1113.9759630502228;1678.7024249483422;-39.76000355016855;-14.3173;-1.5142;-40.0025;1.0;50
31-5-2019;14:56:50;1622.9607808990445;1927.1947674121625;-120.74000012011436;-28.8188;16.7962;-120.0105;1.0;50
31-5-2019;13:36:33;2366.022724553286;1400.6521330884275;-0.04000009210778948;4.0;2.0;0.0;1.0;50
31-5-2019;14:8:19;1603.8642006028836;670.5523306863918;80.14000070717438;9.4487;29.0018;79.999;1.0;50
31-5-2019;14:15:58;1111.2038023223256;2174.2344242990052;120.2400018704144;-1.4288;33.2151;119.999;1.0;50
31-5-2019;13:53:56;1338.715849520195;926.2573311828353;40.26000152195857;8.531;14.4667;39.999;1.0;50
31-5-2019;14:14:30;1870.6512226682114;2676.333651631435;119.9800031950651;1.5712;31.2151;119.999;1.0;50
31-5-2019;14:26:13;2142.663583130924;2920.1483429062328;159.92000000400012;-10.7276;32.4276;159.9985;1.0;50
31-5-2019;13:54:4;1589.9575769017472;918.1432077676351;40.05999883758935;9.531;14.4667;39.999;1.0;50
31-5-2019;15:23:44;1640.1093853999073;3164.9207357998444;-39.76000355016855;-12.3173;-7.5142;-40.0025;1.0;50
31-5-2019;13:52:1;2347.430247298449;1403.9343309871792;40.040001964805306;12.530999999999999;12.4667;39.999;1.0;50
31-5-2019;15:34:19;1843.3650400307395;665.9903981677631;-39.76000355016855;-11.3173;2.4857;-40.0025;1.0;50
31-5-2019;14:54:29;1636.050911630314;2428.552966363833;-120.89999721505528;-28.8188;14.7962;-120.0105;1.0;50
31-5-2019;13:45:20;377.4035669710902;2688.416648864833;40.19999977547531;4.531000000000001;7.4667;39.999;1.0;50
31-5-2019;14:7:4;2361.492154666388;1155.6933059173614;80.18000065721229;12.4487;27.0018;79.999;1.0;50
31-5-2019;13:56:36;2329.006169292631;405.825820349645;40.040001964805306;12.530999999999999;16.4667;39.999;1.0;50
31-5-2019;13:55:29;2333.612188794085;655.3529480090285;40.040001964805306;12.530999999999999;15.4667;39.999;1.0;50
31-5-2019;14:24:54;656.9955059514791;3190.9782313771016;160.140000166047;-16.7276;31.4276;159.9985;1.0;50
31-5-2019;14:41:52;622.3400751304868;1947.9840435000128;-159.76000118590898;-28.35;29.5278;-160.003;1.0;50
31-5-2019;15:15:0;1862.213439057614;1410.5227792079647;-79.7999920491333;-23.1001;6.1278;-80.00450000000002;1.0;50
31-5-2019;14:1:34;2123.497316796133;2623.9881749503547;79.32000035884029;11.4487;21.0018;79.999;1.0;50
31-5-2019;13:28:19;1396.522027293698;3162.5673866491748;0.10000512860178913;0.0;-5.0;0.0;1.0;50
31-5-2019;13:38:20;1104.2666808985744;926.30447843403;0.14000271484586324;-1.0;4.0;0.0;1.0;50
31-5-2019;13:33:2;621.8143624302935;1934.5573024053765;0.32000553079008426;-3.0;0.0;0.0;1.0;50
31-5-2019;14:1:2;1147.7453741314707;2656.5109371866874;80.44000071171304;7.4487;21.0018;79.999;1.0;50
31-5-2019;14:27:18;626.673725353488;2436.338982452366;160.2800043534214;-16.7276;34.4276;159.9985;1.0;50
31-5-2019;15:11:37;878.4127388406737;2178.5624988957693;-80.87999481350695;-27.1001;3.1278;-80.00450000000002;1.0;50
31-5-2019;13:47:21;2365.904355896009;2400.8164575937303;40.020002060741376;12.530999999999999;8.4667;39.999;1.0;50
31-5-2019;14:11:27;2128.9205271156866;3420.3179086642963;119.78000138644585;2.5712;28.2151;119.999;1.0;50
31-5-2019;14:43:38;1111.2847120949436;1441.5102233238804;-159.8600010379332;-26.35;31.5278;-160.003;1.0;50
31-5-2019;14:2:17;1635.7530300330027;2414.603877040056;80.0599998834925;9.4487;22.0018;79.999;1.0;50
31-5-2019;14:17:30;354.68630684865667;1689.457527360548;120.26000038088637;-4.4288;35.2151;119.999;1.0;50
31-5-2019;14:37:11;638.3504691757004;3188.608278374643;-160.27999677146906;-28.35;24.5278;-160.003;1.0;50
31-5-2019;14:58:46;1113.3034271362003;1439.102368035655;-120.7000010580927;-30.8188;18.7962;-120.0105;1.0;50
31-5-2019;15:29:11;1367.908350530668;1923.528020837492;-39.78000198902536;-13.3173;-2.5142;-40.0025;1.0;50
31-5-2019;14:8:28;2103.034293791153;661.851530835662;80.20000001668197;11.4487;29.0018;79.999;1.0;50
31-5-2019;13:44:36;881.4762956349334;2925.1810664503096;40.020002060741376;6.531000000000001;6.4667;39.999;1.0;50
31-5-2019;14:28:16;1136.294008644373;2184.975488395029;160.140000166047;-14.7276;35.4276;159.9985;1.0;50
31-5-2019;15:29:35;2114.2551932337856;1908.6294044792498;-39.76000355016855;-10.3173;-2.5142;-40.0025;1.0;50
31-5-2019;14:40:53;2388.079592250556;2402.736816009669;-160.69999744910132;-21.35;27.5278;-160.003;1.0;50
31-5-2019;14:23:59;391.1855455202269;3437.018913489505;159.78000082967384;-17.7276;30.4276;159.9985;1.0;50
31-5-2019;14:7:51;2359.502747214668;909.0323638535048;80.52000035177886;12.4487;28.0018;79.999;1.0;50
31-5-2019;15:8:12;1382.1221937648866;2915.9216230910274;-79.81999040332936;-25.1001;0.1279;-80.00450000000002;1.0;50
31-5-2019;14:44:10;356.07087040019536;1207.8441848667;-160.15999661681948;-29.35;32.5278;-160.003;1.0;50
31-5-2019;14:2:12;1386.726504099862;2420.5976179478007;80.16000071602149;8.4487;22.0018;79.999;1.0;50
31-5-2019;13:48:23;2112.1333830589583;2158.369933438052;40.240002946182365;11.530999999999999;9.4667;39.999;1.0;50
31-5-2019;13:41:33;1840.6030635749485;413.9355166393245;0.2200047265794744;2.0;6.0;0.0;1.0;50
31-5-2019;13:32:28;1874.7706986097257;2158.731087224873;0.10000512860178913;2.0;-1.0;0.0;1.0;50
31-5-2019;14:38:28;1134.5853434254598;2926.36365894586;-159.93999685724586;-26.35;25.5278;-160.003;1.0;50
31-5-2019;14:31:2;1620.6139475573993;1427.774481361417;160.16000580685562;-12.7276;38.4276;159.9985;1.0;50
