Date | Time | X-Frame | Y-Frame | Angle-Frame | Score | X-DLT | Y-DLT | ANGLE-DLT
28-11-2017;13:14:59;-105.633217;-40.209;-55.9356;0.714965;10.809562;-10.1325;0.24674
28-11-2017;13:57:10;44.234489;124.547;74.6226;0.665363;-22.807585;0.702972;0.620549
28-11-2017;10:47:0;81.083237;-6.78798;22.9036;0.885406;-11.618875;-15.6674;0.293721
28-11-2017;10:50:0;-60.191307;-93.8554;43.922;0.855103;-12.506408;-9.89774;0.365282
28-11-2017;10:54:14;-144.103363;-95.2377;-23.2359;0.795866;4.213614;-12.5603;0.42918
28-11-2017;10:29:33;58.458729;-101.349;-63.6357;0.914662;14.566415;-6.92288;0.804968
28-11-2017;10:9:42;-122.544769;-125.203;24.8599;0.790503;-6.595681;-12.5782;0.267029
28-11-2017;14:4:12;139.763397;81.1558;16.9214;0.863186;-12.142491;-17.9499;0.175803
28-11-2017;10:30:54;123.717308;-4.92106;17.0562;0.919616;-10.485809;-16.7295;0.116064
28-11-2017;9:44:20;3.215348;63.428;-56.9046;0.682081;13.254893;-13.5572;0.607504
28-11-2017;10:54:41;-122.771606;-63.078;4.31335;0.83351;-3.997176;-14.2693;0.395916
28-11-2017;11:52:50;-19.299242;91.2365;-26.06;0.592666;4.196980;-18.7541;0.896424
28-11-2017;11:53:32;59.613781;-101.206;16.581;0.833607;-7.332443;-15.6393;0.209955
28-11-2017;10:12:15;-0.498754;57.8137;18.449;0.698094;-10.274289;-16.027;0.310668
28-11-2017;10:18:44;104.910797;-17.8127;-73.4165;0.841205;17.448426;-6.3186;0.919513
28-11-2017;12:42:32;-34.629078;-55.9712;75.9274;0.764642;-17.684514;-1.6943;0.654526
28-11-2017;10:16:37;-77.409714;66.9907;-39.5431;0.703189;7.999383;-15.9435;0.707747
28-11-2017;12:45:28;149.504120;-89.5986;-67.8808;0.934743;16.460909;-6.72578;0.854309
28-11-2017;13:41:49;167.308197;-64.1184;-46.3165;0.937681;12.222349;-13.2915;0.866629
28-11-2017;10:32:58;-108.314354;82.5905;-19.0984;0.72376;1.511479;-17.6963;0.662736
28-11-2017;12:57:35;-124.121231;-112.429;19.1069;0.783005;-6.061663;-12.8902;0.558478
28-11-2017;13:57:52;123.082138;-68.2187;-42.6605;0.927561;10.957472;-13.5966;0.782642
28-11-2017;10:22:2;-58.967979;-92.9113;-34.84;0.855338;7.429734;-12.4721;0.538603
28-11-2017;9:24:36;-177.954010;50.3722;39.4757;0.629787;-13.421687;-10.3142;-0.121128
28-11-2017;10:3:40;160.121933;50.0485;-16.6507;0.855436;1.525424;-19.7168;1.00305
28-11-2017;10:7:8;40.519234;-4.94651;31.331;0.778545;-12.934379;-13.7657;0.21846
28-11-2017;12:43:35;15.246208;18.9256;-20.9216;0.715254;3.285411;-17.5735;0.7942
28-11-2017;9:35:23;146.616837;29.3835;45.9987;0.879003;-18.584949;-10.3973;0.594602
28-11-2017;9:36:25;-106.680458;52.5192;-53.3908;0.62447;11.308265;-12.6753;0.691673
28-11-2017;13:8:31;-179.782379;44.9081;35.1935;0.554532;-13.778776;-10.9732;0.358607
28-11-2017;14:1:55;30.875898;-82.1572;39.8377;0.868753;-13.307554;-11.7381;0.287436
28-11-2017;10:12:51;28.092823;100.875;54.4598;0.656902;-20.791379;-6.96819;0.537429
28-11-2017;13:5:42;20.584303;-97.687;26.6955;0.853241;-9.723814;-13.9515;0.220656
28-11-2017;13:22:2;-10.864268;-82.9073;46.4154;0.813326;-14.060005;-10.0546;0.278162
28-11-2017;9:44:38;16.233624;86.559;-38.5206;0.628254;8.528085;-15.5169;0.960587
28-11-2017;13:48:40;-121.131912;63.2674;44.7174;0.580917;-14.515628;-9.22772;0.306854
28-11-2017;10:15:7;-148.527115;-40.7186;30.4873;0.718062;-10.261156;-11.8039;0.182916
28-11-2017;10:47:27;102.779152;26.2867;50.4609;0.888096;-18.947832;-8.80358;0.648095
28-11-2017;13:38:50;-21.038898;-34.3255;-65.8493;0.812309;14.426758;-7.84089;0.758489
28-11-2017;13:2:33;154.903503;-20.6452;-2.75069;0.897842;-2.901733;-18.9553;0.594966
28-11-2017;14:3:51;122.669044;55.3199;-4.53632;0.81235;-3.202389;-19.3247;0.830054
28-11-2017;9:35:5;131.732025;7.6158;27.7017;0.879886;-13.800339;-15.3733;0.10198
28-11-2017;10:58:34;107.511086;-28.7534;77.0553;0.924656;-20.471101;-0.838208;0.516413
28-11-2017;13:46:33;108.479904;-27.8801;78.1578;0.869234;-20.723122;-0.495307;0.470446
28-11-2017;10:13:9;43.970448;122.525;72.1883;0.666299;-22.986300;-0.537366;0.508149
28-11-2017;10:14:13;137.814819;-45.5194;-23.9746;0.897308;5.096277;-17.2726;0.762101
28-11-2017;13:53:14;147.470901;138.018;-0.92364;0.785262;-6.386666;-20.2691;0.799582
28-11-2017;13:59:59;-74.534081;28.0868;-76.7324;0.704704;15.141998;-6.84877;0.433449
28-11-2017;12:41:39;-76.340561;-118.576;23.5035;0.793418;-7.077456;-13.2789;0.217711
28-11-2017;13:5:0;-58.052353;95.3633;-15.1529;0.620142;-0.159514;-18.9464;0.581865
28-11-2017;10:30:27;102.151459;-37.0118;-9.6966;0.896431;0.075307;-17.8018;0.705856
28-11-2017;9:59:7;-101.666527;-31.9944;30.2148;0.764363;-11.253728;-12.2349;0.429752
28-11-2017;9:31:37;-78.349007;3.41856;-19.9637;0.752777;2.805151;-15.9931;0.650818
28-11-2017;11:49:30;151.152328;-87.4064;-65.8999;0.889861;16.202328;-7.3967;0.895361
28-11-2017;14:8:4;74.770599;57.7859;-74.3093;0.738015;17.646283;-9.10253;0.647209
28-11-2017;10:51:4;-9.943997;-18.2579;-52.5054;0.875727;11.934091;-11.8033;0.663906
28-11-2017;10:25:12;91.911224;133.174;-5.3253;0.746696;-3.827334;-20.1734;1.12301
28-11-2017;13:34:5;38.483921;-70.7682;-30.493;0.871159;6.870319;-14.7476;0.631419
28-11-2017;9:57:1;82.769371;120.771;63.778;0.690784;-23.217280;-3.81834;0.452533
28-11-2017;14:12:47;-22.552645;90.0913;51.8898;0.576914;-17.508284;-7.56463;0.549413
28-11-2017;14:10:9;-152.594513;-97.6392;54.0005;0.606084;-12.695525;-7.71637;0.299567
28-11-2017;13:40:24;55.156132;78.605;29.1378;0.712619;-14.525813;-14.6012;0.251567
28-11-2017;12:58:49;-69.295937;-44.2855;-66.7874;0.755509;13.502589;-6.82741;0.895731
28-11-2017;9:47:39;-123.402916;-1.76836;-17.6449;0.696392;1.458339;-15.9284;0.370485
28-11-2017;13:22:12;-2.950888;-70.0845;57.1941;0.812951;-16.107180;-7.6344;0.125573
28-11-2017;14:0:9;-98.738266;35.2884;-65.7262;0.659066;13.547276;-9.64415;0.516515
28-11-2017;13:53:25;-143.233246;-137.648;10.3943;0.788203;-3.021603;-13.4629;0.197579
28-11-2017;13:18:37;73.291794;-81.6441;-46.0971;0.924648;11.421335;-12.0966;0.655381
28-11-2017;13:10:32;-31.563089;-62.3869;-3.0117;0.788474;-1.344766;-15.9758;0.550016
28-11-2017;10:17:32;11.026151;-111.565;14.9549;0.857862;-6.305705;-15.0306;0.190571
28-11-2017;13:53:35;-126.251205;-130.91;20.1278;0.790421;-5.358287;-13.0237;0.259995
28-11-2017;9:22:5;36.124363;-76.2479;45.8606;0.876358;-14.293917;-10.1225;0.554579
28-11-2017;14:8:34;62.791573;90.1586;-41.0425;0.708215;9.376191;-18.0295;0.732393
28-11-2017;13:34:16;47.100601;-58.3228;-19.943;0.87042;3.803708;-16.4809;0.676237
28-11-2017;13:35:19;97.885712;17.1329;43.4069;0.838753;-17.291549;-11.0006;0.62867
28-11-2017;10:45:11;-51.545822;108.692;75.2571;0.665478;-20.032613;-0.0964538;0.148406
28-11-2017;9:40:13;102.896385;55.9664;16.9755;0.769184;-10.920409;-17.3647;0.309544
28-11-2017;9:45:15;46.367477;128.314;-2.28146;0.62912;-4.861970;-20.3421;0.822244
28-11-2017;13:24:9;90.259308;69.0064;13.9921;0.742747;-10.172802;-17.8588;0.293232
28-11-2017;10:54:50;-115.189758;-51.7966;13.1745;0.827919;-5.891038;-13.685;0.699574
28-11-2017;13:32:15;-93.506020;42.3783;20.0818;0.708442;-9.289238;-14.4489;0.34924
28-11-2017;9:45:5;39.450684;117.592;-11.3757;0.635997;-1.189606;-20.6039;0.953111
28-11-2017;13:46:12;91.777878;-53.039;57.102;0.895329;-17.969353;-7.52671;0.429808
28-11-2017;14:11:33;-79.856514;0.451227;-22.0284;0.663059;3.361966;-16.0246;0.61015
28-11-2017;10:21:17;-64.815994;-140.985;-81.029;0.861339;13.663383;-1.19927;0.582069
28-11-2017;10:53:38;157.102280;-78.5642;-58.9675;0.93369;14.262580;-10.1357;0.495114
28-11-2017;9:45:42;113.276695;-82.5869;24.5257;0.866431;-10.429466;-15.2755;0.1949
28-11-2017;13:13:47;166.111328;-66.0688;31.7975;0.943018;-13.459110;-14.5081;0.212539
28-11-2017;10:4:53;-110.327797;75.7561;55.5708;0.607717;-18.492272;-6.20878;0.539163
28-11-2017;13:59:17;-139.663513;-28.0938;41.3827;0.708147;-12.541202;-9.95483;0.252799
28-11-2017;10:10:9;-100.854195;-93.1099;52.1791;0.748984;-13.807243;-8.08068;0.36245
28-11-2017;10:53:29;149.294037;-89.2467;-67.8604;0.924897;15.706170;-7.25879;0.51788
28-11-2017;10:8:11;89.614754;70.1759;-65.491;0.767718;16.568879;-10.4229;0.920106
28-11-2017;9:24:58;-155.156754;73.6355;60.8995;0.617962;-15.888861;-4.60748;0.40988
28-11-2017;14:9:58;175.209839;-52.287;43.3357;0.904887;-16.404155;-11.8267;0.34274
28-11-2017;13:19:34;181.514877;25.8334;59.2607;0.923778;-21.628020;-6.4141;0.291421
28-11-2017;9:59:25;-86.829384;-10.1287;48.4236;0.70822;-14.256581;-8.11376;0.977917
28-11-2017;12:38:40;65.442680;-29.6361;4.2966;0.779485;-4.822280;-17.4046;0.254398
28-11-2017;10:53:56;171.599457;-56.9989;-41.132;0.931715;10.392865;-14.9232;0.716704
28-11-2017;10:25:21;139.184235;-95.1372;4.67173;0.941212;-4.405266;-17.0834;0.179487
28-11-2017;14:12:5;-54.719231;37.9205;9.58137;0.68082;-6.617138;-15.7546;0.843865
28-11-2017;12:45:59;175.233261;-52.1153;-36.3442;0.927921;9.244197;-15.8073;0.784985
28-11-2017;11:45:7;-141.143524;67.0533;-8.73746;0.610244;-0.926328;-16.7096;0.870558
28-11-2017;12:52:52;-113.130447;74.4667;56.0052;0.550585;-18.049057;-4.80274;-0.442817
28-11-2017;13:57:21;136.611542;-98.0278;-75.0068;0.931158;17.034749;-4.24322;0.886269
28-11-2017;10:29:6;-7.445065;109.265;69.1717;0.690675;-21.275098;-2.18225;-0.127044
28-11-2017;9:59:16;-95.069595;-20.5319;39.0982;0.737675;-12.399820;-10.442;0.616379
28-11-2017;9:36:15;-175.792557;-9.00471;64.4274;0.535483;-16.670186;-2.10501;0.215521
28-11-2017;13:12:23;53.682552;76.4385;-52.6344;0.739709;12.797235;-15.3224;0.691284
28-11-2017;13:42:42;-121.350861;-61.4858;5.67087;0.797047;-3.725696;-14.0381;0.718717
28-11-2017;13:22:44;56.318047;-23.9937;-72.1218;0.817733;16.471906;-5.96356;0.860504
28-11-2017;10:50:46;-25.025764;-41.1096;-70.8862;0.884721;14.784157;-6.35689;0.717514
28-11-2017;13:35:50;122.355415;55.1891;75.0715;0.850422;-22.654559;-0.397929;0.338833
28-11-2017;10:12:42;21.016243;89.9909;45.3983;0.65455;-19.090376;-9.82461;0.523209
28-11-2017;10:10:0;-108.210358;-103.867;42.9143;0.766278;-11.275825;-9.62781;0.67197
28-11-2017;9:28:36;63.160160;90.5214;-40.6907;0.734926;9.237579;-18.0047;0.722154
28-11-2017;10:0:29;-37.166565;65.0975;-48.0958;0.702898;10.642775;-15.0149;0.641624
28-11-2017;10:30:45;116.532730;-15.3672;8.25858;0.921475;-7.347140;-17.7868;-0.0552102
28-11-2017;10:14:40;158.671310;-13.1825;3.35967;0.928101;-5.771536;-18.6772;0.0707078
28-11-2017;12:43:3;-9.777903;-18.641;-52.3737;0.784702;12.119916;-11.6483;0.755055
28-11-2017;12:57:56;-110.310616;-107.302;40.1008;0.731235;-10.131678;-10.5074;0.372116
28-11-2017;10:0:11;-51.889587;43.149;-66.1032;0.701788;14.395730;-10.2593;0.570448
28-11-2017;10:32:3;-121.807899;23.2753;-72.8093;0.701942;13.217669;-6.82533;0.197748
28-11-2017;10:9:51;-114.888756;-115.143;33.4431;0.771011;-9.054307;-11.2039;0.673155
28-11-2017;10:9:24;-146.216461;-139.311;6.69;0.797025;-2.101909;-13.4555;0.223531
28-11-2017;9:47:48;-116.460663;8.52412;-9.04043;0.681871;-0.504343;-16.2224;0.590177
28-11-2017;10:2:46;155.227371;-7.49827;-71.5804;0.870253;17.788526;-7.64581;0.905732
28-11-2017;10:52:7;40.376236;56.9408;10.4723;0.808864;-8.213052;-17.5565;0.393591
28-11-2017;13:42:20;-137.753906;-86.5216;-14.7187;0.74338;1.601045;-14.2266;0.266407
28-11-2017;10:16:10;-99.480316;34.1294;-66.4004;0.653612;13.068317;-9.59512;0.245883
28-11-2017;13:26:58;-60.589363;-33.46;22.3025;0.778464;-9.278181;-13.6126;0.581972
28-11-2017;13:29:31;105.932526;-94.1738;15.5335;0.939016;-7.653631;-16.2133;0.137371
28-11-2017;11:45:28;-85.528664;-132.326;12.002;0.779817;-4.022828;-13.9836;0.218052
28-11-2017;13:56:49;27.721600;99.4737;53.9427;0.907577;-20.441449;-6.97686;0.611216
28-11-2017;9:46:9;134.572464;-50.3909;51.5811;0.870557;-17.403412;-9.34291;0.484315
28-11-2017;10:28:2;-57.999264;34.266;5.93368;0.844019;-5.479923;-16.3619;0.443036
28-11-2017;13:7:7;87.591866;2.97887;-48.6947;0.83909;12.367056;-13.1066;0.935963
28-11-2017;9:26:26;-39.882298;-64.4257;-10.5758;0.798624;0.809472;-15.7233;0.53598
28-11-2017;12:59:10;-51.520069;-19.1891;-45.7006;0.728348;10.057239;-12.5749;0.726931
28-11-2017;10:52:25;54.589245;78.3947;28.5631;0.802424;-14.458173;-14.6147;0.200788
28-11-2017;12:42:0;-59.013680;-94.2194;44.302;0.78388;-12.687269;-9.92972;0.535597
28-11-2017;10:56:0;-97.165283;-26.6453;35.6263;0.825757;-12.452616;-11.1691;0.471504
28-11-2017;13:32:36;-76.561775;66.8542;41.2245;0.678416;-15.380275;-9.8508;0.902396
28-11-2017;13:12:55;79.090126;114.579;-20.6904;0.708856;2.064993;-20.8788;0.856808
28-11-2017;10:51:49;25.970852;35.3125;-7.5287;0.802027;-1.504424;-18.4557;0.747288
28-11-2017;9:45:24;93.048683;-100.64;7.21667;0.899143;-4.690713;-15.6194;0.254751
28-11-2017;10:14:49;166.770767;-2.42624;11.9611;0.924712;-9.233584;-18.2532;-0.00949274
28-11-2017;10:34:28;8.199169;-52.602;71.6672;0.842965;-18.186889;-3.23919;0.141479
28-11-2017;10:21:8;-145.522385;76.9027;71.9756;0.628631;-18.984070;-0.356664;-0.692773
28-11-2017;9:33:52;74.392952;-78.3935;-44.3941;0.896056;11.247348;-11.9512;0.856525
28-11-2017;12:36:33;-78.595779;49.5865;38.1269;0.606392;-13.743458;-11.1569;0.29462
28-11-2017;10:48:39;-169.766418;52.5142;-37.5065;0.685191;5.951330;-14.8711;0.415144
28-11-2017;13:3:15;-141.854355;-29.7969;39.2136;0.643032;-12.193488;-10.5854;0.0231003
28-11-2017;14:1:13;-48.026413;110.376;-2.69385;0.617518;-4.039638;-18.7649;0.731255
28-11-2017;11:53:43;67.972343;-88.8587;27.0276;0.84531;-10.557622;-14.4825;0.224198
28-11-2017;12:47:24;-88.134285;-10.4855;47.6967;0.722116;-14.007707;-8.40511;0.82622
28-11-2017;10:9:33;-129.624924;-136.025;15.8556;0.793426;-4.357669;-13.2564;0.246717
28-11-2017;10:34:37;49.408165;-34.2304;-80.2927;0.826238;17.080778;-3.32121;0.82475
28-11-2017;10:24:8;40.850044;57.2947;-68.2206;0.768729;16.309820;-10.1011;0.850463
28-11-2017;14:3:19;97.538307;17.8499;-36.1441;0.827163;8.724393;-15.9431;1.00018
28-11-2017;14:9:16;136.296875;-99.2927;1.52171;0.943561;-3.374839;-17.165;0.159795
28-11-2017;13:56:18;2.999682;60.9391;21.9397;0.732715;-11.934176;-15.0863;0.68147
28-11-2017;10:24:17;48.276413;69.2026;-59.2776;0.792464;14.583502;-12.7648;0.906693
28-11-2017;10:53:47;164.303238;-67.8424;-50.0289;0.934909;12.441113;-12.751;0.540058
28-11-2017;10:23:32;12.690921;15.1896;55.6825;0.823927;-18.463175;-7.09305;0.479714
28-11-2017;10:6:23;4.269552;-59.3919;-14.1031;0.804435;1.915768;-16.2978;0.637563
28-11-2017;14:3:30;105.876709;30.2864;-25.6185;0.813922;5.107866;-17.6988;0.99194
28-11-2017;10:23:14;-1.970389;-6.54078;37.2385;0.8349;-14.522657;-12.2288;-0.139467
28-11-2017;13:39:21;5.185838;3.22602;-33.8032;0.782654;7.330022;-15.8334;0.772299
28-11-2017;10:7:44;71.290039;33.1467;68.3115;0.787394;-21.235543;-3.18108;0.423565
28-11-2017;12:50:54;123.911629;-3.50751;-61.3437;0.87184;15.698299;-10.2711;0.975348
28-11-2017;10:2:37;109.904572;-25.3689;79.7842;0.857374;-20.821752;0.0556929;0.488384
28-11-2017;11:50:12;-149.838699;-95.9136;-22.9473;0.66572;3.972656;-13.2749;0.396811
28-11-2017;10:7:53;76.386963;49.047;76.3519;0.778531;-21.926995;-0.170374;0.429018
28-11-2017;12:49:51;74.782677;-78.6084;35.5734;0.88597;-12.987183;-13.1274;0.250669
28-11-2017;13:35:8;89.152527;5.18644;33.0352;0.847634;-14.248350;-13.7933;0.302502
28-11-2017;13:36:43;-165.649399;58.3773;-32.3352;0.579051;3.167695;-16.2392;-0.0748305
28-11-2017;9:44:2;25.187962;46.3656;-75.6088;0.68807;16.999782;-8.28412;0.604174
28-11-2017;10:27:26;-87.051918;-9.26827;-30.9032;0.795763;6.009864;-14.3191;0.792023
28-11-2017;13:2:1;34.775410;110.93;64.6496;0.629842;-21.507332;-4.14675;0.0309486
28-11-2017;13:55:46;-22.176601;24.2236;-9.0809;0.763389;-0.709038;-17.6608;0.710182
28-11-2017;9:33:7;-6.519241;111.053;69.9779;0.694787;-20.412582;-1.71681;0.311508
28-11-2017;13:58:45;164.594589;-5.83104;10.0443;0.946053;-8.333744;-18.3398;0.225732
28-11-2017;11:46:42;5.683561;-36.947;-74.5793;0.691145;15.577787;-6.21082;0.605758
28-11-2017;10:6:14;-2.900865;-70.256;-23.1367;0.825221;4.710152;-15.2944;0.664129
28-11-2017;12:41:29;-84.647995;-131.25;13.0015;0.792863;-4.261449;-13.8877;0.236217
28-11-2017;10:44:53;-64.192902;86.3303;57.021;0.712051;-19.515699;-5.69511;0.450195
28-11-2017;9:31:10;-100.494339;-28.8308;-47.5157;0.730604;9.705153;-10.9811;0.53519
28-11-2017;14:1:44;22.623755;-94.8211;29.274;0.87277;-10.435986;-13.5801;0.273983
28-11-2017;13:12:12;45.272945;62.18;-62.825;0.735338;15.132715;-12.3201;0.654533
28-11-2017;10:49:15;-140.796097;95.1006;-0.408857;0.67635;-5.246278;-17.5125;0.211137
28-11-2017;9:58:58;-108.889114;-42.6636;21.1978;0.785574;-8.888830;-13.4381;0.358943
28-11-2017;10:46:24;52.264004;-49.519;-13.0232;0.883178;1.386488;-17.0785;0.594307
28-11-2017;10:23:23;5.775010;3.81039;45.5808;0.819101;-16.482235;-9.87382;0.449108
28-11-2017;13:31:44;-118.655823;4.22264;-11.1801;0.682126;-0.630343;-16.3478;0.306198
28-11-2017;13:17:6;-6.640677;110.694;70.5041;0.606113;-20.927402;-1.85419;0.0971933
28-11-2017;10:38:7;-102.034019;-94.4889;-29.1386;0.815435;5.776961;-12.7465;0.523993
28-11-2017;13:55:56;-14.529849;37.0145;1.40081;0.790392;-4.341522;-17.3816;0.515337
28-11-2017;10:22:56;-16.381029;-27.7871;19.2601;0.851527;-9.328446;-15.1948;-0.0589235
28-11-2017;9:56:6;-95.011536;37.9596;18.5438;0.694303;-8.760414;-14.6521;0.33153
28-11-2017;11:48:27;57.416962;79.8214;30.9136;0.609623;-16.148889;-14.1538;0.429892
28-11-2017;14:2:26;56.027050;-44.5939;71.23;0.866085;-19.377140;-3.28026;0.386973
28-11-2017;13:42:10;-151.370041;-97.7917;-24.9148;0.70719;4.666749;-12.8607;0.452305
28-11-2017;13:2:12;161.696030;-24.146;-24.4673;0.904564;5.076296;-17.965;0.820231
28-11-2017;10:16:46;-70.194901;77.6622;-30.4863;0.679814;5.354357;-17.4087;0.726558
28-11-2017;12:38:8;41.075005;-67.3352;-27.3739;0.812353;6.090967;-15.083;0.69912
28-11-2017;10:36:28;107.729980;77.6567;31.6243;0.817408;-15.894687;-14.2343;0.303467
28-11-2017;12:48:27;-37.700684;63.8851;-48.8674;0.680824;10.879498;-14.7319;0.651675
28-11-2017;12:53:23;-7.998267;-119.654;-72.3192;0.817885;14.390893;-3.35807;0.668887
28-11-2017;9:57:46;163.769379;-68.7167;-50.6521;0.924874;13.377768;-12.083;0.853246
28-11-2017;13:19:45;-172.122711;-0.374986;69.7613;0.59062;-15.940051;-3.39323;-0.0716904
28-11-2017;10:22:11;-52.136543;-81.9321;-25.8137;0.88086;5.164981;-14.0026;0.594523
28-11-2017;12:48:6;-18.312788;44.4095;-69.9159;0.692951;15.420946;-9.49471;0.559003
28-11-2017;13:25:23;-100.589447;-137.864;-72.8276;0.765367;12.292452;-2.94091;0.661547
28-11-2017;10:2:1;81.150124;-68.4419;43.7544;0.884498;-14.965784;-11.2182;0.370917
28-11-2017;13:41:17;181.583542;-93.4941;-79.2357;0.933781;17.948100;-3.38116;0.861149
28-11-2017;13:39:32;13.258244;15.9883;-23.3969;0.747092;4.158693;-17.1931;0.843033
28-11-2017;10:27:8;-101.179909;-30.93;-48.7403;0.783017;9.862009;-11.5589;0.487654
28-11-2017;11:48:38;64.787018;94.3901;42.3429;0.617783;-19.289513;-12.2994;-0.301701
28-11-2017;10:37:58;-109.060135;-105.174;-38.1185;0.799253;7.800657;-11.2001;0.459031
28-11-2017;13:38:28;-37.015110;-59.6134;73.0887;0.794165;-17.520248;-2.47649;0.608114
28-11-2017;9:25:20;-62.395195;-134.091;-76.502;0.805806;13.288021;-2.04785;0.889391
28-11-2017;13:7:28;104.421089;27.8845;-27.7595;0.817677;5.927720;-17.5648;1.02746
28-11-2017;13:45:51;75.264763;-78.1275;36.1744;0.883682;-13.096587;-12.934;0.26252
28-11-2017;13:41:59;175.739426;-51.4817;-35.7483;0.927376;9.143159;-15.9117;0.816542
28-11-2017;10:28:38;-29.248756;77.5654;41.5049;0.756662;-16.518470;-10.8566;0.0192632
28-11-2017;12:46:41;-121.770088;-62.5289;5.38742;0.789714;-4.383110;-14.3826;0.397606
28-11-2017;10:17:13;-48.241875;110.624;-3.25321;0.597521;-3.703249;-18.7629;0.833899
28-11-2017;10:50:19;-45.889915;-72.3922;61.9427;0.868901;-15.979997;-5.6465;0.439932
28-11-2017;9:57:10;89.804375;131.311;72.7124;0.718541;-23.840980;-0.226845;0.463822
28-11-2017;11:52:19;-44.439243;53.7538;-57.418;0.678468;12.818652;-12.6834;0.591631
28-11-2017;13:40:35;64.301308;90.2807;39.1516;0.716492;-17.814679;-11.6495;0.785715
28-11-2017;10:8:29;104.754585;91.6032;-47.5975;0.77456;12.064273;-15.6333;0.994387
28-11-2017;9:58:49;-116.013153;-53.6738;12.3966;0.799833;-6.420026;-14.1808;0.347068
28-11-2017;10:28:11;-50.384109;44.6807;14.4539;0.827058;-8.274769;-15.4947;0.644407
28-11-2017;10:29:51;73.453735;-79.995;-45.6081;0.924273;11.172847;-12.0694;0.755443
28-11-2017;11:54:25;101.127800;-38.6832;69.2892;0.850498;-19.888890;-3.65772;0.466014
28-11-2017;10:0:20;-44.357040;54.4473;-57.1876;0.702658;12.851220;-12.6564;0.632412
28-11-2017;10:57:3;-9.507542;106.297;-13.1287;0.701909;-1.242596;-19.8236;0.49952
28-11-2017;14:4:22;147.980042;93.558;27.3752;0.858134;-15.847411;-15.7094;0.187088
28-11-2017;13:28:12;-2.862975;55.1174;-63.4132;0.707101;14.621504;-11.4969;0.650969
28-11-2017;13:54:18;-92.755592;-80.651;62.5403;0.819335;-14.384108;-4.65759;0.824929
28-11-2017;13:39:53;30.340618;40.9591;-2.25831;0.668162;-3.320120;-18.4388;0.70356
28-11-2017;13:33:29;8.937119;-112.883;-66.476;0.906054;14.386156;-5.15971;0.812222
28-11-2017;10:30:9;87.720146;-58.5447;-27.7007;0.913656;6.255620;-15.7727;0.779232
28-11-2017;14:4:43;-166.996613;60.4739;48.4025;0.537912;-14.254068;-8.01773;0.312414
28-11-2017;9:42:59;-61.075268;-33.0358;22.3494;0.769942;-9.237512;-14.2111;0.0518476
28-11-2017;12:57:45;-119.419327;-118.716;29.9109;0.77848;-7.814517;-12.0556;0.271864
28-11-2017;13:48:19;-137.870758;38.7988;23.1744;0.623794;-9.442662;-13.4352;0.354234
28-11-2017;9:24:47;-164.088242;61.1849;49.4367;0.630809;-14.248851;-7.7337;0.359703
28-11-2017;12:54:58;33.354904;-16.4765;22.1311;0.801439;-10.218705;-15.281;0.220828
28-11-2017;10:20:23;147.788940;84.4113;26.0357;0.84346;-15.218181;-16.1465;0.136859
28-11-2017;12:48:16;-46.630447;51.468;-59.3691;0.707681;13.230604;-12.1266;0.600231
28-11-2017;9:56:34;61.359852;88.3135;36.7621;0.686299;-16.614105;-12.7673;0.298201
28-11-2017;13:11:36;16.057650;19.8795;59.943;0.722008;-19.260989;-5.89577;0.485861
28-11-2017;10:27:17;-94.108940;-20.0898;-39.7896;0.776555;7.973921;-13.2494;0.596056
28-11-2017;10:9:15;141.021835;145.217;-0.941993;0.726114;-8.150293;-21.9494;-0.0768433
28-11-2017;13:16:45;-22.967756;85.8655;49.4091;0.611127;-19.016629;-8.36435;0.549065
28-11-2017;12:37:15;-46.383877;113.145;79.5949;0.558536;-21.426697;1.66653;0.565893
28-11-2017;9:30:6;-156.714676;-103.119;50.0969;0.683979;-12.513293;-7.90498;-0.293747
28-11-2017;12:41:50;-68.039444;-106.07;33.9957;0.793907;-9.641228;-11.9598;0.289321
28-11-2017;10:26:50;-115.398483;-52.4168;-65.9059;0.792695;12.191021;-6.28665;0.418059
28-11-2017;10:24:26;55.500866;79.7646;-50.2489;0.798437;12.331847;-15.289;0.916641
28-11-2017;11:49:9;88.931671;131.247;73.7575;0.669104;-23.813090;-0.759395;-0.264825
28-11-2017;13:59:48;-114.701424;10.6132;73.4714;0.632403;-17.213900;-2.20777;-0.0515698
28-11-2017;9:29:39;158.596146;-76.645;22.496;0.927837;-10.455260;-16.0092;0.0834451
28-11-2017;9:59:34;-79.894127;0.89058;57.8094;0.705745;-15.880727;-5.70698;1.00192
28-11-2017;11:49:41;160.079834;-74.844;-55.4214;0.895802;14.429207;-10.6929;0.88614
28-11-2017;14:2:37;100.049545;-23.1172;-78.6578;0.865221;17.904367;-4.33499;0.886991
28-11-2017;10:39:29;-36.698647;2.10086;51.2526;0.80715;-16.732276;-8.09631;0.523198
28-11-2017;10:56:27;-38.380772;64.0359;-49.5734;0.76089;10.982600;-14.0709;0.757175
28-11-2017;10:39:56;-15.807746;35.4049;79.6584;0.769118;-20.235285;0.455687;0.289134
28-11-2017;13:27:30;-35.693401;4.38;54.0457;0.739483;-17.184765;-7.32106;0.622463
28-11-2017;13:25:34;-128.989563;-133.813;-61.9511;0.730732;10.891026;-5.14723;0.669927
28-11-2017;10:57:30;57.509151;-103.712;13.9416;0.911035;-6.582447;-15.6706;0.149678
28-11-2017;9:58:40;-123.767517;-64.8505;3.0364;0.796382;-3.365673;-14.2499;0.559766
28-11-2017;10:43:50;-114.734818;10.7633;-6.57639;0.748623;-1.606503;-16.2288;0.503035
28-11-2017;10:27:53;-64.704803;23.3472;-3.21618;0.804053;-2.336164;-16.6973;0.730528
28-11-2017;10:23:59;72.734062;53.4784;-77.6559;0.784606;18.229908;-6.15925;0.850466
28-11-2017;10:26:59;-107.725563;-42.0674;-57.6673;0.780488;11.379998;-9.38281;0.414559
28-11-2017;13:55:35;-30.979525;11.7894;-19.7653;0.799747;2.993042;-16.5753;0.834721
28-11-2017;11:53:1;-11.056090;103.689;-15.3624;0.57318;0.353528;-19.5968;0.856836
28-11-2017;12:40:46;-168.704865;56.6291;-28.2391;0.569818;2.007379;-16.5212;0.0127174
28-11-2017;12:54:26;8.194999;-54.1457;-9.30085;0.83338;0.425450;-16.6361;0.656929
28-11-2017;10:51:31;11.649127;13.926;-25.4426;0.847428;4.670326;-17.1226;0.764564
28-11-2017;10:23:50;27.015659;37.0582;73.7295;0.785158;-20.730716;-1.16798;0.51069
28-11-2017;10:8:38;111.908157;102.233;-38.5602;0.769561;9.025359;-17.6269;1.04994
28-11-2017;11:47:34;14.865682;18.3049;-21.4352;0.605813;3.335343;-17.7579;0.743018
28-11-2017;10:51:58;32.732056;46.2211;1.66589;0.805875;-4.967524;-18.1097;0.481237
28-11-2017;12:46:31;-129.770233;-74.677;-4.77847;0.747321;-1.140557;-14.9155;0.24993
28-11-2017;10:41:8;41.695492;120.825;-8.44057;0.722482;-2.645032;-20.2956;0.761269
28-11-2017;12:59:31;-34.869957;5.71646;-24.7072;0.742243;4.508736;-16.0728;0.855728
28-11-2017;11:54:15;93.128441;-51.4543;58.6455;0.843565;-18.257372;-6.95815;0.578162
28-11-2017;13:5:53;28.903183;-85.1955;37.2421;0.847021;-12.602787;-12.2709;0.282551
28-11-2017;13:44:37;-28.633455;77.3422;-38.0534;0.658885;7.885287;-17.0003;0.733243
28-11-2017;12:59:20;-43.319920;-6.60042;-35.3368;0.740407;7.629688;-14.4402;0.855139
28-11-2017;13:17:16;82.538361;-111.449;-79.8835;0.913847;16.615220;-2.06867;0.86083
28-11-2017;13:43:55;-27.189302;33.3875;-79.7852;0.720295;16.367856;-5.68062;0.439754
28-11-2017;12:58:59;-59.572643;-31.4976;-56.0654;0.735326;12.233150;-9.93153;0.745113
28-11-2017;13:33:8;-51.728722;104.892;72.609;0.587854;-21.237428;-0.698311;0.54781
28-11-2017;11:46:52;-19.660408;-31.8591;-64.1093;0.706836;14.225347;-8.39553;0.798245
28-11-2017;13:16:34;-31.108688;72.891;39.0326;0.647847;-16.695047;-11.2248;0.494491
28-11-2017;13:55:25;-39.168224;-0.784316;-30.2122;0.797728;6.068522;-15.4649;0.775767
28-11-2017;11:50:54;-111.049683;-46.4287;18.4504;0.756074;-8.182988;-13.7629;0.349842
28-11-2017;13:12:2;74.413139;59.2953;-74.7163;0.741454;18.034881;-7.08634;0.883002
28-11-2017;10:37:4;132.482086;133.045;67.5289;0.802044;-24.436099;-1.96377;0.332055
28-11-2017;11:52:29;-36.140778;66.1994;-46.885;0.647262;10.294949;-15.2722;0.633644
28-11-2017;10:41:35;108.497513;-89.8584;18.8715;0.913889;-8.743043;-15.536;0.100973
28-11-2017;10:25:30;150.707077;-87.9951;12.698;0.925773;-7.174763;-16.7823;0.109093
28-11-2017;10:5:20;-12.061504;-126.098;-77.2511;0.812209;14.637411;-2.01299;0.723824
28-11-2017;13:58:35;156.464447;-18.2364;-0.684058;0.909547;-3.783180;-18.9833;0.53566
28-11-2017;9:31:55;-63.783562;24.9273;-1.92139;0.76327;-2.752786;-16.9889;0.633322
28-11-2017;10:10:45;-41.097916;-43.4272;-71.9216;0.834163;14.845208;-5.86682;0.788383
28-11-2017;14:1:2;-56.347542;97.801;-13.1605;0.638425;-0.367861;-18.8162;0.761707
28-11-2017;10:34:55;29.958031;-20.6107;-61.6647;0.821616;14.355591;-8.7865;0.807323
28-11-2017;14:3:9;89.156303;5.43594;-46.5912;0.846691;11.757261;-13.6655;0.932836
28-11-2017;11:47:13;-1.782032;-6.72473;-42.4474;0.680679;9.612747;-14.3693;0.70589
28-11-2017;13:21:41;-27.616240;-108.115;25.4077;0.817513;-8.631333;-13.5385;0.20335
28-11-2017;13:22:55;30.364191;-21.3277;-60.8687;0.801492;14.205511;-10.1334;0.728131
28-11-2017;9:28:45;68.620003;102.471;-32.2152;0.722989;6.611585;-17.6443;1.01846
28-11-2017;13:20:6;-118.325089;27.1328;-70.1075;0.63772;12.883941;-8.53536;0.276908
28-11-2017;10:37:31;-131.733963;-137.782;-65.5029;0.804103;11.135210;-4.55845;0.583606
28-11-2017;13:47:26;150.127136;34.522;-29.2464;0.85563;6.424663;-18.2255;1.06792
28-11-2017;13:29:1;34.069435;108.659;-17.5371;0.661926;1.311140;-19.3897;1.03458
28-11-2017;13:57:42;114.757652;-80.8141;-53.1047;0.939772;13.406687;-10.8473;0.769363
28-11-2017;9:29:48;165.748047;-65.9852;31.4492;0.906291;-13.255517;-14.5459;0.132874
28-11-2017;10:38:52;-65.875381;-40.7076;15.7859;0.830623;-7.617480;-14.3606;0.476169
28-11-2017;10:5:2;-105.008705;87.5342;64.8499;0.606639;-19.693011;-3.36075;0.514603
28-11-2017;10:43:23;-159.673309;-49.0129;-55.0607;0.756531;9.444360;-9.53965;0.120292
28-11-2017;10:32:49;-115.521614;71.8978;-28.1268;0.723617;4.448594;-16.7002;0.744468
28-11-2017;10:48:48;-162.857437;63.4563;-28.8196;0.70092;4.554503;-15.6258;0.767324
28-11-2017;13:7:17;95.896530;15.3194;-38.201;0.823574;9.323208;-15.584;0.977251
28-11-2017;13:48:29;-129.356552;50.5115;34.2164;0.610077;-12.294050;-11.545;0.313389
28-11-2017;13:39:11;-3.726822;-9.68303;-44.8458;0.77757;10.327161;-13.4318;0.768362
28-11-2017;12:39:43;116.015511;45.6451;67.0284;0.808341;-22.036904;-3.42145;0.473802
28-11-2017;14:8:44;71.162987;102.656;-30.6807;0.688739;5.888031;-19.7899;0.881475
28-11-2017;9:56:25;54.029228;77.4797;27.8154;0.690087;-14.001575;-14.8832;0.258604
28-11-2017;9:32:49;-20.835375;90.0078;51.5667;0.699078;-17.876703;-7.84077;0.365481
28-11-2017;9:57:55;171.001251;-58.1132;-41.6394;0.924055;10.913445;-14.6657;0.778155
28-11-2017;13:59:27;-131.935745;-14.9955;51.7508;0.66258;-14.330954;-7.72043;0.297375
28-11-2017;12:38:50;74.489128;-17.0442;14.3997;0.817859;-8.236146;-16.8071;0.28123
28-11-2017;14:11:44;-71.462448;12.965;-11.5787;0.672586;0.135380;-16.8759;0.590534
28-11-2017;10:14:58;-161.558182;-48.9677;21.1793;0.749688;-7.384368;-12.8533;0.245629
28-11-2017;10:39:47;-22.835810;24.9008;70.4791;0.770243;-19.598864;-2.37722;0.516513
28-11-2017;13:32:26;-84.702370;53.8752;29.8326;0.694267;-12.064339;-12.1475;1.06056
28-11-2017;14:8:55;79.418045;115.25;-20.0596;0.670736;1.812133;-20.915;0.842286
28-11-2017;11:54:4;84.626198;-63.8944;47.9953;0.854275;-15.899678;-10.0265;0.515965
28-11-2017;10:49:51;-67.122467;-104.389;34.8966;0.852971;-10.332220;-11.5144;0.348246
28-11-2017;10:44:8;-100.373306;32.4878;11.4263;0.783023;-6.680024;-15.2705;0.421241
28-11-2017;9:43:26;-38.729424;-1.55556;48.7443;0.731818;-16.196292;-8.86434;0.529142
28-11-2017;10:2:19;95.600945;-47.0383;61.9381;0.873496;-18.857946;-6.00261;0.500512
28-11-2017;10:26:18;162.315506;-73.4119;26.6696;0.92914;-11.775858;-15.2362;0.163292
28-11-2017;12:43:14;-1.468076;-6.04248;-41.954;0.75686;9.718875;-13.941;0.875818
28-11-2017;9:30:43;-93.597458;-55.7706;-75.86;0.803665;13.835739;-3.97565;0.980042
28-11-2017;10:5:38;-31.642076;-112.722;-59.238;0.793312;12.686011;-6.67567;0.65638
28-11-2017;9:46:54;-166.808014;-56.004;-62.2382;0.632489;10.361287;-7.64968;0.441524
28-11-2017;10:31:45;-171.284164;-0.94529;68.8393;0.642026;-16.530208;-2.93293;0.507839
28-11-2017;10:42:47;164.768112;-3.4798;-69.0251;0.895345;16.974408;-8.78766;0.751398
28-11-2017;10:7:36;51.504700;9.18907;44.1258;0.786915;-15.786910;-10.2632;0.81474
28-11-2017;11:50:33;-127.832619;-72.1486;-2.34662;0.720914;-2.579711;-15.0259;0.208818
28-11-2017;13:37:57;-62.000107;-97.0929;41.5863;0.797554;-11.583511;-10.6582;0.260812
28-11-2017;9:24:14;139.783493;80.7438;16.8516;0.847373;-11.797137;-17.8609;0.310567
28-11-2017;13:39:0;-12.156955;-22.1956;-55.3542;0.806051;12.709052;-10.7521;0.768427
28-11-2017;12:45:7;93.269241;116.825;70.8401;0.718064;-23.595612;-1.11919;0.448008
28-11-2017;12:55:30;59.572369;20.9992;53.9473;0.743615;-18.979363;-7.75437;0.574536
28-11-2017;10:20:32;-181.308655;46.2429;35.6996;0.586693;-12.649743;-11.1737;-0.0286259
28-11-2017;13:0:23;7.673352;67.1649;27.6442;0.64284;-14.426594;-14.346;0.394063
28-11-2017;14:0:20;-89.740929;47.7689;-55.2184;0.690013;11.798711;-12.4558;0.60043
28-11-2017;10:27:35;-79.214828;1.71892;-21.2151;0.79225;3.276035;-15.5797;0.785331
28-11-2017;9:31:19;-92.546677;-18.9679;-38.5073;0.742219;7.806647;-13.2485;0.643373
28-11-2017;9:25:42;-74.649139;-116.565;-54.3699;0.787556;10.838064;-7.94174;0.52929
28-11-2017;9:43:35;-33.275341;10.1077;58.9742;0.725949;-17.903984;-6.60996;-0.174954
28-11-2017;10:22:47;-23.388542;-38.5801;10.5633;0.861568;-6.752878;-15.8768;0.0330642
28-11-2017;13:53:57;-109.437347;-106.161;41.3912;0.777931;-11.400526;-10.2376;0.336881
28-11-2017;13:34:47;72.404343;-20.0348;12.0348;0.851828;-7.580210;-16.9875;0.206043
28-11-2017;9:58:4;178.011551;-47.1763;-32.7187;0.928394;8.238768;-16.4691;0.846369
28-11-2017;9:58:31;-130.437363;-74.8585;-5.68955;0.760368;-0.788242;-14.8084;0.325458
28-11-2017;9:44:56;32.152336;106.889;-20.3123;0.635475;2.084773;-20.2132;0.869301
28-11-2017;13:47:37;158.422531;46.9738;-18.7736;0.871916;2.406488;-19.4898;1.03291
28-11-2017;12:40:57;-154.740479;75.7113;-19.7882;0.576473;2.190272;-16.6009;0.887055
28-11-2017;10:18:8;39.794323;-68.5302;50.9761;0.847235;-15.901007;-9.09846;0.425162
28-11-2017;9:43:8;-53.887058;-22.2747;31.2338;0.764237;-11.796017;-13.0098;-0.0348776
28-11-2017;12:47:13;-95.921631;-23.6483;37.5555;0.74326;-13.091869;-10.9345;0.413213
28-11-2017;13:34:37;63.565670;-32.7177;1.8793;0.843315;-3.943652;-17.4786;0.281945
28-11-2017;10:57:48;71.834694;-82.402;31.9766;0.910681;-11.974113;-13.6403;0.229136
28-11-2017;13:43:34;-79.403099;2.34287;59.1297;0.694198;-15.994187;-5.56107;0.781979
28-11-2017;13:7:49;121.230476;52.8323;-6.59018;0.797257;-2.345318;-19.5086;0.868373
28-11-2017;14:8:13;45.421852;64.6836;-62.04;0.723715;14.939938;-12.6084;0.650256
28-11-2017;12:46:10;-151.762878;-98.4996;-25.5306;0.698543;4.508910;-12.9036;0.360159
28-11-2017;10:12:6;-7.632573;47.1023;9.38645;0.736131;-7.150257;-17.026;0.40404
28-11-2017;12:39:11;91.074036;8.0719;35.5065;0.81845;-14.895292;-13.2772;0.303579
28-11-2017;13:56:28;10.665991;74.8819;32.7679;0.800641;-14.524932;-12.9352;0.706239
28-11-2017;12:36:23;153.532547;58.4028;-14.9745;0.821494;0.812394;-19.7666;1.04504
28-11-2017;9:33:43;67.303955;-89.2059;-53.4758;0.886479;13.141600;-9.67737;0.859228
28-11-2017;12:53:13;-92.912300;101.002;76.9764;0.558815;-20.544981;0.657565;0.630015
28-11-2017;10:42:20;144.231018;-35.8816;63.9663;0.921134;-19.810997;-5.34686;0.489771
28-11-2017;12:41:18;-98.200699;-140.564;2.70986;0.785279;-1.380664;-13.9342;0.219528
28-11-2017;13:46:54;124.340179;-2.82775;-60.8054;0.870506;15.579655;-10.4563;0.996576
28-11-2017;10:29:15;0.872959;120.355;77.0542;0.693204;-22.039875;1.19705;0.655202
28-11-2017;13:36:33;-180.355087;44.6345;-41.6924;0.581829;5.257401;-14.4978;-0.0620809
28-11-2017;10:6:41;18.588234;-37.2409;4.61741;0.811375;-4.448852;-16.658;0.339727
28-11-2017;13:11:25;8.525200;6.81146;48.9831;0.750849;-17.094285;-8.96891;0.546956
28-11-2017;14:1:23;0.660781;-117.074;8.28833;0.882552;-4.267685;-15.0187;0.239867
28-11-2017;13:8:52;-160.536880;69.8317;57.0582;0.546279;-16.811567;-6.62672;-0.257952
28-11-2017;12:48:48;-20.913380;88.8715;-27.8903;0.629422;4.772184;-18.5322;0.847345
28-11-2017;11:48:48;73.360970;106.388;52.2097;0.642157;-21.669247;-9.36187;-0.450399
28-11-2017;13:11:14;-0.868146;-4.69675;38.7165;0.749189;-14.306490;-11.8194;0.117724
28-11-2017;11:49:20;182.956604;-91.8464;-77.5967;0.892123;17.805958;-3.99481;0.87234
28-11-2017;13:28:1;26.888144;48.4356;-74.051;0.723879;16.862247;-8.59796;0.656056
28-11-2017;13:15:52;-65.182846;22.4638;-3.65231;0.686581;-2.169603;-16.9729;0.674948
28-11-2017;10:43:41;-121.869057;0.0560407;-15.622;0.775128;1.193480;-15.7801;0.530722
28-11-2017;9:22:19;47.579479;-59.3817;60.0658;0.866021;-17.420900;-6.58185;0.550555
28-11-2017;13:54:7;-101.906357;-94.149;50.9908;0.756681;-12.336262;-6.6194;1.09648
28-11-2017;13:9:40;-141.958878;93.7541;77.8357;0.551836;-19.714299;0.677751;0.551384
28-11-2017;13:40:14;46.824589;66.2204;18.6208;0.726976;-11.086922;-16.5744;0.298401
28-11-2017;13:54:39;-45.611103;-48.894;-77.4601;0.851269;15.218176;-4.14922;0.769379
28-11-2017;13:40:3;38.128334;53.5451;8.30718;0.691748;-7.491415;-17.8093;0.351518
28-11-2017;12:49:30;58.093109;-103.782;14.7341;0.872071;-6.802779;-15.7761;0.184173
28-11-2017;13:14:38;-97.246811;-56.7645;-78.2634;0.754421;13.484739;-3.34628;0.738055
28-11-2017;13:53:4;14.954773;-56.8906;-28.596;0.834694;6.162707;-15.1782;0.705874
28-11-2017;13:38:39;3.920979;-38.9232;-76.5513;0.776625;15.820070;-5.17702;0.759415
28-11-2017;10:31:12;138.234390;17.0738;35.0239;0.892763;-15.986708;-13.5514;0.36561
28-11-2017;10:34:1;-12.745493;-84.8153;44.2834;0.856817;-13.491470;-10.3535;0.304517
28-11-2017;10:56:45;-23.875130;85.2121;-31.3978;0.750483;5.718085;-18.0147;0.726328
28-11-2017;13:29:20;92.300224;-103.583;5.0563;0.948407;-4.133200;-16.6675;0.204352
28-11-2017;11:47:24;6.577257;5.74141;-31.9164;0.633857;6.671748;-16.3887;0.731095
28-11-2017;9:34:47;117.605621;-13.9356;9.56043;0.863392;-7.327672;-17.8804;0.144651
28-11-2017;10:27:44;-72.058159;12.6721;-12.2756;0.789543;0.572363;-16.2789;0.787862
28-11-2017;9:29:30;151.430374;-87.3083;13.5068;0.929659;-7.476045;-16.8814;0.0999759
28-11-2017;12:43:25;7.202596;6.24751;-31.2626;0.751983;6.587903;-16.2929;0.766629
28-11-2017;10:37:49;-115.572563;-116.185;-47.2186;0.796199;9.470990;-9.17499;0.429987
28-11-2017;9:46:45;203.233429;-0.231385;-72.2352;0.876205;18.362683;-8.1567;0.95031
28-11-2017;10:17:41;18.287592;-100.596;23.8576;0.866354;-8.892826;-14.2543;0.248304
28-11-2017;10:45:47;23.522259;-92.4634;-49.0543;0.911926;11.637070;-10.2085;0.794077
28-11-2017;12:49:41;66.396843;-91.1206;25.0593;0.873321;-9.944501;-14.6871;0.21986
28-11-2017;13:20:38;-123.315895;59.5704;-38.044;0.637004;7.354209;-15.3085;0.715927
28-11-2017;10:24:44;69.771912;101.286;-32.2899;0.779628;6.624116;-18.942;1.0635
28-11-2017;14:8:23;54.445862;77.694;-51.6016;0.718587;12.531690;-15.5284;0.706471
28-11-2017;10:19:55;127.829231;49.3351;-1.84644;0.801231;-4.125191;-19.4148;0.75632
28-11-2017;10:36:19;70.541306;36.2449;-12.1483;0.780297;-0.133374;-19.2005;0.685428
28-11-2017;10:3:49;-167.885895;2.19954;-6.96809;0.646276;-1.697316;-15.5552;0.334662
28-11-2017;14:4:33;-178.429749;47.5989;37.5984;0.528123;-14.298540;-10.4811;0.370041
28-11-2017;13:0:34;15.393602;80.9113;38.1766;0.630895;-17.327981;-11.8547;0.498964
28-11-2017;12:44:25;56.382877;72.3474;29.2669;0.702327;-14.453740;-14.5698;0.208677
28-11-2017;11:55:28;151.224731;36.2389;-27.827;0.85433;5.908310;-18.4216;1.06894
28-11-2017;10:0:47;-22.795156;86.615;-30.2694;0.642707;5.186878;-18.4316;0.695034
28-11-2017;12:37:26;42.884537;-108.707;-70.2277;0.831472;15.203205;-4.62741;0.811638
28-11-2017;9:42:31;117.688126;106.882;46.9983;0.712652;-21.157032;-9.82007;0.379047
28-11-2017;9:56:16;49.754539;68.5146;18.764;0.704299;-11.141477;-16.6771;0.300772
28-11-2017;10:25:2;82.981964;123.168;-14.5363;0.760713;-0.075621;-19.6324;1.1361
28-11-2017;10:22:29;-37.834576;-60.3157;-7.7919;0.857687;-0.086103;-15.8431;0.564038
28-11-2017;14:2:58;80.847816;-7.29413;-57.187;0.862208;14.277869;-10.8251;0.950421
28-11-2017;10:49:33;-82.036171;-126.09;16.8727;0.857354;-5.699089;-12.8235;0.264229
28-11-2017;10:4:43;-119.305351;66.0704;46.8948;0.620813;-15.018040;-8.68185;0.309846
28-11-2017;13:59:6;-148.433441;-40.2392;30.802;0.760173;-9.429383;-11.5612;0.346826
28-11-2017;13:21:9;-97.774452;97.8281;-6.0645;0.596402;-2.307290;-17.7074;0.898951
28-11-2017;9:21:23;-49.513462;78.765;-28.0123;0.715684;4.636020;-17.8819;0.614641
28-11-2017;10:47:36;109.905304;37.113;59.6225;0.884872;-20.876386;-5.94315;0.497497
28-11-2017;10:15:43;-120.082397;2.82302;66.6447;0.625715;-17.312568;-4.56157;-0.388544
28-11-2017;11:51:26;-85.752899;-8.99077;50.1646;0.654011;-15.107881;-7.87114;0.811792
28-11-2017;13:2:43;162.789719;-8.05632;8.24719;0.917701;-7.624315;-18.5801;0.00709029
28-11-2017;13:3:4;-149.858734;-42.7996;29.5475;0.699383;-10.110642;-12.2033;-0.0427158
28-11-2017;13:46:23;100.199768;-40.455;67.7022;0.882023;-19.784783;-4.25052;0.400888
28-11-2017;13:53:46;-117.357430;-119.452;30.4224;0.781866;-8.594281;-11.7402;0.493691
28-11-2017;14:11:23;-88.028236;-11.8952;-32.7564;0.656788;6.398446;-14.5693;0.633764
28-11-2017;12:50:12;91.419266;-53.6508;56.6541;0.87695;-17.967609;-7.85114;0.333841
28-11-2017;10:13:0;34.738228;112.784;64.7071;0.661934;-22.038301;-4.38781;-0.216049
28-11-2017;9:32:40;-27.876511;78.3614;43.486;0.713363;-17.170528;-10.4366;-0.186629
28-11-2017;12:49:20;44.799534;-112.899;4.59701;0.880501;-3.133529;-15.8569;0.417989
28-11-2017;10:31:54;-159.882690;8.34231;77.7187;0.636261;-15.527853;-0.497237;0.49352
28-11-2017;13:5:32;12.364500;-110.279;16.3054;0.855654;-6.691051;-14.9598;0.204341
28-11-2017;10:58:16;93.174667;-50.2606;58.9937;0.922837;-18.255012;-6.98905;0.350318
28-11-2017;10:38:16;-94.954880;-83.8633;-20.0298;0.824497;3.047393;-14.0891;0.388813
28-11-2017;12:50:33;108.036324;-28.6022;77.5738;0.859649;-20.640357;-0.755685;0.476196
28-11-2017;13:43:3;-104.142921;-36.0538;27.1673;0.776491;-10.485066;-12.6613;0.387155
28-11-2017;14:7:21;-156.817368;71.5428;59.0924;0.55421;-16.337549;-5.43234;0.12722
28-11-2017;12:39:1;82.721313;-4.70288;25.0288;0.8258;-11.788330;-15.3169;0.287218
28-11-2017;13:24:41;115.492958;106.794;45.4941;0.754198;-19.945532;-10.3374;0.300531
28-11-2017;13:33:19;37.233055;-117.547;-77.1261;0.915913;15.582740;-3.08187;0.736335
28-11-2017;12:46:20;-138.101181;-86.8434;-15.4072;0.735211;2.093877;-14.1197;0.353944
28-11-2017;12:54:16;-0.205227;-66.7037;-19.79;0.849985;3.711515;-15.7115;0.663123
28-11-2017;9:34:11;88.790390;-57.095;-26.4017;0.881619;6.079917;-15.6828;0.845943
28-11-2017;14:0:30;-81.445969;60.3015;-44.617;0.699255;9.258843;-14.9351;0.605996
28-11-2017;13:16:24;-39.618404;59.2728;27.9629;0.670219;-13.367008;-13.5227;0.608179
28-11-2017;12:54:37;16.079367;-41.5555;1.49337;0.836123;-3.444063;-16.7452;0.29838
28-11-2017;10:53:1;83.662239;122.218;65.0076;0.775933;-23.254450;-3.17924;0.4724
28-11-2017;13:14:49;-116.308403;-52.6004;-66.1708;0.728071;11.295772;-6.36673;0.370146
28-11-2017;10:48:21;145.569351;90.4638;-55.5129;0.855369;14.445972;-14.5814;0.996969
28-11-2017;10:48:12;137.909378;80.1602;-64.8001;0.853841;16.870013;-11.5141;1.07004
28-11-2017;9:22:33;58.391251;-42.73;73.9645;0.860925;-19.314405;-2.23435;0.458177
28-11-2017;10:17:22;-0.723314;-118.55;6.57373;0.852794;-3.442772;-15.2904;0.246132
28-11-2017;14:10:40;-93.789978;-55.0841;-74.9835;0.715663;13.001643;-4.49694;0.749067
28-11-2017;10:41:26;100.703766;-100.802;9.41093;0.925057;-5.599444;-16.2847;0.0996373
28-11-2017;13:54:28;-84.271095;-68.5466;73.6293;0.810149;-16.925112;-2.3097;-0.0060921
28-11-2017;10:43:32;-126.734589;-16.2497;-24.9056;0.773608;3.724007;-14.8518;0.516714
28-11-2017;13:47:5;133.440201;9.43644;-50.2705;0.885527;13.084116;-13.6254;1.0017
28-11-2017;9:28:18;61.479664;84.206;-59.7175;0.760061;15.012218;-11.8374;0.938666
28-11-2017;13:55:14;-45.581902;-17.9536;-40.7795;0.835496;8.965975;-13.5337;0.746389
28-11-2017;13:44:27;-37.505951;64.3295;-48.08;0.691502;10.028129;-15.1281;0.421092
28-11-2017;13:20:48;-115.027596;72.1872;-27.5226;0.662733;4.385757;-16.7824;0.761154
28-11-2017;12:39:32;107.832314;32.8832;56.6509;0.801142;-20.555627;-7.0978;0.442802
28-11-2017;10:32:21;-136.895050;39.7941;-55.2284;0.66915;10.508668;-11.8837;0.354499
28-11-2017;9:30:34;-128.661224;-71.9741;76.5239;0.709405;-16.433831;-1.59466;-0.471619
28-11-2017;11:44:51;148.639862;65.5366;-77.543;0.730161;19.576549;-7.04685;1.0048
28-11-2017;9:33:25;89.108864;-103.196;-72.1169;0.88851;16.038555;-4.6233;0.837032
28-11-2017;13:58:3;131.369965;-55.6799;-32.1762;0.931537;7.922869;-15.7852;0.821319
28-11-2017;12:40:4;175.033279;77.0895;-71.8414;0.8179;18.369013;-9.82373;0.820288
28-11-2017;11:49:51;168.452194;-62.5286;-44.8616;0.902142;11.651489;-13.8955;0.822239
28-11-2017;14:11:12;-95.347481;-27.1326;-42.977;0.66016;8.233575;-12.8763;0.382967
28-11-2017;13:31:33;-126.860977;-7.88097;-22.1137;0.690397;3.293391;-15.2259;0.617703
28-11-2017;9:47:21;-138.066849;-24.0967;-35.6716;0.723164;5.242146;-13.6143;0.494329
28-11-2017;13:48:8;-146.169846;25.2127;13.7537;0.602374;-7.865452;-14.9016;-0.100149
28-11-2017;13:37:46;-70.364037;-109.709;31.1529;0.791627;-9.003659;-12.3417;0.241621
28-11-2017;10:22:20;-44.960728;-71.1508;-16.7705;0.862374;2.587816;-15.1963;0.557633
28-11-2017;10:28:47;-21.888683;87.6974;51.0373;0.725981;-18.882228;-8.29845;-0.184841
28-11-2017;10:45:38;16.289915;-102.974;-58.131;0.905685;13.176332;-7.87194;0.756208
28-11-2017;11:51:47;-69.101936;16.9116;71.1743;0.655694;-19.214008;-3.86248;-0.5306
28-11-2017;10:31:36;157.306351;45.1565;59.8659;0.897477;-21.489246;-5.58182;0.562903
28-11-2017;9:42:41;-71.129814;-33.6541;4.2815;0.757598;-4.035754;-15.5788;0.31243
28-11-2017;12:59:52;-18.028790;30.787;-3.59566;0.681049;-2.659635;-17.6676;0.624795
28-11-2017;12:48:37;-29.258970;76.2697;-38.3559;0.664016;7.993906;-16.9569;0.740444
28-11-2017;12:53:44;-24.619110;-104.938;-51.1464;0.820671;11.371414;-9.77843;0.543387
28-11-2017;10:15:34;-127.387253;-7.69103;57.3534;0.639631;-15.939823;-6.87573;-0.281217
28-11-2017;9:21:37;13.016266;-116.947;18.2779;0.869291;-6.708044;-14.6227;0.298875
28-11-2017;11:51:5;-102.663788;-33.943;29.0128;0.722022;-11.041851;-12.4267;0.399014
28-11-2017;11:54:46;156.198029;-5.41684;-70.3594;0.846989;17.681883;-8.06027;0.988459
28-11-2017;13:58:24;148.207047;-30.7371;-11.1057;0.903666;0.315397;-18.7884;0.614776
28-11-2017;13:20:59;-106.388939;85.1856;-16.6968;0.648304;1.165272;-17.3848;0.917092
28-11-2017;12:40:15;140.733887;83.898;-61.0786;0.795767;16.094265;-12.6098;1.03146
28-11-2017;10:1:34;-1.223141;118.853;-3.18489;0.599282;-4.119162;-19.6621;0.788539
28-11-2017;10:47:54;124.195992;58.6903;77.4316;0.87259;-22.600732;0.768859;0.493333
28-11-2017;13:31:54;-110.151802;17.4483;-1.13313;0.702224;-3.145218;-16.3707;0.491812
28-11-2017;9:31:1;-106.746819;-39.4287;-56.331;0.72902;11.074183;-9.5833;0.432962
28-11-2017;13:47:58;-154.133972;14.0008;2.34765;0.603908;-3.601848;-15.0688;0.587771
28-11-2017;12:51:5;132.997559;8.74714;-50.826;0.883457;13.262892;-13.4339;1.00724
28-11-2017;9:28:54;77.309563;112.113;-23.0515;0.716981;3.284064;-18.7747;1.11917
28-11-2017;10:37:40;-124.145744;-126.325;-56.2995;0.787475;10.156763;-6.41331;0.295089
28-11-2017;10:10:36;-79.182167;-60.5435;78.6846;0.742727;-16.493191;-0.0316014;0.911698
28-11-2017;10:39:11;-51.684177;-18.8272;33.811;0.825216;-12.661050;-12.4805;-0.0628194
28-11-2017;9:32:13;-49.393520;46.4378;16.0274;0.802351;-8.696796;-15.5427;0.386204
28-11-2017;10:11:3;-57.816227;-28.1508;-53.6252;0.793224;11.777322;-10.7894;0.689886
28-11-2017;10:18:26;54.030392;-46.9503;68.9869;0.853546;-19.001610;-3.87959;0.472156
28-11-2017;11:46:10;-51.978039;-82.4854;54.1478;0.752735;-14.991106;-7.89387;0.450166
28-11-2017;9:40:31;106.337288;93.7032;34.1374;0.701761;-16.831908;-13.725;0.271418
28-11-2017;12:48:58;-12.600397;101.335;-17.3418;0.622259;0.998729;-19.5135;0.817522
28-11-2017;14:4:1;131.312714;68.4878;6.81299;0.857671;-8.132926;-19.1389;0.273716
28-11-2017;10:47:18;95.870789;15.4087;41.2497;0.885126;-16.813011;-11.5322;0.545361
28-11-2017;10:24:53;77.218613;111.88;-23.0631;0.768544;2.892864;-20.5706;0.860778
28-11-2017;13:8:20;145.122757;90.0426;24.7708;0.82543;-14.932986;-15.4255;0.241394
28-11-2017;11:53:11;-2.123127;116.722;-4.5565;0.58222;-3.421149;-19.6982;0.929304
28-11-2017;10:21:26;-88.852196;-135.49;-70.591;0.849257;12.398138;-3.73856;0.420468
28-11-2017;10:36:46;118.191780;111.622;49.8167;0.803001;-22.105755;-8.76379;-0.380603
28-11-2017;13:23:59;82.672676;55.1171;3.71365;0.735292;-6.096371;-18.8302;0.446587
28-11-2017;13:2:22;145.828613;-32.9665;-13.1062;0.893638;1.137154;-18.5097;0.679721
28-11-2017;13:41:28;149.979279;-89.2164;-67.3012;0.931137;16.278988;-6.91268;0.847453
28-11-2017;14:12:36;-29.222410;75.9918;41.5795;0.592424;-17.376359;-10.6075;0.467767
28-11-2017;13:7:38;112.520782;40.2579;-17.1444;0.835224;1.908192;-18.7532;0.963355
28-11-2017;9:30:52;-115.236710;-51.4972;-64.9368;0.745149;11.495996;-7.37868;0.50082
28-11-2017;13:31:23;-135.099640;-20.2128;-33.0625;0.717543;5.703731;-13.9807;0.429065
28-11-2017;13:12:44;70.635605;102.225;-31.1966;0.709455;5.953365;-19.7364;0.794014
28-11-2017;13:29:10;44.283432;122.882;-5.77646;0.66071;-3.561654;-20.4451;0.793742
28-11-2017;13:41:38;159.045578;-76.4786;-56.8603;0.938967;14.748070;-10.1642;0.870376
28-11-2017;10:40:41;19.828850;89.1193;-35.8796;0.755712;7.745901;-17.5291;1.02002
28-11-2017;13:21:51;-19.301950;-95.2312;35.9004;0.820605;-11.405082;-12.0701;0.234697
28-11-2017;10:19:35;98.304047;11.0398;-37.0285;0.849093;8.986762;-15.7022;0.952128
28-11-2017;13:17:37;63.718113;-95.0951;-58.038;0.923699;13.929085;-8.50301;0.827951
28-11-2017;9:21:51;25.252790;-92.7833;31.9414;0.865929;-10.798522;-13.0408;0.412524
28-11-2017;11:45:18;-97.941429;-141.392;2.15875;0.774292;-1.256327;-13.9582;0.23509
28-11-2017;10:23:5;-9.208147;-17.2232;28.2255;0.846862;-12.012611;-13.9398;-0.123805
28-11-2017;12:54:47;24.984451;-28.9156;11.6583;0.815998;-6.837438;-16.4051;0.220612
28-11-2017;10:40:23;5.525479;67.6072;-53.765;0.761239;12.797333;-13.6208;0.88483
28-11-2017;13:13:37;157.780701;-78.5505;21.3633;0.940254;-10.106216;-16.2398;0.12014
28-11-2017;9:59:43;-73.073715;12.1228;68.2741;0.692463;-18.678479;-4.40963;-0.50699
28-11-2017;13:6:24;53.805885;-47.5816;69.0133;0.864161;-19.039344;-4.14284;0.187845
28-11-2017;10:30:18;94.848373;-47.7139;-18.6977;0.899859;3.295056;-16.9784;0.74149
28-11-2017;12:40:25;149.679459;96.0222;-50.4578;0.827797;13.258847;-15.7613;1.08815
28-11-2017;13:39:42;21.596550;28.4564;-12.9492;0.679565;0.655837;-17.8793;0.889112
28-11-2017;10:58:43;152.541306;-10.887;-74.2863;0.891033;17.828175;-6.77211;0.837996
28-11-2017;9:25:53;-65.877487;-103.562;-43.4717;0.79733;9.322745;-10.7313;0.529162
28-11-2017;9:47:30;-130.838760;-12.8286;-26.9548;0.699214;3.387958;-14.7806;0.551636
28-11-2017;13:4:18;-91.743507;44.7493;-57.7864;0.667442;12.341116;-11.8089;0.590126
28-11-2017;13:30:2;130.900009;-56.4534;46.944;0.913303;-16.615690;-10.7109;0.367457
28-11-2017;13:34:26;55.240513;-45.7838;-9.42106;0.858606;0.241468;-17.4491;0.617942
28-11-2017;9:56:43;69.482079;98.0381;45.5289;0.691816;-19.910449;-10.0167;0.531306
28-11-2017;10:8:47;119.137581;112.921;-29.6304;0.750005;5.788956;-19.1332;1.12279
28-11-2017;12:58:38;-46.348324;-48.6147;-77.5363;0.784707;15.236955;-4.1216;0.857687
28-11-2017;10:12:33;14.820067;78.2611;36.1939;0.66144;-16.826875;-12.3612;0.487485
28-11-2017;10:11:30;-36.383831;4.06651;-26.5401;0.785906;5.069714;-15.9118;0.846657
28-11-2017;13:23:33;42.661037;-4.20711;-46.1493;0.754454;10.964598;-14.213;0.685856
28-11-2017;9:44:29;10.274624;74.0719;-47.8118;0.676396;11.026657;-15.8445;0.651265
28-11-2017;13:6:35;62.314751;-35.0938;79.2996;0.855172;-20.052364;-0.683227;0.230586
28-11-2017;10:8:2;124.065872;64.894;-75.1075;0.773305;18.847201;-7.67615;0.968739
28-11-2017;13:3:36;-126.257767;-7.06909;60.5193;0.580502;-16.620266;-3.89555;-0.399574
28-11-2017;10:50:9;-52.984249;-83.0805;52.9621;0.865743;-14.510362;-7.99957;0.349097
28-11-2017;10:6:32;11.938683;-48.2458;-4.61294;0.784968;-1.180419;-16.8929;0.613458
28-11-2017;10:6:50;26.205122;-26.402;13.4283;0.816841;-7.445943;-16.2612;0.175224
28-11-2017;13:40:46;71.096878;104.122;50.9764;0.699265;-20.665784;-8.68624;-0.00155317
28-11-2017;10:32:39;-122.650635;61.1556;-37.2251;0.72681;7.051877;-15.3531;0.74044
28-11-2017;12:37:5;-52.479923;99.8519;68.6563;0.560255;-21.026542;-2.03809;0.599316
28-11-2017;13:7:59;128.379364;65.5974;4.22396;0.842427;-7.092626;-18.6063;0.314489
28-11-2017;13:2:54;-164.023849;-53.4775;17.4518;0.737698;-6.007384;-12.4639;0.816502
28-11-2017;13:25:2;132.375061;131.705;66.6308;0.79082;-24.347057;-2.76507;0.0565003
28-11-2017;13:43:24;-87.604378;-10.9241;47.9289;0.719245;-14.815108;-8.48468;0.71037
28-11-2017;10:37:22;-102.324905;-141.19;-74.8543;0.814693;12.250745;-2.36159;0.673435
28-11-2017;10:35:31;57.560894;22.8225;-25.7436;0.783287;4.944732;-16.7235;0.870661
28-11-2017;13:27:19;-43.765068;-8.33686;43.3059;0.747679;-14.951501;-10.0893;0.533312
28-11-2017;10:13:18;133.909775;-102.133;-78.4981;0.904489;17.296814;-3.05185;0.918103
28-11-2017;10:42:29;151.395157;-25.1395;72.8864;0.925938;-20.939987;-2.17399;0.487274
28-11-2017;9:40:22;99.327797;82.9351;25.1879;0.704676;-14.077402;-15.9081;0.248504
28-11-2017;12:41:7;-146.586349;86.1179;-8.42226;0.585919;-1.259803;-17.3481;0.896275
28-11-2017;10:58:25;100.449440;-39.5193;67.9868;0.922321;-19.614471;-4.02624;0.469479
28-11-2017;13:42:31;-129.357117;-73.8039;-4.32315;0.754336;-1.329680;-14.8915;0.245897
28-11-2017;9:46:27;149.382828;-28.6286;70.2776;0.894068;-20.801514;-3.26858;0.428406
28-11-2017;13:58:56;-162.756104;-50.4084;20.19;0.765959;-6.729971;-12.8219;0.357323
28-11-2017;10:44:44;-70.368507;74.2156;47.2278;0.741194;-17.649705;-8.6392;0.549639
28-11-2017;10:33:25;-97.882759;97.2691;-5.90387;0.68176;-2.679879;-17.6884;0.748664
28-11-2017;13:8:10;138.559952;78.3109;14.3624;0.818198;-11.165103;-18.4444;0.185581
28-11-2017;13:22:23;5.673022;-57.7201;67.493;0.801056;-17.814048;-4.75028;0.105129
28-11-2017;9:46:18;141.728165;-39.8175;60.6367;0.894863;-19.195551;-6.47417;0.521889
28-11-2017;10:56:36;-30.630116;74.1828;-40.3359;0.760684;8.458473;-16.5209;0.710782
28-11-2017;11:53:54;76.328430;-76.3269;37.447;0.856468;-13.409290;-12.6311;0.330712
28-11-2017;13:45:9;-3.753509;114.561;-6.33974;0.619923;-2.846718;-19.6383;0.88731
28-11-2017;10:41:44;115.818520;-78.7334;27.8701;0.904872;-11.623354;-14.5543;0.10567
28-11-2017;9:30:15;-142.793579;-93.3314;58.4683;0.715578;-13.966267;-6.30959;-0.24331
28-11-2017;13:45:41;66.416222;-91.0887;25.0989;0.879536;-9.917562;-14.5898;0.24449
28-11-2017;11:50:44;-119.781731;-58.8875;7.87284;0.747737;-5.199584;-14.4428;0.349873
28-11-2017;13:40:56;80.335747;116.823;60.7623;0.699825;-22.547631;-5.61312;-0.0888712
28-11-2017;13:5:11;-49.464893;108.19;-5.12593;0.594863;-2.918113;-18.8179;0.955069
28-11-2017;9:25:9;-144.067612;86.7263;71.8619;0.617958;-17.962775;-0.75954;1.0056
28-11-2017;12:37:36;14.652884;-105.12;-59.4379;0.823001;13.536352;-7.22477;0.76457
28-11-2017;10:10:27;-86.887268;-71.0876;70.1963;0.731063;-15.704831;-2.73453;0.651914
28-11-2017;10:33:43;-27.477419;-106.899;25.7343;0.875263;-8.769979;-13.3559;0.24281
28-11-2017;13:9:3;-148.755051;80.1137;66.013;0.549253;-19.047018;-3.05002;0.552943
28-11-2017;10:28:20;-43.548775;55.8934;24.0379;0.824991;-11.209240;-14.3563;0.354763
28-11-2017;9:47:3;-152.175720;-45.4157;-53.7641;0.695988;9.451460;-9.89005;0.492879
28-11-2017;10:0:38;-29.966944;75.8557;-39.1305;0.670219;8.124143;-16.9172;0.671917
28-11-2017;12:51:15;141.351379;21.3484;-40.3494;0.870026;10.273164;-16.0952;1.04851
28-11-2017;13:3:46;-115.598671;10.1822;71.0057;0.595526;-18.236154;-3.97541;-0.588712
28-11-2017;13:25:12;140.537628;144.372;76.7351;0.8115;-24.829019;1.65807;0.333499
28-11-2017;10:15:16;-141.656326;-29.3385;39.8979;0.683529;-12.731251;-10.5923;-0.180773
28-11-2017;13:20:27;-130.681061;47.0296;-48.585;0.611246;9.897441;-13.2436;0.666145
28-11-2017;12:36:44;-70.965149;75.6767;47.8627;0.596707;-15.903429;-8.59632;0.476539
28-11-2017;9:47:12;-145.484131;-35.0142;-44.7766;0.702427;7.458267;-11.8034;0.554598
28-11-2017;10:2:28;102.486816;-36.0604;70.9435;0.877488;-20.036774;-3.11302;0.439711
28-11-2017;13:30:13;139.265396;-44.0735;57.4629;0.907035;-18.802850;-7.54535;0.48458
28-11-2017;10:9:5;134.351822;134.848;-11.1699;0.750856;-1.806073;-21.1234;1.18954
28-11-2017;10:16:28;-84.518333;55.99;-48.4583;0.712566;10.232267;-14.1863;0.605244
28-11-2017;10:4:7;-148.319458;22.6414;10.8488;0.644467;-6.374347;-14.9006;0.226522
28-11-2017;10:15:25;-134.543030;-18.6295;48.6469;0.660481;-14.787585;-8.94884;-0.429274
28-11-2017;10:44:26;-86.057365;53.8546;29.453;0.777383;-11.858597;-12.8331;0.39985
28-11-2017;13:30:23;147.591934;-31.4697;67.9988;0.909702;-20.497504;-4.02899;0.491638
28-11-2017;10:39:20;-44.782494;-8.4056;43.0237;0.824019;-15.034245;-10.5612;-0.196358
28-11-2017;10:34:10;-5.558816;-74.2546;53.1747;0.851846;-15.275904;-8.1882;0.477642
28-11-2017;10:56:9;-27.805872;57.3335;-67.6521;0.733702;15.227558;-9.09988;0.765956
28-11-2017;10:17:4;-55.401443;99.3639;-11.8185;0.631003;-1.080491;-19.0126;0.63653
28-11-2017;10:40:59;34.363380;110.111;-17.552;0.725394;1.143112;-19.6742;0.96681
28-11-2017;9:31:46;-70.849266;14.0658;-10.9875;0.748039;0.044515;-16.782;0.672812
28-11-2017;10:47:45;117.080650;47.8776;68.4682;0.884452;-22.110067;-2.6891;0.44443
28-11-2017;10:3:4;131.468613;7.17505;-52.6579;0.859748;13.774184;-12.9841;0.991829
28-11-2017;12:50:2;83.040070;-66.2337;46.1282;0.882087;-15.665602;-10.7274;0.30713
28-11-2017;10:28:57;-14.974107;98.8432;59.4975;0.708039;-19.633097;-5.20453;0.201481
28-11-2017;13:21:30;-35.214981;-119.997;14.8633;0.814272;-5.332559;-14.4462;0.246681
28-11-2017;9:34:38;110.567665;-24.7024;0.966454;0.876006;-4.088738;-18.15;0.224642
28-11-2017;13:36:54;-157.204147;71.7102;-21.6102;0.592259;1.192590;-16.9506;0.171857
28-11-2017;12:50:23;99.820587;-41.132;67.0616;0.878161;-19.741023;-4.5404;0.359325
28-11-2017;11:46:21;-43.786301;-69.8424;64.5241;0.721317;-16.761258;-5.15947;0.488996
28-11-2017;12:49:9;-4.177472;114.007;-6.98164;0.611872;-2.601953;-19.6836;0.896611
28-11-2017;10:54:59;-107.926628;-41.5474;22.7291;0.833752;-9.084269;-13.037;0.432684
28-11-2017;14:1:34;14.027066;-107.62;18.2322;0.869983;-7.277608;-14.8141;0.224584
28-11-2017;10:3:13;138.626114;17.9512;-43.6624;0.876594;11.295121;-15.3235;1.03333
28-11-2017;9:32:31;-35.130863;67.9554;34.1138;0.737508;-13.963297;-12.485;0.273818
28-11-2017;11:45:49;-68.969376;-107.161;32.8817;0.748621;-9.462398;-12.124;0.227735
28-11-2017;13:28:22;6.209843;67.5482;-53.0029;0.710609;12.468645;-14.3532;0.732147
28-11-2017;10:40:50;27.108967;99.4173;-26.5585;0.747959;4.573305;-18.7963;1.02266
28-11-2017;10:12:24;6.651019;68.539;27.4645;0.671698;-13.239124;-14.4377;0.22545
28-11-2017;9:34:1;81.587799;-67.7524;-35.4343;0.889216;8.923686;-13.9741;0.867834
28-11-2017;13:36:1;172.486023;73.637;-75.0746;0.836735;19.184588;-8.39228;0.982362
28-11-2017;11:52:8;-53.384544;41.0603;-67.862;0.685357;14.552595;-9.79278;0.521699
28-11-2017;9:28:9;-31.693876;-51.0602;0.72106;0.8232;-2.978419;-15.9091;0.176545
28-11-2017;13:20:16;-141.013397;35.2427;-59.2344;0.605042;11.240850;-10.0874;0.546364
28-11-2017;10:45:2;-56.882805;97.6628;65.9251;0.680457;-20.692337;-3.01066;0.483286
28-11-2017;13:29:41;114.328926;-81.5047;25.9497;0.933302;-10.961272;-15.0177;0.201241
28-11-2017;13:11:4;-8.744259;-17.9168;28.4251;0.79214;-12.054689;-13.9469;-0.0139485
28-11-2017;12:52:30;153.100876;37.1156;-25.7566;0.878621;5.148154;-18.7117;1.04358
28-11-2017;10:4:16;-141.265091;33.6293;19.1793;0.646971;-8.351254;-13.9393;0.380216
28-11-2017;13:43:45;-69.426277;14.2977;70.0244;0.697617;-18.812751;-2.76341;0.462182
28-11-2017;13:59:38;-123.313431;-1.98797;63.0667;0.648172;-15.993494;-5.06106;0.109626
28-11-2017;10:29:24;88.951546;-104.842;-73.4689;0.90341;16.077864;-4.27535;0.865167
28-11-2017;13:19:55;-156.461105;10.1795;80.0983;0.634829;-16.890906;-0.758419;-0.216357
28-11-2017;9:46:36;156.432388;-17.5845;79.0966;0.88803;-21.403661;0.160341;0.53939
28-11-2017;10:39:38;-29.264631;14.0677;62.2423;0.787512;-18.685650;-4.97222;0.476194
28-11-2017;11:54:57;125.468987;-1.11127;-59.3359;0.856324;15.329082;-10.9453;1.00086
28-11-2017;10:49:42;-74.220772;-115.263;25.9663;0.85414;-8.154382;-12.4026;0.277159
28-11-2017;13:45:30;58.119640;-103.529;14.6747;0.862024;-6.779943;-15.7118;0.19419
28-11-2017;14:10:30;-129.330780;-74.3763;74.0652;0.613839;-15.828992;-1.71606;0.349157
28-11-2017;9:33:34;59.342281;-99.8086;-62.4009;0.892516;14.449541;-7.05693;0.809629
28-11-2017;13:27:51;-18.009607;29.6127;74.3487;0.70391;-20.020176;-1.13004;0.529776
28-11-2017;14:9:6;87.779961;127.728;-9.5736;0.660965;-2.437836;-21.208;0.798072
28-11-2017;9:32:22;-42.347622;57.1829;25.0331;0.777047;-11.417865;-14.2136;0.327945
28-11-2017;12:53:2;-103.469551;91.0874;65.3511;0.563483;-17.724933;-3.2824;0.388098
28-11-2017;10:52:52;76.623428;111.049;56.2192;0.785387;-22.035665;-6.34194;0.493948
28-11-2017;13:15:41;-73.472473;9.90918;-14.1336;0.696961;1.040300;-16.7226;0.654228
28-11-2017;12:38:29;57.984810;-42.3071;-6.43526;0.785797;-0.815120;-17.6435;0.593195
28-11-2017;9:44:11;-4.807433;52.6148;-65.7923;0.68209;14.828471;-10.9868;0.534674
28-11-2017;13:15:20;-90.239273;-15.1107;-35.2317;0.687382;7.064920;-14.1795;0.637461
28-11-2017;10:22:38;-31.131662;-50.2526;1.19427;0.883211;-3.443702;-15.588;0.53872
28-11-2017;10:48:3;173.317902;73.8433;-73.814;0.858104;18.476589;-9.13735;0.740814
28-11-2017;13:4:50;-66.326797;82.9829;-25.7269;0.664193;3.945231;-17.9055;0.788931
28-11-2017;10:40:14;-2.081810;56.3784;-62.4271;0.762898;14.416368;-11.6413;0.688153
28-11-2017;13:31:12;-144.266998;-34.6212;-43.5007;0.723508;6.807871;-12.268;0.253449
28-11-2017;10:45:20;36.093674;-117.221;-76.7404;0.898388;15.551267;-2.60976;0.810112
28-11-2017;14:9:48;166.569168;-65.3602;32.3184;0.933675;-13.623082;-14.4039;0.18644
28-11-2017;12:38:19;49.219143;-54.6921;-16.9429;0.789628;2.784624;-16.4701;0.652235
28-11-2017;9:26:4;-57.514637;-90.4158;-32.579;0.812633;6.968407;-12.8259;0.53438
28-11-2017;9:57:37;156.600220;-79.7704;-59.7252;0.923764;15.233698;-9.38227;0.895798
28-11-2017;13:36:12;138.350464;80.1948;-63.8501;0.814357;16.700734;-11.6958;0.986365
28-11-2017;10:34:46;22.064150;-31.255;-70.6099;0.832205;15.578107;-6.00056;0.792374
28-11-2017;13:13:5;87.319550;127.077;-10.0269;0.693931;-2.337937;-21.2675;0.749254
28-11-2017;10:5:11;-97.817299;98.4867;73.8671;0.585011;-20.336725;-0.410221;0.570139
28-11-2017;13:47:16;141.806137;22.0745;-39.8092;0.870687;10.146233;-16.179;1.07648
28-11-2017;9:43:53;-18.164572;31.0826;76.1163;0.718846;-19.883733;-1.49452;-0.219926
28-11-2017;10:29:42;66.171272;-90.6133;-54.7295;0.915388;13.204527;-9.48391;0.829504
28-11-2017;13:13:58;174.369583;-53.4095;42.3349;0.940329;-16.226064;-12.1021;0.315256
28-11-2017;10:39:2;-59.346531;-29.2772;25.3861;0.832857;-10.495084;-13.6863;-0.128601
28-11-2017;10:32:30;-129.623703;50.5758;-46.4185;0.696621;9.163848;-13.7213;0.623012
28-11-2017;13:38:7;-53.552448;-84.59;51.9341;0.79701;-13.725975;-8.40865;0.430576
28-11-2017;12:54:5;-8.512742;-78.983;-30.489;0.826981;6.808747;-14.1796;0.652811
28-11-2017;10:42:11;137.076065;-46.6024;54.7769;0.920134;-18.059359;-8.19084;0.536341
28-11-2017;12:47:3;-103.705345;-37.2476;27.017;0.772748;-10.499133;-12.7677;0.370628
28-11-2017;10:45:56;30.898251;-81.9149;-39.8852;0.905738;9.384778;-12.7416;0.685585
28-11-2017;13:16:55;-15.887939;99.5904;60.5961;0.600999;-19.990170;-5.81498;0.0709878
28-11-2017;10:13:55;123.473373;-67.0153;-42.0335;0.920284;10.881183;-13.5619;0.887344
28-11-2017;13:42:52;-112.489624;-49.1152;16.8728;0.784119;-7.551305;-13.6744;0.425322
28-11-2017;10:18:35;61.216843;-36.2328;77.9604;0.837344;-19.931225;-0.855996;0.512449
28-11-2017;12:44:9;33.025051;45.4487;1.89769;0.731242;-4.964946;-18.198;0.488717
28-11-2017;10:41:17;88.927330;-107.824;0.964211;0.929391;-2.768401;-16.4688;0.182313
28-11-2017;9:56:52;75.543251;109.671;54.881;0.695556;-21.931703;-6.94922;0.464085
28-11-2017;13:26:16;-94.667480;-82.9813;-19.5463;0.776422;3.415282;-13.6771;0.518618
28-11-2017;11:51:37;-78.258797;4.53736;61.9127;0.634499;-17.860066;-6.32169;-0.463454
28-11-2017;10:51:13;-2.706038;-7.56677;-43.4649;0.885529;9.711394;-14.0815;0.622446
28-11-2017;10:49:24;-93.560356;-132.867;8.00396;0.844719;-3.440520;-13.5572;0.188591
28-11-2017;13:16:13;-48.220291;47.1663;16.9894;0.712087;-9.090132;-15.1363;0.703425
28-11-2017;10:56:18;-45.573963;52.3593;-58.2652;0.766313;12.938059;-12.2368;0.652944
28-11-2017;12:55:40;67.052780;34.2251;64.859;0.763314;-20.901660;-4.38801;0.464161
28-11-2017;14:12:15;-46.117352;51.6237;20.8436;0.681561;-10.246339;-14.9407;0.353629
28-11-2017;10:4:34;-126.782188;54.8354;37.4096;0.642383;-12.980182;-10.8953;0.354956
28-11-2017;10:4:25;-134.042679;44.1198;28.3066;0.664042;-10.736827;-12.616;0.366845
28-11-2017;13:32:47;-68.030891;79.6366;51.8774;0.648955;-18.291344;-7.24711;0.681713
28-11-2017;14:2:48;71.692261;-19.6798;-67.5805;0.853854;16.055806;-7.55671;0.870498
28-11-2017;10:16:1;-73.582283;29.3897;-76.389;0.698506;14.982396;-6.43386;0.356835
28-11-2017;10:10:18;-94.543289;-82.8916;60.31;0.753638;-14.357486;-4.6156;0.954964
28-11-2017;10:54:5;-157.465790;-105.014;-31.3509;0.784763;5.478123;-11.5341;0.152202
28-11-2017;9:33:16;0.829485;121.712;79.2108;0.69285;-21.168066;1.51908;0.202937
28-11-2017;13:21:20;-49.697414;-129.265;5.06676;0.815777;-2.519426;-13.7804;0.238635
28-11-2017;10:30:36;108.706917;-26.1561;-0.0720265;0.879295;-4.099191;-18.0177;0.0336567
28-11-2017;13:56:7;-5.732231;49.4306;11.7733;0.763478;-7.945596;-16.752;0.393411
28-11-2017;9:48:6;-227.257767;166.628;89.756;0.544054;-3.067154;-15.9168;0.868719
28-11-2017;10:33:52;-19.942154;-95.732;35.2579;0.8727;-11.244399;-11.9851;0.274251
28-11-2017;10:41:53;123.012085;-67.7975;36.7822;0.915394;-13.916641;-13.0899;0.292695
28-11-2017;10:17:59;32.544182;-79.1691;41.8946;0.84794;-13.723797;-11.2569;0.378861
28-11-2017;10:51:22;4.425253;3.25747;-34.6161;0.871826;7.485749;-15.6756;0.788181
28-11-2017;12:36:54;-62.796982;88.0563;58.6916;0.582586;-18.116713;-5.64905;0.267474
28-11-2017;14:2:5;39.264191;-69.7122;50.334;0.869225;-15.810176;-9.28882;0.349296
28-11-2017;13:26:26;-85.430717;-71.3728;-8.64143;0.779294;-0.609185;-15.4621;0.132879
28-11-2017;12:58:17;-93.559189;-82.2844;61.2219;0.700784;-15.326075;-5.99456;0.45748
28-11-2017;14:7:46;24.599039;32.96;71.809;0.73688;-20.508208;-2.32581;0.129956
28-11-2017;9:29:57;172.879272;-55.1941;40.4639;0.898241;-15.682270;-12.5205;0.233732
28-11-2017;13:23:45;72.574875;31.3583;-10.59;0.737565;-0.436854;-18.1514;0.784824
28-11-2017;10:58:6;86.020622;-61.0275;50.0358;0.923536;-16.567706;-9.5958;0.327139
28-11-2017;9:57:28;148.305771;-90.7591;-69.1958;0.915587;16.590385;-6.29653;0.868151
28-11-2017;10:16:19;-91.427391;45.5638;-57.8583;0.68962;12.381854;-11.7448;0.613303
28-11-2017;13:26:47;-69.021507;-46.1916;11.6874;0.795165;-5.957430;-14.6781;0.516963
28-11-2017;13:31:2;-160.859314;-50.1493;-55.4045;0.717606;9.519156;-9.53465;0.119869
28-11-2017;10:43:59;-107.973930;21.9168;2.3099;0.781592;-3.900164;-15.6665;0.56237
28-11-2017;13:3:57;-76.469353;26.2044;-79.5946;0.680479;15.268280;-5.60865;0.335913
28-11-2017;10:32:12;-144.518646;28.3624;-64.1775;0.677863;11.663029;-9.71572;0.215237
28-11-2017;9:28:27;56.026299;79.0637;-49.9242;0.741293;12.389802;-15.2779;0.944066
28-11-2017;12:37:47;24.094782;-92.3975;-48.4792;0.812149;11.741110;-10.0245;0.808078
28-11-2017;10:33:34;-38.184666;-119.134;17.2668;0.858885;-6.293747;-14.0556;0.246816
28-11-2017;10:18:17;46.818882;-57.7245;59.9636;0.827871;-17.649404;-6.64957;0.448098
28-11-2017;13:13:16;136.034943;-99.8882;0.870744;0.953854;-3.087688;-17.2499;0.237148
28-11-2017;12:45:17;182.055176;-93.6476;-78.8096;0.933051;17.889204;-3.55172;0.837298
28-11-2017;13:12:34;62.394367;89.3128;-41.6618;0.72242;9.359425;-18.0869;0.67196
28-11-2017;10:38:34;-80.092628;-62.3479;-2.02517;0.826562;-2.085815;-15.5013;0.332065
28-11-2017;10:50:55;-16.915014;-29.3255;-61.4099;0.872853;13.506564;-9.47894;0.615869
28-11-2017;10:52:34;62.266232;89.6362;37.8442;0.783768;-16.925335;-12.2518;0.340165
28-11-2017;11:47:3;-10.000235;-19.71;-52.7282;0.686695;12.010651;-11.9419;0.615599
28-11-2017;9:31:28;-85.178665;-7.57964;-28.9181;0.758516;5.338757;-15.036;0.649369
28-11-2017;11:50:23;-136.209686;-84.1734;-12.9042;0.709292;1.084918;-14.4214;0.325255
28-11-2017;13:30:44;203.951324;1.45691;-71.2677;0.918203;18.256492;-8.47929;0.919372
28-11-2017;12:37:58;32.673885;-79.9726;-37.8789;0.821106;9.107686;-12.8097;0.778341
28-11-2017;10:2:10;88.369087;-57.7674;52.7344;0.880247;-16.908554;-8.75426;0.518595
28-11-2017;9:42:50;-68.656029;-43.5692;13.0581;0.759527;-6.320025;-14.8381;0.291149
28-11-2017;10:35:13;44.152035;0.865073;-43.5555;0.844113;10.389260;-13.4261;0.841696
28-11-2017;13:3:25;-133.360703;-17.5441;49.9503;0.622855;-14.606446;-8.64938;-0.184443
28-11-2017;10:46:42;66.090034;-28.1219;5.36087;0.903161;-5.563381;-17.3978;0.0284038
28-11-2017;10:57:39;64.683960;-93.2242;22.9532;0.89716;-9.374315;-14.903;0.159943
28-11-2017;14:2:16;47.659664;-57.0832;60.8917;0.876187;-17.948207;-6.51734;0.277847
28-11-2017;9:29:3;84.516006;122.934;-14.0007;0.713922;-0.226602;-19.4045;1.14641
28-11-2017;13:28:43;22.951653;92.6254;-31.9954;0.699722;6.141929;-18.8137;0.777876
28-11-2017;11:54:36;109.759979;-26.1145;79.5699;0.830269;-20.873190;-0.0512364;0.52061
28-11-2017;13:49:47;-109.024193;78.2715;60.7561;0.532072;-19.220695;-4.73454;-0.765061
28-11-2017;13:46:2;83.544769;-65.5552;46.6676;0.886675;-15.885079;-10.5863;0.272414
28-11-2017;13:24:20;98.703102;81.5961;24.4213;0.75987;-13.814115;-16.0531;0.338844
28-11-2017;13:34:58;80.806458;-7.52554;22.5023;0.859632;-11.104271;-15.7003;0.252266
28-11-2017;13:4:8;-100.675507;31.6574;-68.3639;0.637775;13.811463;-8.96266;0.480318
28-11-2017;13:25:44;-118.847008;-120.605;-50.4265;0.719625;9.429096;-8.4059;0.207011
28-11-2017;9:34:29;103.110153;-35.5312;-8.3866;0.861896;-0.319512;-17.3903;0.677445
28-11-2017;13:0:13;-1.387721;55.8777;17.235;0.649877;-9.848472;-16.1239;0.342581
28-11-2017;13:29:52;122.722206;-68.8525;36.5161;0.924729;-14.045690;-13.2917;0.252477
28-11-2017;9:45:51;120.367477;-71.8559;33.5778;0.867591;-12.989377;-13.8103;0.31549
28-11-2017;9:24:3;130.742920;67.5548;6.17082;0.835955;-7.735560;-19.2707;0.317804
28-11-2017;10:28:29;-36.077038;66.1206;33.3905;0.779339;-15.140668;-13.0679;-0.283901
28-11-2017;11:51:58;-27.076239;34.6084;-79.4848;0.668526;16.351718;-6.56273;0.531552
28-11-2017;13:27:8;-52.491234;-20.2472;33.282;0.756167;-12.261217;-12.345;0.318968
28-11-2017;10:0:56;-15.575190;97.5338;-21.3411;0.635939;2.474322;-19.2525;0.843956
28-11-2017;13:24:51;123.601463;119.181;56.1596;0.769487;-22.319591;-6.63914;0.205037
28-11-2017;9:25:31;-84.549782;-129.538;-65.3947;0.779402;11.925417;-4.71165;0.73823
28-11-2017;10:53:10;90.733673;132.723;73.9989;0.790662;-23.890993;0.489062;0.435902
28-11-2017;13:35:29;105.640854;30.1071;54.3876;0.85421;-19.934453;-7.89445;0.379496
28-11-2017;10:38:43;-73.843941;-51.8441;6.59433;0.834832;-4.824375;-14.6528;0.509737
28-11-2017;10:6:5;-10.081460;-80.7069;-32.2875;0.838209;7.248931;-13.8614;0.62606
28-11-2017;9:34:20;95.680717;-46.2774;-17.3557;0.888546;2.933428;-16.7016;0.73656
28-11-2017;11:51:16;-94.671143;-20.8191;39.0843;0.669957;-12.316722;-10.1488;0.91202
28-11-2017;10:14:22;145.073776;-34.7839;-14.9707;0.894715;1.801317;-18.4613;0.648772
28-11-2017;9:30:25;-135.811356;-83.1843;67.75;0.695378;-15.640238;-4.01631;-0.481844
28-11-2017;10:52:16;47.445484;67.6259;19.5068;0.825352;-11.398403;-16.3374;0.312751
28-11-2017;10:57:12;-2.287687;118.146;-4.50021;0.700522;-3.427673;-18.9052;1.00427
28-11-2017;10:35:22;52.497128;10.8612;-34.5298;0.812863;7.677888;-16.6366;0.763019
28-11-2017;13:13:26;149.391373;-90.8574;10.8807;0.951421;-6.517848;-17.1162;0.174734
28-11-2017;13:37:36;-77.806236;-121.564;20.3847;0.803161;-6.034371;-13.4017;0.355632
28-11-2017;10:49:6;-147.733276;85.4899;-10.5389;0.692507;-0.712728;-16.7131;0.920732
28-11-2017;12:42:53;-18.239365;-32.0483;-62.8245;0.785072;14.005187;-8.80399;0.744588
28-11-2017;10:26:27;-134.127731;-88.8185;71.8143;0.771639;-15.955646;-3.40697;-0.416675
28-11-2017;10:13:46;116.334747;-77.502;-51.1771;0.928587;13.155806;-11.2289;0.85783
28-11-2017;12:47:45;-71.416405;14.2359;69.1961;0.682242;-18.245811;-3.01886;0.384067
28-11-2017;9:26:15;-48.567360;-77.6155;-21.6534;0.818932;4.123769;-14.5819;0.583792
28-11-2017;13:33:54;30.453238;-85.2189;-41.1003;0.891248;9.629914;-12.7118;0.564722
28-11-2017;10:46:51;74.088013;-17.3357;13.6334;0.886647;-8.336790;-16.8102;0.270344
28-11-2017;10:11:12;-50.818584;-17.3035;-44.5703;0.783297;9.836814;-12.7752;0.790669
28-11-2017;13:17:27;54.600258;-107.723;-68.5128;0.914484;15.237057;-5.28519;0.861842
28-11-2017;10:46:15;45.051918;-60.2008;-22.0243;0.889247;4.322349;-16.1044;0.649865
28-11-2017;10:15:52;-112.734268;13.6348;75.6809;0.614222;-18.592806;-2.269;-0.582543
28-11-2017;9:24:25;147.604431;93.2472;27.6288;0.838564;-15.332203;-14.2303;0.576058
28-11-2017;10:13:37;109.121529;-88.4585;-60.0226;0.923474;14.794044;-8.66092;0.857267
28-11-2017;10:23:41;19.901590;26.2799;64.7593;0.811024;-19.870003;-4.25425;0.480201
28-11-2017;11:48:6;39.602356;55.7547;10.2325;0.605265;-8.129379;-17.6975;0.37303
28-11-2017;11:55:18;142.875641;23.7593;-38.3415;0.858166;9.676329;-16.5142;1.07677
28-11-2017;13:46:44;154.854233;-7.14777;-71.786;0.878116;17.827337;-7.50296;0.937727
28-11-2017;12:59:41;-26.485525;18.2152;-14.2483;0.718379;1.109945;-17.1005;0.814942
28-11-2017;10:35:4;37.203369;-9.90781;-52.6939;0.826042;12.786450;-11.2744;0.871207
28-11-2017;13:25:55;-110.434319;-108.192;-40.6233;0.734674;8.315223;-10.8499;0.393544
28-11-2017;12:55:8;41.609329;-3.89402;32.6304;0.765487;-13.300666;-13.4978;0.240935
28-11-2017;13:44:48;-20.591383;89.461;-27.3117;0.654688;4.472529;-18.5337;0.788832
28-11-2017;10:54:32;-129.481659;-73.5469;-4.5137;0.796988;-1.513281;-14.7834;0.237871
28-11-2017;13:22:33;14.060035;-45.3081;77.8819;0.800402;-18.785344;-1.27509;0.225675
28-11-2017;13:5:21;-1.100585;-119.399;6.41636;0.851796;-3.374089;-15.1028;0.315778
28-11-2017;14:12:26;-36.909248;62.7358;30.661;0.63489;-14.248908;-13.0577;0.557659
28-11-2017;10:3:58;-155.884354;12.1706;0.846504;0.668799;-3.103662;-14.7522;0.806816
28-11-2017;10:5:56;-16.550224;-92.2328;-41.0357;0.822246;9.074327;-12.3217;0.475592
28-11-2017;13:15:31;-81.896286;-2.58051;-24.5706;0.68756;4.167932;-15.7116;0.64281
28-11-2017;9:34:56;124.805916;-3.55097;18.5145;0.870947;-10.732697;-16.9114;0.206064
28-11-2017;9:46:0;127.394974;-61.2281;42.703;0.877628;-15.503652;-11.7974;0.307384
28-11-2017;10:0:2;-23.066998;38.6983;-75.3076;0.694179;16.218859;-7.03462;0.636196
28-11-2017;10:38:25;-87.925514;-72.7236;-11.2658;0.825473;0.856715;-14.5364;0.473891
28-11-2017;13:11:46;24.330103;32.5067;70.4063;0.742321;-20.605577;-2.4505;0.468992
28-11-2017;10:21:53;-66.927895;-102.888;-43.7419;0.852449;9.376136;-10.192;0.451728
28-11-2017;10:46:33;59.447151;-38.8523;-4.0384;0.866449;-1.769872;-17.5402;0.553145
28-11-2017;13:44:16;-45.444717;52.1162;-58.9346;0.710518;13.093948;-12.2337;0.597313
28-11-2017;10:36:55;126.468643;123.071;57.4567;0.80279;-23.116451;-5.80007;0.516527
28-11-2017;10:5:47;-24.441805;-102.33;-50.0682;0.817932;11.304626;-9.04712;0.637352
28-11-2017;10:58:52;121.024864;-7.20003;-64.9951;0.893088;16.154428;-9.31007;0.95504
28-11-2017;12:43:46;24.192747;31.7717;-9.86578;0.694849;-0.552664;-18.433;0.753074
28-11-2017;10:44:17;-93.223732;43.1674;20.3747;0.787104;-9.344451;-14.2906;0.392559
28-11-2017;10:46:5;38.068027;-71.0299;-31.0162;0.904287;6.966449;-14.7456;0.654796
28-11-2017;10:2:55;123.608299;-3.51708;-61.6508;0.857383;15.747995;-10.2663;0.956966
28-11-2017;10:42:2;129.902145;-57.3642;45.8352;0.908918;-16.251549;-10.9122;0.34718
28-11-2017;10:11:57;-14.985214;36.4614;0.616999;0.757822;-4.090431;-17.4884;0.503843
28-11-2017;10:24:35;62.687347;90.4903;-41.2289;0.783268;9.656228;-17.4132;0.967796
28-11-2017;10:13:28;101.328880;-99.0671;-68.971;0.910269;16.010177;-5.78096;0.8746
28-11-2017;13:8:41;-167.199966;55.785;45.7486;0.563667;-16.001807;-8.6431;0.43568
28-11-2017;10:34:19;1.572482;-63.4585;62.3705;0.852216;-17.012923;-5.79959;0.45344
28-11-2017;13:37:15;-140.107361;95.8699;-0.466647;0.584335;-3.784590;-17.1828;0.905273
28-11-2017;14:7:36;18.219606;21.2625;58.0635;0.751052;-19.033997;-6.3899;0.545467
28-11-2017;10:14:4;130.706970;-56.251;-32.9362;0.908605;8.182746;-15.6342;0.845577
28-11-2017;10:31:3;130.842224;6.02331;26.2436;0.891276;-13.589889;-15.3264;0.0985819
28-11-2017;10:50:28;-38.624668;-61.5756;70.9834;0.870151;-17.307037;-3.14996;0.385071
28-11-2017;12:42:11;-51.142235;-81.1586;55.1358;0.774505;-15.152376;-7.63379;0.475902
28-11-2017;13:0:2;-10.002396;43.5262;6.81999;0.707984;-6.257573;-17.1753;0.4271
28-11-2017;10:21:35;-80.574020;-124.681;-61.7444;0.847551;11.977659;-6.36063;0.440978
28-11-2017;10:5:29;-39.426365;-123.577;-67.9204;0.798389;13.330366;-4.53453;0.523867
28-11-2017;12:42:21;-42.947666;-68.5445;65.5572;0.779808;-16.832313;-4.88358;0.491205
28-11-2017;13:55:4;-67.618896;-41.5894;-64.5604;0.83681;13.277390;-6.82468;0.584496
28-11-2017;13:6:56;78.439232;-9.76354;-59.0943;0.853282;14.594035;-10.2458;0.890259
28-11-2017;10:11:39;-29.299168;14.8104;-17.5807;0.774211;2.249705;-16.7795;0.849195
28-11-2017;10:36:37;111.254585;100.782;40.707;0.799832;-19.245197;-11.7047;0.0721625
28-11-2017;13:56:39;19.715694;86.3802;43.3283;0.880769;-17.898095;-10.099;0.753445
28-11-2017;13:43:13;-95.887039;-23.5335;37.5549;0.741553;-12.979633;-10.8675;0.468654
28-11-2017;11:48:59;82.320702;117.717;61.6956;0.641428;-23.077239;-4.57252;0.466805
28-11-2017;10:14:31;152.230682;-24.1142;-5.98438;0.887392;-1.739361;-19.0588;0.596497
28-11-2017;14:0:52;-64.732063;85.3412;-23.6806;0.665783;3.219287;-18.0997;0.749811
28-11-2017;10:8:20;97.590340;80.8104;-56.5858;0.769469;14.479907;-13.2832;0.953532
28-11-2017;10:53:19;183.452606;-93.1179;-77.187;0.924275;17.256211;-4.37844;0.602685
28-11-2017;11:45:39;-77.142624;-119.891;22.5361;0.766511;-7.067200;-13.4638;0.136126
28-11-2017;10:48:57;-155.999084;73.7842;-18.6199;0.697451;0.652925;-16.4562;0.394913
28-11-2017;12:53:34;-34.356831;-116.352;-61.7715;0.819679;12.978685;-5.82114;0.674285
28-11-2017;13:4:39;-74.753242;70.3887;-36.1727;0.682426;7.007282;-16.5164;0.698434
28-11-2017;10:42:38;197.568726;-7.57327;-78.4084;0.907335;18.785400;-5.9986;0.787442
28-11-2017;14:3:40;114.336357;42.7188;-15.1488;0.826291;1.166967;-18.8501;0.993011
28-11-2017;11:46:0;-59.882988;-95.4517;43.1384;0.743059;-12.319122;-10.0776;0.60282
28-11-2017;10:45:29;8.681216;-114.153;-66.8927;0.902006;14.131324;-5.53631;0.671256
28-11-2017;13:58:13;139.819687;-43.2861;-21.604;0.918613;4.290176;-17.6085;0.74713
28-11-2017;12:45:38;158.531036;-77.2766;-57.3516;0.938353;14.792925;-10.1429;0.833191
28-11-2017;9:44:47;26.964596;95.0283;-29.1902;0.646714;5.368873;-19.2867;0.892172
28-11-2017;10:3:31;152.967407;39.4148;-25.5846;0.868122;5.092792;-18.7741;1.06486
28-11-2017;13:57:0;36.124180;112.113;64.3623;0.788572;-22.293043;-3.54534;0.504403
28-11-2017;9:45:33;106.779106;-93.1732;15.7792;0.888398;-7.754645;-16.1896;0.080713
28-11-2017;10:16:55;-63.136044;88.4766;-21.6112;0.658872;2.637939;-18.1818;0.83235
28-11-2017;9:29:21;139.305466;-94.562;5.12931;0.937016;-4.508226;-17.1095;0.146967
28-11-2017;9:57:19;182.579880;-94.2285;-78.6353;0.910556;17.905555;-3.55779;0.84694
28-11-2017;12:39:54;124.686707;58.592;78.0619;0.828745;-22.699426;0.806683;0.524902
28-11-2017;10:26:37;-98.305000;-61.4427;-80.7476;0.82801;13.749283;-2.93295;0.692767
28-11-2017;9:43:44;-24.976851;21.487;67.1901;0.707562;-19.120064;-4.76258;-0.201744
28-11-2017;9:23:52;129.839432;40.6719;-4.86271;0.816338;-2.902564;-19.812;0.720879
28-11-2017;13:32:5;-102.280975;29.771;9.38289;0.732426;-6.028582;-15.3716;0.552166
28-11-2017;13:15:10;-98.515961;-27.3989;-45.7769;0.697448;9.291805;-12.3352;0.456689
28-11-2017;13:10:53;-17.215761;-30.1207;17.806;0.824038;-8.350528;-15.2353;0.14975
28-11-2017;11:55:7;134.556213;11.0833;-48.8853;0.875721;12.794459;-14.0148;1.03567
28-11-2017;13:16:2;-57.230011;34.9787;7.05568;0.741259;-5.777057;-16.3564;0.436315
28-11-2017;13:41:7;88.696968;128.869;71.0411;0.723279;-23.691746;-1.67167;-0.0176872
28-11-2017;10:50:37;0.422644;-42.9855;-80.4515;0.844814;16.198166;-2.78811;0.822893
28-11-2017;10:1:5;-8.483446;108.052;-12.1557;0.625702;-0.805756;-19.6792;0.850295
28-11-2017;10:10:54;-66.115631;-39.4297;-62.8755;0.78587;13.037833;-8.41776;0.577423
28-11-2017;13:10:43;-25.953279;-42.7922;7.56061;0.816473;-5.029029;-15.8593;0.246006
28-11-2017;10:8:56;126.776039;123.935;-20.1213;0.762231;1.906233;-20.3101;1.1251
28-11-2017;10:47:9;88.492058;4.74978;32.4028;0.888966;-14.422779;-13.8715;0.302345
28-11-2017;13:37:25;-92.589760;-131.405;10.8418;0.793373;-3.687670;-12.9543;0.186668
28-11-2017;11:50:2;176.783203;-49.5706;-34.3597;0.895042;8.697066;-16.2202;0.815141
28-11-2017;13:38:18;-44.563953;-72.6241;62.563;0.810922;-16.291733;-5.60075;0.564981
28-11-2017;10:52:43;70.130341;99.7426;46.594;0.80416;-19.709662;-9.38005;0.697782
28-11-2017;10:56:54;-16.748560;95.8578;-22.5285;0.712833;2.790593;-18.9045;0.824197
28-11-2017;12:50:44;154.316559;-7.72226;-72.2976;0.876677;17.881954;-7.32971;0.914558
28-11-2017;12:55:19;49.923401;8.53465;43.2133;0.770512;-16.113555;-11.0512;0.200513